PCBNEW-LibModule-V1  2020-02-05 13:51:41
# encoding utf-8
Units mm
$INDEX
DIOM5226X230N
$EndINDEX
$MODULE DIOM5226X230N
Po 0 0 0 15 5e3ac86d 00000000 ~~
Li DIOM5226X230N
Cd SMA (1)
Kw TVS Diode (Uni-directional)
Sc 0
At SMD
AR 
Op 0 0 0
T0 0 0 1.27 1.27 0 0.254 N V 21 N "D**"
T1 0 0 1.27 1.27 0 0.254 N I 21 N "DIOM5226X230N"
DS -3.575 -1.71 3.575 -1.71 0.05 24
DS 3.575 -1.71 3.575 1.71 0.05 24
DS 3.575 1.71 -3.575 1.71 0.05 24
DS -3.575 1.71 -3.575 -1.71 0.05 24
DS -2.598 -1.302 2.598 -1.302 0.1 24
DS 2.598 -1.302 2.598 1.302 0.1 24
DS 2.598 1.302 -2.598 1.302 0.1 24
DS -2.598 1.302 -2.598 -1.302 0.1 24
DS -2.598 -0.528 -1.822 -1.302 0.1 24
DS 2.598 -1.302 -2.925 -1.302 0.2 21
DS -2.598 1.302 2.598 1.302 0.2 21
$PAD
Po -2.15 0
Sh "1" R 1.55 2.35 0 0 900
At SMD N 00888000
Ne 0 ""
$EndPAD
$PAD
Po 2.15 0
Sh "2" R 1.55 2.35 0 0 900
At SMD N 00888000
Ne 0 ""
$EndPAD
$EndMODULE DIOM5226X230N
$EndLIBRARY
