(Source "DipTrace-ElementLibrary")
  (Library
    (Name "3001")
    (Hint "3001")
    (Subfolders
    )
    (Categories 0
    )
    (Components
      (Component
        (Part "3001" "U"
          (Enabled "Y")
          (PartType 0)
          (PartName "3001")
          (ShowNumbers 1)
          (Type 0)
          (Number1 0)
          (Number2 0)
          (Width 60.96)
          (Height 91.44)
          (Value "")
          (LockProperties "N")
          (OriginX 0)
          (OriginY 0)
          (Datasheet "http://www.keyelco.com/product-pdf.cfm?p=778")
          (ModelType 0)
          (ModelString "")
          (ModelBody
          )
          (Manufacturer "Keystone Electronics")
          (CategoryName "")
          (CategoryIndex -1)
          (CategoryTypes 0
          )
          (SubfolderIndex 0)
          (Verification "N" "N" "N" "N" "N" "N" "N")
          (Pins
            (Pin 0 15.24 -0
              (Enabled "Y")
              (Locked "N")
              (ModelSig "")
              (Type 0)
              (Orientation 0)
              (Number 1)
              (Length 15.24)
              (Name "POS_1")
              (StringNumber "1")
              (ShowName "Y")
              (PinNumXShift 0)
              (PinNumYShift 0)
              (PinNamexShift 0)
              (PinNameYShift 0)
              (ElectricType 0)
              (NameFontSize 5)
              (NameFontWidth -2)
              (NameFontScale 1)
              (SignalDelay 0)
            )
            (Pin 1 15.24 15.24
              (Enabled "Y")
              (Locked "N")
              (ModelSig "")
              (Type 0)
              (Orientation 0)
              (Number 2)
              (Length 15.24)
              (Name "POS_2")
              (StringNumber "2")
              (ShowName "Y")
              (PinNumXShift 0)
              (PinNumYShift 0)
              (PinNamexShift 0)
              (PinNameYShift 0)
              (ElectricType 0)
              (NameFontSize 5)
              (NameFontWidth -2)
              (NameFontScale 1)
              (SignalDelay 0)
            )
            (Pin 2 15.24 7.62
              (Enabled "Y")
              (Locked "N")
              (ModelSig "")
              (Type 0)
              (Orientation 0)
              (Number 3)
              (Length 15.24)
              (Name "NEG")
              (StringNumber "3")
              (ShowName "Y")
              (PinNumXShift 0)
              (PinNumYShift 0)
              (PinNamexShift 0)
              (PinNameYShift 0)
              (ElectricType 0)
              (NameFontSize 5)
              (NameFontWidth -2)
              (NameFontScale 1)
              (SignalDelay 0)
            )
          )
          (Shapes
            (Shape 0
              (Enabled "Y")
              (Locked "N")
              (VectorFont "N")
              (FontWidth 0)
              (FontScale 0)
              (Orientation 0)
              (Type 1)
              (FontSize 0)
              (FontColor 0)
              (FontType 0)
              (FontName "")
              (Name "")
              (Width 0.762)
              (Points
                (pt 15.24 -7.62)
                (pt 60.96 -7.62)
              )
            )
            (Shape 1
              (Enabled "Y")
              (Locked "N")
              (VectorFont "N")
              (FontWidth 0)
              (FontScale 0)
              (Orientation 0)
              (Type 1)
              (FontSize 0)
              (FontColor 0)
              (FontType 0)
              (FontName "")
              (Name "")
              (Width 0.762)
              (Points
                (pt 60.96 22.86)
                (pt 60.96 -7.62)
              )
            )
            (Shape 2
              (Enabled "Y")
              (Locked "N")
              (VectorFont "N")
              (FontWidth 0)
              (FontScale 0)
              (Orientation 0)
              (Type 1)
              (FontSize 0)
              (FontColor 0)
              (FontType 0)
              (FontName "")
              (Name "")
              (Width 0.762)
              (Points
                (pt 60.96 22.86)
                (pt 15.24 22.86)
              )
            )
            (Shape 3
              (Enabled "Y")
              (Locked "N")
              (VectorFont "N")
              (FontWidth 0)
              (FontScale 0)
              (Orientation 0)
              (Type 1)
              (FontSize 0)
              (FontColor 0)
              (FontType 0)
              (FontName "")
              (Name "")
              (Width 0.762)
              (Points
                (pt 15.24 -7.62)
                (pt 15.24 22.86)
              )
            )
          )
          (UserFields
            (UserField "Manufacturer_Name" "Keystone Electronics" 0)
            (UserField "Manufacturer_Part_Number" "3001" 0)
            (UserField "Mouser Part Number" "534-3001" 0)
            (UserField "Mouser Price/Stock" "https://www.mouser.com/Search/Refine.aspx?Keyword=534-3001" 0)
            (UserField "RS Part Number" "2197948" 0)
            (UserField "RS Price/Stock" "http://uk.rs-online.com/web/p/products/2197948" 0)
            (UserField "Allied_Number" "70182368" 0)
            (UserField "Allied Price/Stock" "http://www.alliedelec.com/keystone-electronics-3001/70182368/" 0)
            (UserField "Description" "Coin Cell Battery Holders TH COIN CELL BATTERY HOLDER 12mm" 0)
          )
        )
        (Pattern "3001"
          (Type 0)
          (VariableParameter1 "N")
          (VariableParameter2 "N")
          (VariableParameter3 "N")
          (VariableParameter4 "N")
          (InternalConnections
          )
          (Number1 0)
          (Number2 0)
          (Spacing1 0)
          (Spacing2 0)
          (VariableParameter5 "N")
          (Spacing3 0)
          (LockProperties "N")
          (PatternOrientation 0)
          (Width 44.58)
          (Height 44.58)
          (PadWidth 8.4)
          (PadHeight 8.4)
          (PadShape 0)
          (PadHole 5.55)
          (PadHoleH 0)
          (PadHoleType 0)
          (SurfacePad "N")
          (OriginX 0)
          (OriginY 0)
          (PadPoints
          )
          (Pads
            (Pad 0 "" "" 0 0
              (Number 0)
              (Inverted "N")
              (Locked "N")
              (Sided "N")
              (DisableTopMask "N" 0)
              (DisableBottomMask "N" 0)
              (DisableTopPaste "N" 0)
              (DisableBottomPaste "N" 0)
              (CustomSwell 0)
              (CustomShrink 0)
              (PadWidth 0)
              (PadHeight 0)
              (PadHole 0)
              (PadHoleH 0)
              (PadHoleType 0)
              (SurfacePad "N")
              (PadShape 0)
              (Standard "N")
              (Point
              )
            )
            (Pad 1 "1" "" -19.815 0
              (Number 1)
              (Inverted "N")
              (Locked "N")
              (Sided "N")
              (DisableTopMask "N" 0)
              (DisableBottomMask "N" 0)
              (DisableTopPaste "N" 0)
              (DisableBottomPaste "N" 0)
              (CustomSwell -1000)
              (CustomShrink -1000)
              (PadWidth 8.4)
              (PadHeight 8.4)
              (PadHole 5.55)
              (PadHoleH 0)
              (PadHoleType 0)
              (SurfacePad "N")
              (PadShape 0)
              (Standard "N")
              (Point
              )
            )
            (Pad 2 "2" "" 19.815 0
              (Number 2)
              (Inverted "N")
              (Locked "N")
              (Sided "N")
              (DisableTopMask "N" 0)
              (DisableBottomMask "N" 0)
              (DisableTopPaste "N" 0)
              (DisableBottomPaste "N" 0)
              (CustomSwell -1000)
              (CustomShrink -1000)
              (PadWidth 8.4)
              (PadHeight 8.4)
              (PadHole 5.55)
              (PadHoleH 0)
              (PadHoleType 0)
              (SurfacePad "N")
              (PadShape 0)
              (Standard "N")
              (Point
              )
            )
            (Pad 3 "3" "" 0 0
              (Number 3)
              (Inverted "N")
              (Locked "N")
              (Sided "N")
              (DisableTopMask "N" 0)
              (DisableBottomMask "N" 0)
              (DisableTopPaste "N" 0)
              (DisableBottomPaste "N" 0)
              (CustomSwell -1000)
              (CustomShrink -1000)
              (PadWidth 11.88)
              (PadHeight 11.88)
              (PadHole 0)
              (PadHoleH 0)
              (PadHoleType 0)
              (SurfacePad "Y")
              (PadShape 2)
              (Standard "N")
              (Point
              )
            )
            (Pad 4 "" "" 0 0
              (Number 0)
              (Inverted "N")
              (Locked "N")
              (Sided "N")
              (DisableTopMask "N" 0)
              (DisableBottomMask "N" 0)
              (DisableTopPaste "N" 0)
              (DisableBottomPaste "N" 0)
              (CustomSwell 0)
              (CustomShrink 0)
              (PadWidth 0)
              (PadHeight 0)
              (PadHole 0)
              (PadHoleH 0)
              (PadHoleType 0)
              (SurfacePad "N")
              (PadShape 0)
              (Standard "N")
              (Point
              )
            )
          )
          (Shapes
            (Shape 0 "N" 0 0 0 0 0 0 0 "" "" "N" 0 0 0 0 0 0)
            (Shape 6 "N" 0 0.5 0 0 -0.5 -0.5 0 "" "Tahoma" "Y" 4 1 -2 0 0.6 0)
            (Shape 6 "N" 0 -0.5 0 0 0.5 0.5 0 "" "Tahoma" "Y" 4 1 -2 0 0.6 0)
            (Shape 6 "N" 1 0.5 0 0 -0.5 -0.5 0 "" "Tahoma" "Y" 4 1 -2 0 0.6 0)
            (Shape 6 "N" 1 -0.5 0 0 0.5 0.5 0 "" "Tahoma" "Y" 4 1 -2 0 0.6 0)
            (Shape 8 "N" 1 0 0 0 0 0 0 "" "Tahoma" "Y" 4 1 -2 0 0.6 0)
              (Point
                (pt -0.5 0)
                (pt 0.5 0)
              )
            (Shape 0 "N" 0 0 0 0 0 0 0 "" "" "N" 0 0 0 0 0 0)
          )
        )
      )
    )
  )
()

