!PADS-POWERPCB-V9.5-METRIC! DESIGN DATABASE ASCII FILE 1.0
*PARTDECAL*  ITEMS

SKY6629711 M 0 0 7 25 17 0 2
CLOSED 5 0.2 0 27
-2.500 2.500
2.500 2.500
2.500 -2.500
-2.500 -2.500
-2.500 2.500
CLOSED 5 0.1 0 20
-4.050 3.650
3.650 3.650
3.650 -3.650
-4.050 -3.650
-4.050 3.650
OPEN 3 0.1 0 26
1.600 2.500
2.500 2.500
2.500 1.800
OPEN 3 0.1 0 26
-1.600 2.500
-2.500 2.500
-2.500 1.600
OPEN 3 0.1 0 26
2.500 -1.600
2.500 -2.500
1.600 -2.500
OPEN 3 0.1 0 26
-2.500 -1.600
-2.500 -2.500
-1.600 -2.500
CLOSED 5 0.1 0 26
-3.000 1.200
-3.000 1.200 -900 1800 -3.050 1.200 -2.950 1.300
-3.000 1.300
-3.000 1.300 900 1800 -3.050 1.200 -2.950 1.300
-3.000 1.200
VALUE -0.200 0.000 0 1 1.27 0.127 N LEFT DOWN
Regular <Romansim Stroke Font>
Ref.Des.
VALUE -0.200 0.000 0 1 1.27 0.127 N LEFT UP
Regular <Romansim Stroke Font>
Part Type
T-2.315 1.200 -2.315 1.200 1
T-2.315 0.400 -2.315 0.400 2
T-2.315 -0.400 -2.315 -0.400 3
T-2.315 -1.200 -2.315 -1.200 4
T-1.200 -2.315 -1.200 -2.315 5
T-0.400 -2.315 -0.400 -2.315 6
T0.400 -2.315 0.400 -2.315 7
T1.200 -2.315 1.200 -2.315 8
T2.315 -1.200 2.315 -1.200 9
T2.315 -0.400 2.315 -0.400 10
T2.315 0.400 2.315 0.400 11
T2.315 1.200 2.315 1.200 12
T1.200 2.315 1.200 2.315 13
T0.400 2.315 0.400 2.315 14
T-0.400 2.315 -0.400 2.315 15
T-1.200 2.315 -1.200 2.315 16
T-1.000 1.000 -1.000 1.000 17
T0.000 1.000 0.000 1.000 18
T1.000 1.000 1.000 1.000 19
T-1.000 0.000 -1.000 0.000 20
T0.000 0.000 0.000 0.000 21
T1.000 0.000 1.000 0.000 22
T-1.000 -1.000 -1.000 -1.000 23
T0.000 -1.000 0.000 -1.000 24
T1.000 -1.000 1.000 -1.000 25
PAD 0 3
-2 0.875 RF 90.000 0.875 0.000 0 0 N
-1 0 R
0 0 R
PAD 1 3
-2 0.500 RF 0.000 0.670 0.000 0 0 N
-1 0 R
0 0 R
PAD 2 3
-2 0.500 RF 0.000 0.670 0.000 0 0 N
-1 0 R
0 0 R
PAD 3 3
-2 0.500 RF 0.000 0.670 0.000 0 0 N
-1 0 R
0 0 R
PAD 4 3
-2 0.500 RF 0.000 0.670 0.000 0 0 N
-1 0 R
0 0 R
PAD 5 3
-2 0.500 RF 90.000 0.670 0.000 0 0 N
-1 0 R
0 0 R
PAD 6 3
-2 0.500 RF 90.000 0.670 0.000 0 0 N
-1 0 R
0 0 R
PAD 7 3
-2 0.500 RF 90.000 0.670 0.000 0 0 N
-1 0 R
0 0 R
PAD 8 3
-2 0.500 RF 90.000 0.670 0.000 0 0 N
-1 0 R
0 0 R
PAD 9 3
-2 0.500 RF 0.000 0.670 0.000 0 0 N
-1 0 R
0 0 R
PAD 10 3
-2 0.500 RF 0.000 0.670 0.000 0 0 N
-1 0 R
0 0 R
PAD 11 3
-2 0.500 RF 0.000 0.670 0.000 0 0 N
-1 0 R
0 0 R
PAD 12 3
-2 0.500 RF 0.000 0.670 0.000 0 0 N
-1 0 R
0 0 R
PAD 13 3
-2 0.500 RF 90.000 0.670 0.000 0 0 N
-1 0 R
0 0 R
PAD 14 3
-2 0.500 RF 90.000 0.670 0.000 0 0 N
-1 0 R
0 0 R
PAD 15 3
-2 0.500 RF 90.000 0.670 0.000 0 0 N
-1 0 R
0 0 R
PAD 16 3
-2 0.500 RF 90.000 0.670 0.000 0 0 N
-1 0 R
0 0 R

*END*     OF ASCII OUTPUT FILE
