(module "SON65P200X200X80-7N" (layer F.Cu)
  (descr "DRV0006A")
  (tags "Integrated Circuit")
  (attr smd)
  (fp_text reference IC** (at 0 0) (layer F.SilkS)
    (effects (font (size 1.27 1.27) (thickness 0.254)))
  )
  (fp_text user %R (at 0 0) (layer F.Fab)
    (effects (font (size 1.27 1.27) (thickness 0.254)))
  )
  (fp_text value "SON65P200X200X80-7N" (at 0 0) (layer F.SilkS) hide
    (effects (font (size 1.27 1.27) (thickness 0.254)))
  )
  (fp_line (start -1.6 -1.3) (end 1.6 -1.3) (layer F.CrtYd) (width 0.05))
  (fp_line (start 1.6 -1.3) (end 1.6 1.3) (layer F.CrtYd) (width 0.05))
  (fp_line (start 1.6 1.3) (end -1.6 1.3) (layer F.CrtYd) (width 0.05))
  (fp_line (start -1.6 1.3) (end -1.6 -1.3) (layer F.CrtYd) (width 0.05))
  (fp_line (start -1 -1) (end 1 -1) (layer F.Fab) (width 0.1))
  (fp_line (start 1 -1) (end 1 1) (layer F.Fab) (width 0.1))
  (fp_line (start 1 1) (end -1 1) (layer F.Fab) (width 0.1))
  (fp_line (start -1 1) (end -1 -1) (layer F.Fab) (width 0.1))
  (fp_line (start -1 -0.5) (end -0.5 -1) (layer F.Fab) (width 0.1))
  (fp_circle (center -1.35 -1.325) (end -1.35 -1.2) (layer F.SilkS) (width 0.25))
  (pad 1 smd rect (at -1.05 -0.65 90) (size 0.35 0.6) (layers F.Cu F.Paste F.Mask))
  (pad 2 smd rect (at -1.05 0 90) (size 0.35 0.6) (layers F.Cu F.Paste F.Mask))
  (pad 3 smd rect (at -1.05 0.65 90) (size 0.35 0.6) (layers F.Cu F.Paste F.Mask))
  (pad 4 smd rect (at 1.05 0.65 90) (size 0.35 0.6) (layers F.Cu F.Paste F.Mask))
  (pad 5 smd rect (at 1.05 0 90) (size 0.35 0.6) (layers F.Cu F.Paste F.Mask))
  (pad 6 smd rect (at 1.05 -0.65 90) (size 0.35 0.6) (layers F.Cu F.Paste F.Mask))
  (pad 7 smd rect (at 0 0 0) (size 1.1 1.7) (layers F.Cu F.Paste F.Mask))
  (model TPS62242DRVR.stp
    (at (xyz 0 0 0))
    (scale (xyz 1 1 1))
    (rotate (xyz 0 0 0))
  )
)
