PCBNEW-LibModule-V1  2020-06-11 16:18:00
# encoding utf-8
Units mm
$INDEX
SOP65P640X120-14N
$EndINDEX
$MODULE SOP65P640X120-14N
Po 0 0 0 15 5ee24b28 00000000 ~~
Li SOP65P640X120-14N
Cd pw(r-pdso-g14)-
Kw Integrated Circuit
Sc 0
At SMD
AR 
Op 0 0 0
T0 0 0 1.27 1.27 0 0.254 N V 21 N "IC**"
T1 0 0 1.27 1.27 0 0.254 N I 21 N "SOP65P640X120-14N"
DS -3.925 -2.8 3.925 -2.8 0.05 24
DS 3.925 -2.8 3.925 2.8 0.05 24
DS 3.925 2.8 -3.925 2.8 0.05 24
DS -3.925 2.8 -3.925 -2.8 0.05 24
DS -2.2 -2.5 2.2 -2.5 0.1 24
DS 2.2 -2.5 2.2 2.5 0.1 24
DS 2.2 2.5 -2.2 2.5 0.1 24
DS -2.2 2.5 -2.2 -2.5 0.1 24
DS -2.2 -1.85 -1.55 -2.5 0.1 24
DS -1.85 -2.5 1.85 -2.5 0.2 21
DS 1.85 -2.5 1.85 2.5 0.2 21
DS 1.85 2.5 -1.85 2.5 0.2 21
DS -1.85 2.5 -1.85 -2.5 0.2 21
DS -3.675 -2.525 -2.2 -2.525 0.2 21
$PAD
Po -2.938 -1.95
Sh "1" R 0.45 1.475 0 0 900
At SMD N 00888000
Ne 0 ""
$EndPAD
$PAD
Po -2.938 -1.3
Sh "2" R 0.45 1.475 0 0 900
At SMD N 00888000
Ne 0 ""
$EndPAD
$PAD
Po -2.938 -0.65
Sh "3" R 0.45 1.475 0 0 900
At SMD N 00888000
Ne 0 ""
$EndPAD
$PAD
Po -2.938 0
Sh "4" R 0.45 1.475 0 0 900
At SMD N 00888000
Ne 0 ""
$EndPAD
$PAD
Po -2.938 0.65
Sh "5" R 0.45 1.475 0 0 900
At SMD N 00888000
Ne 0 ""
$EndPAD
$PAD
Po -2.938 1.3
Sh "6" R 0.45 1.475 0 0 900
At SMD N 00888000
Ne 0 ""
$EndPAD
$PAD
Po -2.938 1.95
Sh "7" R 0.45 1.475 0 0 900
At SMD N 00888000
Ne 0 ""
$EndPAD
$PAD
Po 2.938 1.95
Sh "8" R 0.45 1.475 0 0 900
At SMD N 00888000
Ne 0 ""
$EndPAD
$PAD
Po 2.938 1.3
Sh "9" R 0.45 1.475 0 0 900
At SMD N 00888000
Ne 0 ""
$EndPAD
$PAD
Po 2.938 0.65
Sh "10" R 0.45 1.475 0 0 900
At SMD N 00888000
Ne 0 ""
$EndPAD
$PAD
Po 2.938 0
Sh "11" R 0.45 1.475 0 0 900
At SMD N 00888000
Ne 0 ""
$EndPAD
$PAD
Po 2.938 -0.65
Sh "12" R 0.45 1.475 0 0 900
At SMD N 00888000
Ne 0 ""
$EndPAD
$PAD
Po 2.938 -1.3
Sh "13" R 0.45 1.475 0 0 900
At SMD N 00888000
Ne 0 ""
$EndPAD
$PAD
Po 2.938 -1.95
Sh "14" R 0.45 1.475 0 0 900
At SMD N 00888000
Ne 0 ""
$EndPAD
$EndMODULE SOP65P640X120-14N
$EndLIBRARY
