!PADS-POWERPCB-V9.5-METRIC! DESIGN DATABASE ASCII FILE 1.0
*PARTDECAL*  ITEMS

EEE1CA100AR M 0 0 5 2 1 0 2
CLOSED 5 0.2 0 27
-2.150 2.150
2.150 2.150
2.150 -2.150
-2.150 -2.150
-2.150 2.150
CLOSED 5 0.1 0 20
-3.150 4.000
3.150 4.000
3.150 -4.000
-3.150 -4.000
-3.150 4.000
OPEN 4 0.1 0 26
-1.500 2.150
-2.150 2.150
-2.150 -2.150
-1.500 -2.150
OPEN 4 0.1 0 26
1.500 -2.150
2.150 -2.150
2.150 2.150
1.500 2.150
OPEN 5 0.2 0 26
-0.100 3.400
-0.100 3.400 1800 -1800 -0.100 3.300 0.100 3.500
0.100 3.400
0.100 3.400 0 -1800 -0.100 3.300 0.100 3.500
-0.100 3.400
VALUE 0.000 0.000 0 1 1.27 0.127 N LEFT DOWN
Regular <Romansim Stroke Font>
Ref.Des.
VALUE 0.000 0.000 0 1 1.27 0.127 N LEFT UP
Regular <Romansim Stroke Font>
Part Type
T0.000 1.750 0.000 1.750 1
T0.000 -1.750 0.000 -1.750 2
PAD 0 3
-2 1.600 RF 90.000 2.500 0.000 0 0 N
-1 0 R
0 0 R

*END*     OF ASCII OUTPUT FILE
