<?xml version="1.0" encoding="utf-8"?>
<!--/2403531/180600/2.45/5/4/Filter/-->
<!DOCTYPE curve SYSTEM "eagle.dtd">
<eagle version="7.7.0">
<drawing>
<settings>
<setting alwaysvectorfont="no"/>
<setting verticaltext="up"/>
</settings>
<grid distance="0.1" unitdist="inch" unit="inch" style="lines" multiple="1" display="no" altdistance="0.01" altunitdist="inch" altunit="inch"/>
<layers>
<layer number="1" name="Top" color="4" fill="1" visible="yes" active="yes"/>
<layer number="16" name="Bottom" color="1" fill="1" visible="yes" active="yes"/>
<layer number="17" name="Pads" color="2" fill="1" visible="yes" active="yes"/>
<layer number="18" name="Vias" color="2" fill="1" visible="yes" active="yes"/>
<layer number="19" name="Unrouted" color="6" fill="1" visible="yes" active="yes"/>
<layer number="20" name="Dimension" color="15" fill="1" visible="yes" active="yes"/>
<layer number="21" name="tPlace" color="7" fill="1" visible="yes" active="yes"/>
<layer number="22" name="bPlace" color="7" fill="1" visible="yes" active="yes"/>
<layer number="23" name="tOrigins" color="15" fill="1" visible="yes" active="yes"/>
<layer number="24" name="bOrigins" color="15" fill="1" visible="yes" active="yes"/>
<layer number="25" name="tNames" color="7" fill="1" visible="yes" active="yes"/>
<layer number="26" name="bNames" color="7" fill="1" visible="yes" active="yes"/>
<layer number="27" name="tValues" color="7" fill="1" visible="yes" active="yes"/>
<layer number="28" name="bValues" color="7" fill="1" visible="yes" active="yes"/>
<layer number="29" name="tStop" color="7" fill="3" visible="no" active="yes"/>
<layer number="30" name="bStop" color="7" fill="6" visible="no" active="yes"/>
<layer number="31" name="tCream" color="7" fill="4" visible="no" active="yes"/>
<layer number="32" name="bCream" color="7" fill="5" visible="no" active="yes"/>
<layer number="33" name="tFinish" color="6" fill="3" visible="no" active="yes"/>
<layer number="34" name="bFinish" color="6" fill="6" visible="no" active="yes"/>
<layer number="35" name="tGlue" color="7" fill="4" visible="no" active="yes"/>
<layer number="36" name="bGlue" color="7" fill="5" visible="no" active="yes"/>
<layer number="37" name="tTest" color="7" fill="1" visible="no" active="yes"/>
<layer number="38" name="bTest" color="7" fill="1" visible="no" active="yes"/>
<layer number="39" name="tKeepout" color="4" fill="11" visible="yes" active="yes"/>
<layer number="40" name="bKeepout" color="1" fill="11" visible="yes" active="yes"/>
<layer number="41" name="tRestrict" color="4" fill="10" visible="yes" active="yes"/>
<layer number="42" name="bRestrict" color="1" fill="10" visible="yes" active="yes"/>
<layer number="43" name="vRestrict" color="2" fill="10" visible="yes" active="yes"/>
<layer number="44" name="Drills" color="7" fill="1" visible="no" active="yes"/>
<layer number="45" name="Holes" color="7" fill="1" visible="no" active="yes"/>
<layer number="46" name="Milling" color="3" fill="1" visible="no" active="yes"/>
<layer number="47" name="Measures" color="7" fill="1" visible="no" active="yes"/>
<layer number="48" name="Document" color="7" fill="1" visible="yes" active="yes"/>
<layer number="49" name="Reference" color="7" fill="1" visible="yes" active="yes"/>
<layer number="51" name="tDocu" color="7" fill="1" visible="yes" active="yes"/>
<layer number="52" name="bDocu" color="7" fill="1" visible="yes" active="yes"/>
<layer number="90" name="Modules" color="5" fill="1" visible="yes" active="yes"/>
<layer number="91" name="Nets" color="2" fill="1" visible="yes" active="yes"/>
<layer number="92" name="Busses" color="1" fill="1" visible="yes" active="yes"/>
<layer number="93" name="Pins" color="2" fill="1" visible="no" active="yes"/>
<layer number="94" name="Symbols" color="4" fill="1" visible="yes" active="yes"/>
<layer number="95" name="Names" color="7" fill="1" visible="yes" active="yes"/>
<layer number="96" name="Values" color="7" fill="1" visible="yes" active="yes"/>
<layer number="97" name="Info" color="7" fill="1" visible="yes" active="yes"/>
<layer number="98" name="Guide" color="6" fill="1" visible="yes" active="yes"/>
</layers>
<library>
<description>&lt;Signal Conditioning Cu Frame Filter 1411 915MHz 2.8dB QCS5P&lt;/b&gt;&lt;p&gt;
&lt;author&gt;Created by SamacSys&lt;/author&gt;</description>
<packages>
<package name="B39921B4344P810">
<description>&lt;b&gt;B39921B4344P810-4&lt;/b&gt;&lt;br&gt;
</description>
<smd name="1" x="-0.500" y="0.000" dx="0.375" dy="0.300" layer="1" rot="R90"/>
<smd name="2" x="0.000" y="-0.287" dx="0.375" dy="0.300" layer="1" rot="R90"/>
<smd name="3" x="0.500" y="-0.287" dx="0.375" dy="0.300" layer="1" rot="R90"/>
<smd name="4" x="0.500" y="0.287" dx="0.375" dy="0.300" layer="1" rot="R90"/>
<smd name="5" x="0.000" y="0.287" dx="0.375" dy="0.300" layer="1" rot="R90"/>
<text x="-0.325" y="0.000" align="center" size="1.27" layer="25" rot="R0" >&gt;NAME</text>
<text x="-0.325" y="0.000" align="center" size="1.27" layer="27" rot="R0" >&gt;VALUE</text>
<wire x1="-0.7" y1="0.55" x2="0.7" y2="0.55" width="0.2" layer="51"/>
<wire x1="0.7" y1="0.55" x2="0.7" y2="-0.55" width="0.2" layer="51"/>
<wire x1="0.7" y1="-0.55" x2="-0.7" y2="-0.55" width="0.2" layer="51"/>
<wire x1="-0.7" y1="-0.55" x2="-0.7" y2="0.55" width="0.2" layer="51"/>
<wire x1="-1.85" y1="1.05" x2="1.2" y2="1.05" width="0.1" layer="51"/>
<wire x1="1.2" y1="1.05" x2="1.2" y2="-1.05" width="0.1" layer="51"/>
<wire x1="1.2" y1="-1.05" x2="-1.85" y2="-1.05" width="0.1" layer="51"/>
<wire x1="-1.85" y1="-1.05" x2="-1.85" y2="1.05" width="0.1" layer="51"/>
<wire x1="-1.25" y1="0.1" x2="-1.25" y2="0.1" width="0.2" layer="21"/>
<wire x1="-1.250" y1="0.100" x2="-1.250" y2="-0.100" width="0.2" layer="21" curve="180.0"/>
<wire x1="-1.25" y1="-0.1" x2="-1.25" y2="-0.1" width="0.2" layer="21"/>
<wire x1="-1.250" y1="-0.100" x2="-1.250" y2="0.100" width="0.2" layer="21" curve="180.0"/>
<wire x1="-0.7" y1="0.4" x2="-0.7" y2="0.55" width="0.1" layer="21"/>
<wire x1="-0.7" y1="0.55" x2="-0.4" y2="0.55" width="0.1" layer="21"/>
<wire x1="-0.7" y1="-0.4" x2="-0.7" y2="-0.55" width="0.1" layer="21"/>
<wire x1="-0.7" y1="-0.55" x2="-0.4" y2="-0.55" width="0.1" layer="21"/>
</package>
</packages>
<symbols>
<symbol name="B39921B4344P810">
<wire x1="5.08" y1="2.54" x2="27.94" y2="2.54" width="0.254" layer="94"/>
<wire x1="27.94" y1="-7.62" x2="27.94" y2="2.54" width="0.254" layer="94"/>
<wire x1="27.94" y1="-7.62" x2="5.08" y2="-7.62" width="0.254" layer="94"/>
<wire x1="5.08" y1="2.54" x2="5.08" y2="-7.62" width="0.254" layer="94"/>
<text x="29.21" y="7.62" align="center-left" size="1.778" layer="95">&gt;NAME</text>
<text x="29.21" y="5.08" align="center-left" size="1.778" layer="96">&gt;VALUE</text>
<pin name="INPUT" x="0" y="0" length="middle" direction="io" rot="R0"/>
<pin name="GND_1" x="0" y="-2.54" length="middle" direction="io" rot="R0"/>
<pin name="GND_2" x="0" y="-5.08" length="middle" direction="io" rot="R0"/>
<pin name="OUTPUT" x="33.02" y="0" length="middle" direction="io" rot="R180"/>
<pin name="GND_3" x="33.02" y="-2.54" length="middle" direction="io" rot="R180"/>
</symbol>
</symbols>
<devicesets>
<deviceset name="B39921B4344P810" prefix="FL">
<description>&lt;b&gt;Signal Conditioning Cu Frame Filter 1411 915MHz 2.8dB QCS5P&lt;/b&gt;&lt;p&gt;
Source: &lt;a href="https://componentsearchengine.com/Datasheets/1/B39921B4344P810.pdf"&gt; Datasheet &lt;/a&gt;</description>
<gates>
<gate name="G$1" symbol="B39921B4344P810" x="0" y="0"/>
</gates>
<devices>
<device name="" package="B39921B4344P810">
<connects>
<connect gate="G$1" pin="INPUT" pad="1"/>
<connect gate="G$1" pin="GND_1" pad="2"/>
<connect gate="G$1" pin="GND_2" pad="3"/>
<connect gate="G$1" pin="OUTPUT" pad="4"/>
<connect gate="G$1" pin="GND_3" pad="5"/>
</connects>
<technologies>
<technology name="">
<attribute name="Manufacturer_Name" value="RF360" constant="no"/>
<attribute name="Manufacturer_Part_Number" value="B39921B4344P810" constant="no"/>
<attribute name="Mouser_Part_Number" value="871-B39921B4344P810" constant="no"/>
<attribute name="Mouser_Price-Stock" value="https://www.mouser.com/Search/Refine.aspx?Keyword=871-B39921B4344P810" constant="no"/>
<attribute name="RS_Part_Number" value="" constant="no"/>
<attribute name="RS_Price-Stock" value="" constant="no"/>
<attribute name="Description" value="Signal Conditioning Cu Frame Filter 1411 915MHz 2.8dB QCS5P" constant="no"/>
<attribute name="Height" value="0.45mm" constant="no"/>
</technology>
</technologies>
</device>
</devices>
</deviceset>
</devicesets>
</library>
</drawing>
</eagle>
