PCBNEW-LibModule-V1  2020-02-10 18:51:53
# encoding utf-8
Units mm
$INDEX
AFS14A2691500T3
$EndINDEX
$MODULE AFS14A2691500T3
Po 0 0 0 15 5e41a649 00000000 ~~
Li AFS14A2691500T3
Cd AFS14A26-915.00-T3-3
Kw Filter
Sc 0
At SMD
AR 
Op 0 0 0
T0 0.172 -0 1.27 1.27 0 0.254 N V 21 N "FL**"
T1 0.172 -0 1.27 1.27 0 0.254 N I 21 N "AFS14A2691500T3"
DS -0.7 0.55 0.7 0.55 0.2 24
DS 0.7 0.55 0.7 -0.55 0.2 24
DS 0.7 -0.55 -0.7 -0.55 0.2 24
DS -0.7 -0.55 -0.7 0.55 0.2 24
DS -1.8 -1.65 2.144 -1.65 0.1 24
DS 2.144 -1.65 2.144 1.65 0.1 24
DS 2.144 1.65 -1.8 1.65 0.1 24
DS -1.8 1.65 -1.8 -1.65 0.1 24
DS 1.1 -0.2 1.1 -0.2 0.2 21
DS 1.1 -0.287 1.1 -0.287 0.2 21
DS 1.1 -0.2 1.1 -0.2 0.2 21
DA 1.1865 -0.2435 1.100 -0.2 -1800 0.2 21
DA 1.1865 -0.2435 1.100 -0.287 -1800 0.2 21
DA 1.1865 -0.2435 1.100 -0.2 -1800 0.2 21
$PAD
Po 0.587 -0.287
Sh "A1" R 0.325 0.425 0 0 900
At SMD N 00888000
Ne 0 ""
$EndPAD
$PAD
Po 0.000 -0.388
Sh "B1" R 0.250 0.525 0 0 0
At SMD N 00888000
Ne 0 ""
$EndPAD
$PAD
Po -0.588 -0
Sh "C1" R 0.325 0.425 0 0 900
At SMD N 00888000
Ne 0 ""
$EndPAD
$PAD
Po 0.000 0.388
Sh "D1" R 0.250 0.525 0 0 0
At SMD N 00888000
Ne 0 ""
$EndPAD
$PAD
Po 0.587 0.287
Sh "E1" R 0.325 0.425 0 0 900
At SMD N 00888000
Ne 0 ""
$EndPAD
$EndMODULE AFS14A2691500T3
$EndLIBRARY
