PCBNEW-LibModule-V1  2020-02-05 14:05:33
# encoding utf-8
Units mm
$INDEX
CAPC2012X145N
$EndINDEX
$MODULE CAPC2012X145N
Po 0 0 0 15 5e3acbad 00000000 ~~
Li CAPC2012X145N
Cd C2012 [EIA CC0805]
Kw Capacitor
Sc 0
At SMD
AR 
Op 0 0 0
T0 0 0 1.27 1.27 0 0.254 N V 21 N "C**"
T1 0 0 1.27 1.27 0 0.254 N I 21 N "CAPC2012X145N"
DS -1.46 -0.89 1.46 -0.89 0.05 24
DS 1.46 -0.89 1.46 0.89 0.05 24
DS 1.46 0.89 -1.46 0.89 0.05 24
DS -1.46 0.89 -1.46 -0.89 0.05 24
DS -1 -0.625 1 -0.625 0.1 24
DS 1 -0.625 1 0.625 0.1 24
DS 1 0.625 -1 0.625 0.1 24
DS -1 0.625 -1 -0.625 0.1 24
DS 0 -0.525 0 0.525 0.2 21
$PAD
Po -1 0
Sh "1" R 0.62 1.47 0 0 0
At SMD N 00888000
Ne 0 ""
$EndPAD
$PAD
Po 1 0
Sh "2" R 0.62 1.47 0 0 0
At SMD N 00888000
Ne 0 ""
$EndPAD
$EndMODULE CAPC2012X145N
$EndLIBRARY
