(module "CAPC3216X200N" (layer F.Cu)
  (descr "GCJ31 L=3.2mm W=1.6mm T=1.6mm")
  (tags "Capacitor")
  (attr smd)
  (fp_text reference C** (at 0 0) (layer F.SilkS)
    (effects (font (size 1.27 1.27) (thickness 0.254)))
  )
  (fp_text user %R (at 0 0) (layer F.Fab)
    (effects (font (size 1.27 1.27) (thickness 0.254)))
  )
  (fp_text value "CAPC3216X200N" (at 0 0) (layer F.SilkS) hide
    (effects (font (size 1.27 1.27) (thickness 0.254)))
  )
  (fp_line (start -2.16 -1.16) (end 2.16 -1.16) (layer F.CrtYd) (width 0.05))
  (fp_line (start 2.16 -1.16) (end 2.16 1.16) (layer F.CrtYd) (width 0.05))
  (fp_line (start 2.16 1.16) (end -2.16 1.16) (layer F.CrtYd) (width 0.05))
  (fp_line (start -2.16 1.16) (end -2.16 -1.16) (layer F.CrtYd) (width 0.05))
  (fp_line (start -1.6 -0.8) (end 1.6 -0.8) (layer F.Fab) (width 0.1))
  (fp_line (start 1.6 -0.8) (end 1.6 0.8) (layer F.Fab) (width 0.1))
  (fp_line (start 1.6 0.8) (end -1.6 0.8) (layer F.Fab) (width 0.1))
  (fp_line (start -1.6 0.8) (end -1.6 -0.8) (layer F.Fab) (width 0.1))
  (fp_line (start 0 -0.7) (end 0 0.7) (layer F.SilkS) (width 0.2))
  (pad 1 smd rect (at -1.32 0 0) (size 1.38 2.01) (layers F.Cu F.Paste F.Mask))
  (pad 2 smd rect (at 1.32 0 0) (size 1.38 2.01) (layers F.Cu F.Paste F.Mask))
  (model GCJ31CL8EL105KA07L.stp
    (at (xyz 0 0 0))
    (scale (xyz 1 1 1))
    (rotate (xyz 0 0 0))
  )
)
