PCBNEW-LibModule-V1  2020-02-05 16:30:39
# encoding utf-8
Units mm
$INDEX
CAPAE830X1050N
$EndINDEX
$MODULE CAPAE830X1050N
Po 0 0 0 15 5e3aedaf 00000000 ~~
Li CAPAE830X1050N
Cd EEE-FK1J470P
Kw Capacitor Polarised
Sc 0
At SMD
AR 
Op 0 0 0
T0 0 0 1.27 1.27 0 0.254 N V 21 N "C**"
T1 0 0 1.27 1.27 0 0.254 N I 21 N "CAPAE830X1050N"
DS -6.3 -4.75 6.3 -4.75 0.05 24
DS 6.3 -4.75 6.3 4.75 0.05 24
DS 6.3 4.75 -6.3 4.75 0.05 24
DS -6.3 4.75 -6.3 -4.75 0.05 24
DS 4.15 -4.15 -2.075 -4.15 0.1 24
DS -2.075 -4.15 -4.15 -2.075 0.1 24
DS -4.15 -2.075 -4.15 2.075 0.1 24
DS -4.15 2.075 -2.075 4.15 0.1 24
DS -2.075 4.15 4.15 4.15 0.1 24
DS 4.15 4.15 4.15 -4.15 0.1 24
DS -5.8 -4.15 4.15 -4.15 0.2 21
DS -2.075 4.15 4.15 4.15 0.2 21
$PAD
Po -3.7 0
Sh "1" R 2.1 4.2 0 0 900
At SMD N 00888000
Ne 0 ""
$EndPAD
$PAD
Po 3.7 0
Sh "2" R 2.1 4.2 0 0 900
At SMD N 00888000
Ne 0 ""
$EndPAD
$EndMODULE CAPAE830X1050N
$EndLIBRARY
