PCBNEW-LibModule-V1  2020-02-07 11:38:13
# encoding utf-8
Units mm
$INDEX
NCP176AMX330TCG
$EndINDEX
$MODULE NCP176AMX330TCG
Po 0 0 0 15 5e3d4c25 00000000 ~~
Li NCP176AMX330TCG
Cd NCP176AMX330TCG-2
Kw Integrated Circuit
Sc 0
At SMD
AR 
Op 0 0 0
T0 0.000 0.175 1.27 1.27 0 0.254 N V 21 N "IC**"
T1 0.000 0.175 1.27 1.27 0 0.254 N I 21 N "NCP176AMX330TCG"
DS -0.6 -0.6 0.6 -0.6 0.2 24
DS 0.6 -0.6 0.6 0.6 0.2 24
DS 0.6 0.6 -0.6 0.6 0.2 24
DS -0.6 0.6 -0.6 -0.6 0.2 24
DS -1.6 -1.7 1.6 -1.7 0.1 24
DS 1.6 -1.7 1.6 2.05 0.1 24
DS 1.6 2.05 -1.6 2.05 0.1 24
DS -1.6 2.05 -1.6 -1.7 0.1 24
DS 0.6 -0.6 0.6 0.515 0.1 21
DS -0.6 -0.6 -0.6 0.515 0.1 21
DS -0.5 1 -0.5 1 0.2 21
DS -0.6 1 -0.6 1 0.2 21
DA -0.55 1 -0.500 1 -1800 0.2 21
DA -0.55 1 -0.600 1 -1800 0.2 21
$PAD
Po -0.400 0.515
Sh "1" R 0.240 0.370 0 0 0
At SMD N 00888000
Ne 0 ""
$EndPAD
$PAD
Po 0.000 0.515
Sh "2" R 0.240 0.370 0 0 0
At SMD N 00888000
Ne 0 ""
$EndPAD
$PAD
Po 0.400 0.515
Sh "3" R 0.240 0.370 0 0 0
At SMD N 00888000
Ne 0 ""
$EndPAD
$PAD
Po 0.400 -0.515
Sh "4" R 0.240 0.370 0 0 0
At SMD N 00888000
Ne 0 ""
$EndPAD
$PAD
Po 0.000 -0.515
Sh "5" R 0.240 0.370 0 0 0
At SMD N 00888000
Ne 0 ""
$EndPAD
$PAD
Po -0.400 -0.515
Sh "6" R 0.240 0.370 0 0 0
At SMD N 00888000
Ne 0 ""
$EndPAD
$PAD
Po 0.000 -0
Sh "7" R 0.400 1.080 0 0 900
At SMD N 00888000
Ne 0 ""
$EndPAD
$EndMODULE NCP176AMX330TCG
$EndLIBRARY
