PCBNEW-LibModule-V1  2020-02-07 12:51:42
# encoding utf-8
Units mm
$INDEX
RCLAMP0531TTCT
$EndINDEX
$MODULE RCLAMP0531TTCT
Po 0 0 0 15 5e3d5d5e 00000000 ~~
Li RCLAMP0531TTCT
Cd RCLAMP0531T.TCT-3
Kw TVS Diode (Bi-directional)
Sc 0
At SMD
AR 
Op 0 0 0
T0 -0.200 -0 1.27 1.27 0 0.254 N V 21 N "D**"
T1 -0.200 -0 1.27 1.27 0 0.254 N I 21 N "RCLAMP0531TTCT"
DS -0.3 -0.5 0.3 -0.5 0.2 24
DS 0.3 -0.5 0.3 0.5 0.2 24
DS 0.3 0.5 -0.3 0.5 0.2 24
DS -0.3 0.5 -0.3 -0.5 0.2 24
DS -1.7 -1.7 1.3 -1.7 0.1 24
DS 1.3 -1.7 1.3 1.7 0.1 24
DS 1.3 1.7 -1.7 1.7 0.1 24
DS -1.7 1.7 -1.7 -1.7 0.1 24
DS -0.6 -0.6 -0.6 -0.6 0.1 21
DS -0.7 -0.6 -0.7 -0.6 0.1 21
DA -0.65 -0.6 -0.600 -0.6 -1800 0.1 21
DA -0.65 -0.6 -0.700 -0.6 -1800 0.1 21
$PAD
Po 0.000 -0.425
Sh "1" R 0.550 0.600 0 0 900
At SMD N 00888000
Ne 0 ""
$EndPAD
$PAD
Po 0.000 0.425
Sh "2" R 0.550 0.600 0 0 900
At SMD N 00888000
Ne 0 ""
$EndPAD
$EndMODULE RCLAMP0531TTCT
$EndLIBRARY
