PCBNEW-LibModule-V1  2020-02-05 13:36:30
# encoding utf-8
Units mm
$INDEX
POWERDI5
$EndINDEX
$MODULE POWERDI5
Po 0 0 0 15 5e3ac4de 00000000 ~~
Li POWERDI5
Cd PowerDI5
Kw Schottky Diode
Sc 0
At SMD
AR 
Op 0 0 0
T0 -0.297 2.813 1.27 1.27 0 0.254 N V 21 N "D**"
T1 -0.297 2.813 1.27 1.27 0 0.254 N I 21 N "POWERDI5"
DS -2.025 -1.984 2.025 -1.984 0.2 24
DS 2.025 -1.984 2.025 3.978 0.2 24
DS 2.025 3.978 -2.025 3.978 0.2 24
DS -2.025 3.978 -2.025 -1.984 0.2 24
DS -2.025 -1.984 -2.025 3.978 0.2 21
DS 2.025 3.978 2.025 -1.984 0.2 21
DC -2.251 4.917 -2.41462 4.917 0.254 21
$PAD
Po -0.92 3.982
Sh "1" R 1.39 1.4 0 0 0
At SMD N 00888000
Ne 0 ""
$EndPAD
$PAD
Po 0.92 3.982
Sh "2" R 1.39 1.4 0 0 0
At SMD N 00888000
Ne 0 ""
$EndPAD
$PAD
Po 0 0
Sh "3" R 3.36 4.86 0 0 0
At SMD N 00888000
Ne 0 ""
$EndPAD
$EndMODULE POWERDI5
$EndLIBRARY
