PCBNEW-LibModule-V1  2020-02-12 17:27:16
# encoding utf-8
Units mm
$INDEX
QFN35P700X700X80-69N-D
$EndINDEX
$MODULE QFN35P700X700X80-69N-D
Po 0 0 0 15 5e443574 00000000 ~~
Li QFN35P700X700X80-69N-D
Cd QFN-64-AA
Kw Integrated Circuit
Sc 0
At SMD
AR 
Op 0 0 0
T0 0 0 1.27 1.27 0 0.254 N V 21 N "IC**"
T1 0 0 1.27 1.27 0 0.254 N I 21 N "QFN35P700X700X80-69N-D"
DS -4.125 -4.125 4.125 -4.125 0.05 24
DS 4.125 -4.125 4.125 4.125 0.05 24
DS 4.125 4.125 -4.125 4.125 0.05 24
DS -4.125 4.125 -4.125 -4.125 0.05 24
DS -3.5 -3.5 3.5 -3.5 0.1 24
DS 3.5 -3.5 3.5 3.5 0.1 24
DS 3.5 3.5 -3.5 3.5 0.1 24
DS -3.5 3.5 -3.5 -3.5 0.1 24
DS -3.5 -3.15 -3.15 -3.5 0.1 24
DC -3.8755 -3.325 -3.788 -3.325 0.254 21
$PAD
Po -3.45 -2.8
Sh "1" R 0.15 0.85 0 0 900
At SMD N 00888000
Ne 0 ""
$EndPAD
$PAD
Po -3.45 -2.45
Sh "2" R 0.15 0.85 0 0 900
At SMD N 00888000
Ne 0 ""
$EndPAD
$PAD
Po -3.45 -2.1
Sh "3" R 0.15 0.85 0 0 900
At SMD N 00888000
Ne 0 ""
$EndPAD
$PAD
Po -3.45 -1.75
Sh "4" R 0.15 0.85 0 0 900
At SMD N 00888000
Ne 0 ""
$EndPAD
$PAD
Po -3.45 -1.4
Sh "5" R 0.15 0.85 0 0 900
At SMD N 00888000
Ne 0 ""
$EndPAD
$PAD
Po -3.45 -1.05
Sh "6" R 0.15 0.85 0 0 900
At SMD N 00888000
Ne 0 ""
$EndPAD
$PAD
Po -3.45 -0.7
Sh "7" R 0.15 0.85 0 0 900
At SMD N 00888000
Ne 0 ""
$EndPAD
$PAD
Po -3.45 -0.35
Sh "8" R 0.15 0.85 0 0 900
At SMD N 00888000
Ne 0 ""
$EndPAD
$PAD
Po -3.45 0
Sh "9" R 0.15 0.85 0 0 900
At SMD N 00888000
Ne 0 ""
$EndPAD
$PAD
Po -3.45 0.35
Sh "10" R 0.15 0.85 0 0 900
At SMD N 00888000
Ne 0 ""
$EndPAD
$PAD
Po -3.45 0.7
Sh "11" R 0.15 0.85 0 0 900
At SMD N 00888000
Ne 0 ""
$EndPAD
$PAD
Po -3.45 1.05
Sh "12" R 0.15 0.85 0 0 900
At SMD N 00888000
Ne 0 ""
$EndPAD
$PAD
Po -3.45 1.4
Sh "13" R 0.15 0.85 0 0 900
At SMD N 00888000
Ne 0 ""
$EndPAD
$PAD
Po -3.45 1.75
Sh "14" R 0.15 0.85 0 0 900
At SMD N 00888000
Ne 0 ""
$EndPAD
$PAD
Po -3.45 2.1
Sh "15" R 0.15 0.85 0 0 900
At SMD N 00888000
Ne 0 ""
$EndPAD
$PAD
Po -3.45 2.45
Sh "16" R 0.15 0.85 0 0 900
At SMD N 00888000
Ne 0 ""
$EndPAD
$PAD
Po -3.45 2.8
Sh "17" R 0.15 0.85 0 0 900
At SMD N 00888000
Ne 0 ""
$EndPAD
$PAD
Po -2.8 3.45
Sh "18" R 0.15 0.85 0 0 0
At SMD N 00888000
Ne 0 ""
$EndPAD
$PAD
Po -2.45 3.45
Sh "19" R 0.15 0.85 0 0 0
At SMD N 00888000
Ne 0 ""
$EndPAD
$PAD
Po -2.1 3.45
Sh "20" R 0.15 0.85 0 0 0
At SMD N 00888000
Ne 0 ""
$EndPAD
$PAD
Po -1.75 3.45
Sh "21" R 0.15 0.85 0 0 0
At SMD N 00888000
Ne 0 ""
$EndPAD
$PAD
Po -1.4 3.45
Sh "22" R 0.15 0.85 0 0 0
At SMD N 00888000
Ne 0 ""
$EndPAD
$PAD
Po -1.05 3.45
Sh "23" R 0.15 0.85 0 0 0
At SMD N 00888000
Ne 0 ""
$EndPAD
$PAD
Po -0.7 3.45
Sh "24" R 0.15 0.85 0 0 0
At SMD N 00888000
Ne 0 ""
$EndPAD
$PAD
Po -0.35 3.45
Sh "25" R 0.15 0.85 0 0 0
At SMD N 00888000
Ne 0 ""
$EndPAD
$PAD
Po 0 3.45
Sh "26" R 0.15 0.85 0 0 0
At SMD N 00888000
Ne 0 ""
$EndPAD
$PAD
Po 0.35 3.45
Sh "27" R 0.15 0.85 0 0 0
At SMD N 00888000
Ne 0 ""
$EndPAD
$PAD
Po 0.7 3.45
Sh "28" R 0.15 0.85 0 0 0
At SMD N 00888000
Ne 0 ""
$EndPAD
$PAD
Po 1.05 3.45
Sh "29" R 0.15 0.85 0 0 0
At SMD N 00888000
Ne 0 ""
$EndPAD
$PAD
Po 1.4 3.45
Sh "30" R 0.15 0.85 0 0 0
At SMD N 00888000
Ne 0 ""
$EndPAD
$PAD
Po 1.75 3.45
Sh "31" R 0.15 0.85 0 0 0
At SMD N 00888000
Ne 0 ""
$EndPAD
$PAD
Po 2.1 3.45
Sh "32" R 0.15 0.85 0 0 0
At SMD N 00888000
Ne 0 ""
$EndPAD
$PAD
Po 2.45 3.45
Sh "33" R 0.15 0.85 0 0 0
At SMD N 00888000
Ne 0 ""
$EndPAD
$PAD
Po 2.8 3.45
Sh "34" R 0.15 0.85 0 0 0
At SMD N 00888000
Ne 0 ""
$EndPAD
$PAD
Po 3.45 2.8
Sh "35" R 0.15 0.85 0 0 900
At SMD N 00888000
Ne 0 ""
$EndPAD
$PAD
Po 3.45 2.45
Sh "36" R 0.15 0.85 0 0 900
At SMD N 00888000
Ne 0 ""
$EndPAD
$PAD
Po 3.45 2.1
Sh "37" R 0.15 0.85 0 0 900
At SMD N 00888000
Ne 0 ""
$EndPAD
$PAD
Po 3.45 1.75
Sh "38" R 0.15 0.85 0 0 900
At SMD N 00888000
Ne 0 ""
$EndPAD
$PAD
Po 3.45 1.4
Sh "39" R 0.15 0.85 0 0 900
At SMD N 00888000
Ne 0 ""
$EndPAD
$PAD
Po 3.45 1.05
Sh "40" R 0.15 0.85 0 0 900
At SMD N 00888000
Ne 0 ""
$EndPAD
$PAD
Po 3.45 0.7
Sh "41" R 0.15 0.85 0 0 900
At SMD N 00888000
Ne 0 ""
$EndPAD
$PAD
Po 3.45 0.35
Sh "42" R 0.15 0.85 0 0 900
At SMD N 00888000
Ne 0 ""
$EndPAD
$PAD
Po 3.45 0
Sh "43" R 0.15 0.85 0 0 900
At SMD N 00888000
Ne 0 ""
$EndPAD
$PAD
Po 3.45 -0.35
Sh "44" R 0.15 0.85 0 0 900
At SMD N 00888000
Ne 0 ""
$EndPAD
$PAD
Po 3.45 -0.7
Sh "45" R 0.15 0.85 0 0 900
At SMD N 00888000
Ne 0 ""
$EndPAD
$PAD
Po 3.45 -1.05
Sh "46" R 0.15 0.85 0 0 900
At SMD N 00888000
Ne 0 ""
$EndPAD
$PAD
Po 3.45 -1.4
Sh "47" R 0.15 0.85 0 0 900
At SMD N 00888000
Ne 0 ""
$EndPAD
$PAD
Po 3.45 -1.75
Sh "48" R 0.15 0.85 0 0 900
At SMD N 00888000
Ne 0 ""
$EndPAD
$PAD
Po 3.45 -2.1
Sh "49" R 0.15 0.85 0 0 900
At SMD N 00888000
Ne 0 ""
$EndPAD
$PAD
Po 3.45 -2.45
Sh "50" R 0.15 0.85 0 0 900
At SMD N 00888000
Ne 0 ""
$EndPAD
$PAD
Po 3.45 -2.8
Sh "51" R 0.15 0.85 0 0 900
At SMD N 00888000
Ne 0 ""
$EndPAD
$PAD
Po 2.8 -3.45
Sh "52" R 0.15 0.85 0 0 0
At SMD N 00888000
Ne 0 ""
$EndPAD
$PAD
Po 2.45 -3.45
Sh "53" R 0.15 0.85 0 0 0
At SMD N 00888000
Ne 0 ""
$EndPAD
$PAD
Po 2.1 -3.45
Sh "54" R 0.15 0.85 0 0 0
At SMD N 00888000
Ne 0 ""
$EndPAD
$PAD
Po 1.75 -3.45
Sh "55" R 0.15 0.85 0 0 0
At SMD N 00888000
Ne 0 ""
$EndPAD
$PAD
Po 1.4 -3.45
Sh "56" R 0.15 0.85 0 0 0
At SMD N 00888000
Ne 0 ""
$EndPAD
$PAD
Po 1.05 -3.45
Sh "57" R 0.15 0.85 0 0 0
At SMD N 00888000
Ne 0 ""
$EndPAD
$PAD
Po 0.7 -3.45
Sh "58" R 0.15 0.85 0 0 0
At SMD N 00888000
Ne 0 ""
$EndPAD
$PAD
Po 0.35 -3.45
Sh "59" R 0.15 0.85 0 0 0
At SMD N 00888000
Ne 0 ""
$EndPAD
$PAD
Po 0 -3.45
Sh "60" R 0.15 0.85 0 0 0
At SMD N 00888000
Ne 0 ""
$EndPAD
$PAD
Po -0.35 -3.45
Sh "61" R 0.15 0.85 0 0 0
At SMD N 00888000
Ne 0 ""
$EndPAD
$PAD
Po -0.7 -3.45
Sh "62" R 0.15 0.85 0 0 0
At SMD N 00888000
Ne 0 ""
$EndPAD
$PAD
Po -1.05 -3.45
Sh "63" R 0.15 0.85 0 0 0
At SMD N 00888000
Ne 0 ""
$EndPAD
$PAD
Po -1.4 -3.45
Sh "64" R 0.15 0.85 0 0 0
At SMD N 00888000
Ne 0 ""
$EndPAD
$PAD
Po -1.75 -3.45
Sh "65" R 0.15 0.85 0 0 0
At SMD N 00888000
Ne 0 ""
$EndPAD
$PAD
Po -2.1 -3.45
Sh "66" R 0.15 0.85 0 0 0
At SMD N 00888000
Ne 0 ""
$EndPAD
$PAD
Po -2.45 -3.45
Sh "67" R 0.15 0.85 0 0 0
At SMD N 00888000
Ne 0 ""
$EndPAD
$PAD
Po -2.8 -3.45
Sh "68" R 0.15 0.85 0 0 0
At SMD N 00888000
Ne 0 ""
$EndPAD
$PAD
Po 0 0
Sh "69" R 5.61 5.61 0 0 0
At SMD N 00888000
Ne 0 ""
$EndPAD
$EndMODULE QFN35P700X700X80-69N-D
$EndLIBRARY
