PCBNEW-LibModule-V1  2020-02-04 18:43:40
# encoding utf-8
Units mm
$INDEX
SON65P200X200X80-7N
$EndINDEX
$MODULE SON65P200X200X80-7N
Po 0 0 0 15 5e39bb5c 00000000 ~~
Li SON65P200X200X80-7N
Cd DRV0006A
Kw Integrated Circuit
Sc 0
At SMD
AR 
Op 0 0 0
T0 0 0 1.27 1.27 0 0.254 N V 21 N "IC**"
T1 0 0 1.27 1.27 0 0.254 N I 21 N "SON65P200X200X80-7N"
DS -1.6 -1.3 1.6 -1.3 0.05 24
DS 1.6 -1.3 1.6 1.3 0.05 24
DS 1.6 1.3 -1.6 1.3 0.05 24
DS -1.6 1.3 -1.6 -1.3 0.05 24
DS -1 -1 1 -1 0.1 24
DS 1 -1 1 1 0.1 24
DS 1 1 -1 1 0.1 24
DS -1 1 -1 -1 0.1 24
DS -1 -0.5 -0.5 -1 0.1 24
DC -1.35 -1.325 -1.225 -1.325 0.254 21
$PAD
Po -1.05 -0.65
Sh "1" R 0.35 0.6 0 0 900
At SMD N 00888000
Ne 0 ""
$EndPAD
$PAD
Po -1.05 0
Sh "2" R 0.35 0.6 0 0 900
At SMD N 00888000
Ne 0 ""
$EndPAD
$PAD
Po -1.05 0.65
Sh "3" R 0.35 0.6 0 0 900
At SMD N 00888000
Ne 0 ""
$EndPAD
$PAD
Po 1.05 0.65
Sh "4" R 0.35 0.6 0 0 900
At SMD N 00888000
Ne 0 ""
$EndPAD
$PAD
Po 1.05 0
Sh "5" R 0.35 0.6 0 0 900
At SMD N 00888000
Ne 0 ""
$EndPAD
$PAD
Po 1.05 -0.65
Sh "6" R 0.35 0.6 0 0 900
At SMD N 00888000
Ne 0 ""
$EndPAD
$PAD
Po 0 0
Sh "7" R 1.1 1.7 0 0 0
At SMD N 00888000
Ne 0 ""
$EndPAD
$EndMODULE SON65P200X200X80-7N
$EndLIBRARY
