(module "XB324Z8UTJ" (layer F.Cu)
  (descr "XBEE3 UFL ANT PTH")
  (tags "Integrated Circuit")
  (fp_text reference IC** (at 10.795 6.097) (layer F.SilkS)
    (effects (font (size 1.27 1.27) (thickness 0.254)))
  )
  (fp_text user %R (at 10.795 6.097) (layer F.Fab)
    (effects (font (size 1.27 1.27) (thickness 0.254)))
  )
  (fp_text value "XB324Z8UTJ" (at 10.795 6.097) (layer F.SilkS) hide
    (effects (font (size 1.27 1.27) (thickness 0.254)))
  )
  (fp_line (start -2.6 -8.72) (end 24.19 -8.72) (layer F.CrtYd) (width 0.1))
  (fp_line (start 24.19 -8.72) (end 24.19 20.914) (layer F.CrtYd) (width 0.1))
  (fp_line (start 24.19 20.914) (end -2.6 20.914) (layer F.CrtYd) (width 0.1))
  (fp_line (start -2.6 20.914) (end -2.6 -8.72) (layer F.CrtYd) (width 0.1))
  (fp_line (start -1.19 -1.19) (end -1.19 19.914) (layer F.Fab) (width 0.2))
  (fp_line (start -1.19 19.914) (end 23.19 19.914) (layer F.Fab) (width 0.2))
  (fp_line (start 23.19 19.914) (end 23.19 -1.19) (layer F.Fab) (width 0.2))
  (fp_line (start 23.19 -1.19) (end 15.5 -7.72) (layer F.Fab) (width 0.2))
  (fp_line (start 15.5 -7.72) (end 6.5 -7.72) (layer F.Fab) (width 0.2))
  (fp_line (start 6.5 -7.72) (end -1.19 -1.19) (layer F.Fab) (width 0.2))
  (fp_line (start -1.19 -1.19) (end -1.19 19.914) (layer F.SilkS) (width 0.1))
  (fp_line (start -1.19 19.914) (end 23.19 19.914) (layer F.SilkS) (width 0.1))
  (fp_line (start 23.19 19.914) (end 23.19 -1.19) (layer F.SilkS) (width 0.1))
  (fp_line (start 23.19 -1.19) (end 15.5 -7.72) (layer F.SilkS) (width 0.1))
  (fp_line (start 15.5 -7.72) (end 6.5 -7.72) (layer F.SilkS) (width 0.1))
  (fp_line (start 6.5 -7.72) (end -1.19 -1.19) (layer F.SilkS) (width 0.1))
  (fp_line (start -1.5 -0) (end -1.5 -0) (layer F.SilkS) (width 0.1))
  (fp_line (start -1.6 -0) (end -1.6 -0) (layer F.SilkS) (width 0.1))
  (fp_arc (start -1.55 -0) (end -1.500 -0) (angle -180) (layer F.SilkS) (width 0.1))
  (fp_arc (start -1.55 -0) (end -1.600 -0) (angle -180) (layer F.SilkS) (width 0.1))
  (pad 1 thru_hole circle (at 0.000 -0) (size 1.431 1.431) (drill 0.92) (layers *.Cu *.Mask))
  (pad 2 thru_hole circle (at 0.000 2) (size 1.431 1.431) (drill 0.92) (layers *.Cu *.Mask))
  (pad 3 thru_hole circle (at 0.000 4) (size 1.431 1.431) (drill 0.92) (layers *.Cu *.Mask))
  (pad 4 thru_hole circle (at 0.000 6) (size 1.431 1.431) (drill 0.92) (layers *.Cu *.Mask))
  (pad 5 thru_hole circle (at 0.000 8) (size 1.431 1.431) (drill 0.92) (layers *.Cu *.Mask))
  (pad 6 thru_hole circle (at 0.000 10) (size 1.431 1.431) (drill 0.92) (layers *.Cu *.Mask))
  (pad 7 thru_hole circle (at 0.000 12) (size 1.431 1.431) (drill 0.92) (layers *.Cu *.Mask))
  (pad 8 thru_hole circle (at 0.000 14) (size 1.431 1.431) (drill 0.92) (layers *.Cu *.Mask))
  (pad 9 thru_hole circle (at 0.000 16) (size 1.431 1.431) (drill 0.92) (layers *.Cu *.Mask))
  (pad 10 thru_hole circle (at 0.000 18) (size 1.431 1.431) (drill 0.92) (layers *.Cu *.Mask))
  (pad 11 thru_hole circle (at 22.000 18) (size 1.431 1.431) (drill 0.92) (layers *.Cu *.Mask))
  (pad 12 thru_hole circle (at 22.000 16) (size 1.431 1.431) (drill 0.92) (layers *.Cu *.Mask))
  (pad 13 thru_hole circle (at 22.000 14) (size 1.431 1.431) (drill 0.92) (layers *.Cu *.Mask))
  (pad 14 thru_hole circle (at 22.000 12) (size 1.431 1.431) (drill 0.92) (layers *.Cu *.Mask))
  (pad 15 thru_hole circle (at 22.000 10) (size 1.431 1.431) (drill 0.92) (layers *.Cu *.Mask))
  (pad 16 thru_hole circle (at 22.000 8) (size 1.431 1.431) (drill 0.92) (layers *.Cu *.Mask))
  (pad 17 thru_hole circle (at 22.000 6) (size 1.431 1.431) (drill 0.92) (layers *.Cu *.Mask))
  (pad 18 thru_hole circle (at 22.000 4) (size 1.431 1.431) (drill 0.92) (layers *.Cu *.Mask))
  (pad 19 thru_hole circle (at 22.000 2) (size 1.431 1.431) (drill 0.92) (layers *.Cu *.Mask))
  (pad 20 thru_hole circle (at 22.000 -0) (size 1.431 1.431) (drill 0.92) (layers *.Cu *.Mask))
  (model XB3-24Z8UT-J.stp
    (at (xyz 0 0 0))
    (scale (xyz 1 1 1))
    (rotate (xyz 0 0 0))
  )
)
