PCBNEW-LibModule-V1  2020-06-13 20:22:00
# encoding utf-8
Units mm
$INDEX
CAPAE800X650N
$EndINDEX
$MODULE CAPAE800X650N
Po 0 0 0 15 5ee52758 00000000 ~~
Li CAPAE800X650N
Cd EEEFK1J220P
Kw Capacitor Polarised
Sc 0
At SMD
AR 
Op 0 0 0
T0 0 0 1.27 1.27 0 0.254 N V 21 N "C**"
T1 0 0 1.27 1.27 0 0.254 N I 21 N "CAPAE800X650N"
DS -6.05 -4.75 6.05 -4.75 0.05 24
DS 6.05 -4.75 6.05 4.75 0.05 24
DS 6.05 4.75 -6.05 4.75 0.05 24
DS -6.05 4.75 -6.05 -4.75 0.05 24
DS 4 -4 -2 -4 0.1 24
DS -2 -4 -4 -2 0.1 24
DS -4 -2 -4 2 0.1 24
DS -4 2 -2 4 0.1 24
DS -2 4 4 4 0.1 24
DS 4 4 4 -4 0.1 24
DS -5.55 -4 4 -4 0.2 21
DS -2 4 4 4 0.2 21
$PAD
Po -3.45 0
Sh "1" R 1.8 4.2 0 0 900
At SMD N 00888000
Ne 0 ""
$EndPAD
$PAD
Po 3.45 0
Sh "2" R 1.8 4.2 0 0 900
At SMD N 00888000
Ne 0 ""
$EndPAD
$EndMODULE CAPAE800X650N
$EndLIBRARY
