%TF.GenerationSoftware,KiCad,Pcbnew,5.1.6-c6e7f7d~87~ubuntu18.04.1*%
%TF.CreationDate,2020-09-21T14:41:01-03:00*%
%TF.ProjectId,PoEPowerBoard,506f4550-6f77-4657-9242-6f6172642e6b,1.0*%
%TF.SameCoordinates,Original*%
%TF.FileFunction,Paste,Bot*%
%TF.FilePolarity,Positive*%
%FSLAX46Y46*%
G04 Gerber Fmt 4.6, Leading zero omitted, Abs format (unit mm)*
G04 Created by KiCad (PCBNEW 5.1.6-c6e7f7d~87~ubuntu18.04.1) date 2020-09-21 14:41:01*
%MOMM*%
%LPD*%
G01*
G04 APERTURE LIST*
%ADD10R,1.050000X0.600000*%
G04 APERTURE END LIST*
%TO.C,R44*%
G36*
G01*
X106147500Y-58565000D02*
X106622500Y-58565000D01*
G75*
G02*
X106860000Y-58802500I0J-237500D01*
G01*
X106860000Y-59377500D01*
G75*
G02*
X106622500Y-59615000I-237500J0D01*
G01*
X106147500Y-59615000D01*
G75*
G02*
X105910000Y-59377500I0J237500D01*
G01*
X105910000Y-58802500D01*
G75*
G02*
X106147500Y-58565000I237500J0D01*
G01*
G37*
G36*
G01*
X106147500Y-56815000D02*
X106622500Y-56815000D01*
G75*
G02*
X106860000Y-57052500I0J-237500D01*
G01*
X106860000Y-57627500D01*
G75*
G02*
X106622500Y-57865000I-237500J0D01*
G01*
X106147500Y-57865000D01*
G75*
G02*
X105910000Y-57627500I0J237500D01*
G01*
X105910000Y-57052500D01*
G75*
G02*
X106147500Y-56815000I237500J0D01*
G01*
G37*
%TD*%
%TO.C,R57*%
G36*
G01*
X56673000Y-55388500D02*
X56673000Y-55863500D01*
G75*
G02*
X56435500Y-56101000I-237500J0D01*
G01*
X55860500Y-56101000D01*
G75*
G02*
X55623000Y-55863500I0J237500D01*
G01*
X55623000Y-55388500D01*
G75*
G02*
X55860500Y-55151000I237500J0D01*
G01*
X56435500Y-55151000D01*
G75*
G02*
X56673000Y-55388500I0J-237500D01*
G01*
G37*
G36*
G01*
X58423000Y-55388500D02*
X58423000Y-55863500D01*
G75*
G02*
X58185500Y-56101000I-237500J0D01*
G01*
X57610500Y-56101000D01*
G75*
G02*
X57373000Y-55863500I0J237500D01*
G01*
X57373000Y-55388500D01*
G75*
G02*
X57610500Y-55151000I237500J0D01*
G01*
X58185500Y-55151000D01*
G75*
G02*
X58423000Y-55388500I0J-237500D01*
G01*
G37*
%TD*%
%TO.C,R53*%
G36*
G01*
X54082200Y-35652700D02*
X54082200Y-36127700D01*
G75*
G02*
X53844700Y-36365200I-237500J0D01*
G01*
X53269700Y-36365200D01*
G75*
G02*
X53032200Y-36127700I0J237500D01*
G01*
X53032200Y-35652700D01*
G75*
G02*
X53269700Y-35415200I237500J0D01*
G01*
X53844700Y-35415200D01*
G75*
G02*
X54082200Y-35652700I0J-237500D01*
G01*
G37*
G36*
G01*
X55832200Y-35652700D02*
X55832200Y-36127700D01*
G75*
G02*
X55594700Y-36365200I-237500J0D01*
G01*
X55019700Y-36365200D01*
G75*
G02*
X54782200Y-36127700I0J237500D01*
G01*
X54782200Y-35652700D01*
G75*
G02*
X55019700Y-35415200I237500J0D01*
G01*
X55594700Y-35415200D01*
G75*
G02*
X55832200Y-35652700I0J-237500D01*
G01*
G37*
%TD*%
%TO.C,R47*%
G36*
G01*
X53066200Y-30394900D02*
X53066200Y-30869900D01*
G75*
G02*
X52828700Y-31107400I-237500J0D01*
G01*
X52253700Y-31107400D01*
G75*
G02*
X52016200Y-30869900I0J237500D01*
G01*
X52016200Y-30394900D01*
G75*
G02*
X52253700Y-30157400I237500J0D01*
G01*
X52828700Y-30157400D01*
G75*
G02*
X53066200Y-30394900I0J-237500D01*
G01*
G37*
G36*
G01*
X54816200Y-30394900D02*
X54816200Y-30869900D01*
G75*
G02*
X54578700Y-31107400I-237500J0D01*
G01*
X54003700Y-31107400D01*
G75*
G02*
X53766200Y-30869900I0J237500D01*
G01*
X53766200Y-30394900D01*
G75*
G02*
X54003700Y-30157400I237500J0D01*
G01*
X54578700Y-30157400D01*
G75*
G02*
X54816200Y-30394900I0J-237500D01*
G01*
G37*
%TD*%
%TO.C,R45*%
G36*
G01*
X103397500Y-58965000D02*
X103872500Y-58965000D01*
G75*
G02*
X104110000Y-59202500I0J-237500D01*
G01*
X104110000Y-59777500D01*
G75*
G02*
X103872500Y-60015000I-237500J0D01*
G01*
X103397500Y-60015000D01*
G75*
G02*
X103160000Y-59777500I0J237500D01*
G01*
X103160000Y-59202500D01*
G75*
G02*
X103397500Y-58965000I237500J0D01*
G01*
G37*
G36*
G01*
X103397500Y-57215000D02*
X103872500Y-57215000D01*
G75*
G02*
X104110000Y-57452500I0J-237500D01*
G01*
X104110000Y-58027500D01*
G75*
G02*
X103872500Y-58265000I-237500J0D01*
G01*
X103397500Y-58265000D01*
G75*
G02*
X103160000Y-58027500I0J237500D01*
G01*
X103160000Y-57452500D01*
G75*
G02*
X103397500Y-57215000I237500J0D01*
G01*
G37*
%TD*%
%TO.C,R42*%
G36*
G01*
X88647500Y-58990000D02*
X89122500Y-58990000D01*
G75*
G02*
X89360000Y-59227500I0J-237500D01*
G01*
X89360000Y-59802500D01*
G75*
G02*
X89122500Y-60040000I-237500J0D01*
G01*
X88647500Y-60040000D01*
G75*
G02*
X88410000Y-59802500I0J237500D01*
G01*
X88410000Y-59227500D01*
G75*
G02*
X88647500Y-58990000I237500J0D01*
G01*
G37*
G36*
G01*
X88647500Y-57240000D02*
X89122500Y-57240000D01*
G75*
G02*
X89360000Y-57477500I0J-237500D01*
G01*
X89360000Y-58052500D01*
G75*
G02*
X89122500Y-58290000I-237500J0D01*
G01*
X88647500Y-58290000D01*
G75*
G02*
X88410000Y-58052500I0J237500D01*
G01*
X88410000Y-57477500D01*
G75*
G02*
X88647500Y-57240000I237500J0D01*
G01*
G37*
%TD*%
%TO.C,R39*%
G36*
G01*
X82472500Y-58740000D02*
X81997500Y-58740000D01*
G75*
G02*
X81760000Y-58502500I0J237500D01*
G01*
X81760000Y-57927500D01*
G75*
G02*
X81997500Y-57690000I237500J0D01*
G01*
X82472500Y-57690000D01*
G75*
G02*
X82710000Y-57927500I0J-237500D01*
G01*
X82710000Y-58502500D01*
G75*
G02*
X82472500Y-58740000I-237500J0D01*
G01*
G37*
G36*
G01*
X82472500Y-60490000D02*
X81997500Y-60490000D01*
G75*
G02*
X81760000Y-60252500I0J237500D01*
G01*
X81760000Y-59677500D01*
G75*
G02*
X81997500Y-59440000I237500J0D01*
G01*
X82472500Y-59440000D01*
G75*
G02*
X82710000Y-59677500I0J-237500D01*
G01*
X82710000Y-60252500D01*
G75*
G02*
X82472500Y-60490000I-237500J0D01*
G01*
G37*
%TD*%
%TO.C,R38*%
G36*
G01*
X74497500Y-58640000D02*
X74972500Y-58640000D01*
G75*
G02*
X75210000Y-58877500I0J-237500D01*
G01*
X75210000Y-59452500D01*
G75*
G02*
X74972500Y-59690000I-237500J0D01*
G01*
X74497500Y-59690000D01*
G75*
G02*
X74260000Y-59452500I0J237500D01*
G01*
X74260000Y-58877500D01*
G75*
G02*
X74497500Y-58640000I237500J0D01*
G01*
G37*
G36*
G01*
X74497500Y-56890000D02*
X74972500Y-56890000D01*
G75*
G02*
X75210000Y-57127500I0J-237500D01*
G01*
X75210000Y-57702500D01*
G75*
G02*
X74972500Y-57940000I-237500J0D01*
G01*
X74497500Y-57940000D01*
G75*
G02*
X74260000Y-57702500I0J237500D01*
G01*
X74260000Y-57127500D01*
G75*
G02*
X74497500Y-56890000I237500J0D01*
G01*
G37*
%TD*%
D10*
%TO.C,D2*%
X84235000Y-59055000D03*
X86435000Y-60005000D03*
X86435000Y-58105000D03*
%TD*%
%TO.C,C92*%
G36*
G01*
X60655000Y-48651500D02*
X60655000Y-51551500D01*
G75*
G02*
X60405000Y-51801500I-250000J0D01*
G01*
X59605000Y-51801500D01*
G75*
G02*
X59355000Y-51551500I0J250000D01*
G01*
X59355000Y-48651500D01*
G75*
G02*
X59605000Y-48401500I250000J0D01*
G01*
X60405000Y-48401500D01*
G75*
G02*
X60655000Y-48651500I0J-250000D01*
G01*
G37*
G36*
G01*
X65105000Y-48651500D02*
X65105000Y-51551500D01*
G75*
G02*
X64855000Y-51801500I-250000J0D01*
G01*
X64055000Y-51801500D01*
G75*
G02*
X63805000Y-51551500I0J250000D01*
G01*
X63805000Y-48651500D01*
G75*
G02*
X64055000Y-48401500I250000J0D01*
G01*
X64855000Y-48401500D01*
G75*
G02*
X65105000Y-48651500I0J-250000D01*
G01*
G37*
%TD*%
%TO.C,C91*%
G36*
G01*
X114110000Y-59752500D02*
X116260000Y-59752500D01*
G75*
G02*
X116510000Y-60002500I0J-250000D01*
G01*
X116510000Y-60927500D01*
G75*
G02*
X116260000Y-61177500I-250000J0D01*
G01*
X114110000Y-61177500D01*
G75*
G02*
X113860000Y-60927500I0J250000D01*
G01*
X113860000Y-60002500D01*
G75*
G02*
X114110000Y-59752500I250000J0D01*
G01*
G37*
G36*
G01*
X114110000Y-56777500D02*
X116260000Y-56777500D01*
G75*
G02*
X116510000Y-57027500I0J-250000D01*
G01*
X116510000Y-57952500D01*
G75*
G02*
X116260000Y-58202500I-250000J0D01*
G01*
X114110000Y-58202500D01*
G75*
G02*
X113860000Y-57952500I0J250000D01*
G01*
X113860000Y-57027500D01*
G75*
G02*
X114110000Y-56777500I250000J0D01*
G01*
G37*
%TD*%
%TO.C,C46*%
G36*
G01*
X75335000Y-53539999D02*
X75335000Y-54440001D01*
G75*
G02*
X75085001Y-54690000I-249999J0D01*
G01*
X74434999Y-54690000D01*
G75*
G02*
X74185000Y-54440001I0J249999D01*
G01*
X74185000Y-53539999D01*
G75*
G02*
X74434999Y-53290000I249999J0D01*
G01*
X75085001Y-53290000D01*
G75*
G02*
X75335000Y-53539999I0J-249999D01*
G01*
G37*
G36*
G01*
X77385000Y-53539999D02*
X77385000Y-54440001D01*
G75*
G02*
X77135001Y-54690000I-249999J0D01*
G01*
X76484999Y-54690000D01*
G75*
G02*
X76235000Y-54440001I0J249999D01*
G01*
X76235000Y-53539999D01*
G75*
G02*
X76484999Y-53290000I249999J0D01*
G01*
X77135001Y-53290000D01*
G75*
G02*
X77385000Y-53539999I0J-249999D01*
G01*
G37*
%TD*%
%TO.C,C45*%
G36*
G01*
X61328000Y-44137000D02*
X61328000Y-46287000D01*
G75*
G02*
X61078000Y-46537000I-250000J0D01*
G01*
X60153000Y-46537000D01*
G75*
G02*
X59903000Y-46287000I0J250000D01*
G01*
X59903000Y-44137000D01*
G75*
G02*
X60153000Y-43887000I250000J0D01*
G01*
X61078000Y-43887000D01*
G75*
G02*
X61328000Y-44137000I0J-250000D01*
G01*
G37*
G36*
G01*
X64303000Y-44137000D02*
X64303000Y-46287000D01*
G75*
G02*
X64053000Y-46537000I-250000J0D01*
G01*
X63128000Y-46537000D01*
G75*
G02*
X62878000Y-46287000I0J250000D01*
G01*
X62878000Y-44137000D01*
G75*
G02*
X63128000Y-43887000I250000J0D01*
G01*
X64053000Y-43887000D01*
G75*
G02*
X64303000Y-44137000I0J-250000D01*
G01*
G37*
%TD*%
%TO.C,C42*%
G36*
G01*
X61277200Y-39793600D02*
X61277200Y-41943600D01*
G75*
G02*
X61027200Y-42193600I-250000J0D01*
G01*
X60102200Y-42193600D01*
G75*
G02*
X59852200Y-41943600I0J250000D01*
G01*
X59852200Y-39793600D01*
G75*
G02*
X60102200Y-39543600I250000J0D01*
G01*
X61027200Y-39543600D01*
G75*
G02*
X61277200Y-39793600I0J-250000D01*
G01*
G37*
G36*
G01*
X64252200Y-39793600D02*
X64252200Y-41943600D01*
G75*
G02*
X64002200Y-42193600I-250000J0D01*
G01*
X63077200Y-42193600D01*
G75*
G02*
X62827200Y-41943600I0J250000D01*
G01*
X62827200Y-39793600D01*
G75*
G02*
X63077200Y-39543600I250000J0D01*
G01*
X64002200Y-39543600D01*
G75*
G02*
X64252200Y-39793600I0J-250000D01*
G01*
G37*
%TD*%
M02*
