PCBNEW-LibModule-V1  2020-02-06 17:13:53
# encoding utf-8
Units mm
$INDEX
SOT95P280X120-5N
$EndINDEX
$MODULE SOT95P280X120-5N
Po 0 0 0 15 5e3c4951 00000000 ~~
Li SOT95P280X120-5N
Cd SOT-25
Kw Integrated Circuit
Sc 0
At SMD
AR 
Op 0 0 0
T0 0 0 1.27 1.27 0 0.254 N V 21 N "IC**"
T1 0 0 1.27 1.27 0 0.254 N I 21 N "SOT95P280X120-5N"
DS -2.1 -1.8 2.1 -1.8 0.05 24
DS 2.1 -1.8 2.1 1.8 0.05 24
DS 2.1 1.8 -2.1 1.8 0.05 24
DS -2.1 1.8 -2.1 -1.8 0.05 24
DS -0.825 -1.45 0.825 -1.45 0.1 24
DS 0.825 -1.45 0.825 1.45 0.1 24
DS 0.825 1.45 -0.825 1.45 0.1 24
DS -0.825 1.45 -0.825 -1.45 0.1 24
DS -0.825 -0.5 0.125 -1.45 0.1 24
DS -0.6 -1.45 0.6 -1.45 0.2 21
DS 0.6 -1.45 0.6 1.45 0.2 21
DS 0.6 1.45 -0.6 1.45 0.2 21
DS -0.6 1.45 -0.6 -1.45 0.2 21
DS -1.85 -1.5 -0.95 -1.5 0.2 21
$PAD
Po -1.4 -0.95
Sh "1" R 0.6 0.9 0 0 900
At SMD N 00888000
Ne 0 ""
$EndPAD
$PAD
Po -1.4 0
Sh "2" R 0.6 0.9 0 0 900
At SMD N 00888000
Ne 0 ""
$EndPAD
$PAD
Po -1.4 0.95
Sh "3" R 0.6 0.9 0 0 900
At SMD N 00888000
Ne 0 ""
$EndPAD
$PAD
Po 1.4 0.95
Sh "4" R 0.6 0.9 0 0 900
At SMD N 00888000
Ne 0 ""
$EndPAD
$PAD
Po 1.4 -0.95
Sh "5" R 0.6 0.9 0 0 900
At SMD N 00888000
Ne 0 ""
$EndPAD
$EndMODULE SOT95P280X120-5N
$EndLIBRARY
