PCBNEW-LibModule-V1  2020-06-13 00:00:24
# encoding utf-8
Units mm
$INDEX
DIOM7958X256N
$EndINDEX
$MODULE DIOM7958X256N
Po 0 0 0 15 5ee40908 00000000 ~~
Li DIOM7958X256N
Cd SMC CASE403-03
Kw Diode
Sc 0
At SMD
AR 
Op 0 0 0
T0 0 0 1.27 1.27 0 0.254 N V 21 N "D**"
T1 0 0 1.27 1.27 0 0.254 N I 21 N "DIOM7958X256N"
DS -4.85 -3.3 4.85 -3.3 0.05 24
DS 4.85 -3.3 4.85 3.3 0.05 24
DS 4.85 3.3 -4.85 3.3 0.05 24
DS -4.85 3.3 -4.85 -3.3 0.05 24
DS -3.97 -2.922 3.97 -2.922 0.1 24
DS 3.97 -2.922 3.97 2.922 0.1 24
DS 3.97 2.922 -3.97 2.922 0.1 24
DS -3.97 2.922 -3.97 -2.922 0.1 24
DS -3.97 -1.922 -2.97 -2.922 0.1 24
DS 3.97 -2.922 -4.6 -2.922 0.2 21
DS -3.97 2.922 3.97 2.922 0.2 21
$PAD
Po -3.6 0
Sh "1" R 2 3.05 0 0 0
At SMD N 00888000
Ne 0 ""
$EndPAD
$PAD
Po 3.6 0
Sh "2" R 2 3.05 0 0 0
At SMD N 00888000
Ne 0 ""
$EndPAD
$EndMODULE DIOM7958X256N
$EndLIBRARY
