(Source "DipTrace-ElementLibrary")
  (Library
    (Name "C2012X7R2A104K125AA")
    (Hint "C2012X7R2A104K125AA")
    (Subfolders
    )
    (Categories 0
    )
    (Components
      (Component
        (Part "C2012X7R2A104K125AA" "C"
          (Enabled "Y")
          (PartType 0)
          (PartName "C2012X7R2A104K125AA")
          (ShowNumbers 0)
          (Type 0)
          (Number1 0)
          (Number2 0)
          (Width 60.96)
          (Height 91.44)
          (Value "")
          (LockProperties "N")
          (OriginX 0)
          (OriginY 0)
          (Datasheet "https://product.tdk.com/info/en/catalog/datasheets/mlcc_commercial_midvoltage_en.pdf")
          (ModelType 0)
          (ModelString "")
          (ModelBody
          )
          (Manufacturer "TDK")
          (CategoryName "")
          (CategoryIndex -1)
          (CategoryTypes 0
          )
          (SubfolderIndex 0)
          (Verification "N" "N" "N" "N" "N" "N" "N")
          (Pins
            (Pin 0 15.24 -0
              (Enabled "Y")
              (Locked "N")
              (ModelSig "")
              (Type 0)
              (Orientation 0)
              (Number 1)
              (Length 15.24)
              (Name "1")
              (StringNumber "1")
              (ShowName "N")
              (PinNumXShift 0)
              (PinNumYShift 0)
              (PinNamexShift 0)
              (PinNameYShift 0)
              (ElectricType 0)
              (NameFontSize 5)
              (NameFontWidth -2)
              (NameFontScale 1)
              (SignalDelay 0)
            )
            (Pin 1 22.86 -0
              (Enabled "Y")
              (Locked "N")
              (ModelSig "")
              (Type 0)
              (Orientation 2)
              (Number 2)
              (Length 15.24)
              (Name "2")
              (StringNumber "2")
              (ShowName "N")
              (PinNumXShift 0)
              (PinNumYShift 0)
              (PinNamexShift 0)
              (PinNameYShift 0)
              (ElectricType 0)
              (NameFontSize 5)
              (NameFontWidth -2)
              (NameFontScale 1)
              (SignalDelay 0)
            )
          )
          (Shapes
            (Shape 0
              (Enabled "Y")
              (Locked "N")
              (VectorFont "N")
              (FontWidth 0)
              (FontScale 0)
              (Orientation 0)
              (Type 1)
              (FontSize 0)
              (FontColor 0)
              (FontType 0)
              (FontName "")
              (Name "")
              (Width 0.762)
              (Points
                (pt 16.764 -7.62)
                (pt 16.764 7.62)
              )
            )
            (Shape 1
              (Enabled "Y")
              (Locked "N")
              (VectorFont "N")
              (FontWidth 0)
              (FontScale 0)
              (Orientation 0)
              (Type 1)
              (FontSize 0)
              (FontColor 0)
              (FontType 0)
              (FontName "")
              (Name "")
              (Width 0.762)
              (Points
                (pt 21.336 -7.62)
                (pt 21.336 7.62)
              )
            )
            (Shape 2
              (Enabled "Y")
              (Locked "N")
              (VectorFont "N")
              (FontWidth 0)
              (FontScale 0)
              (Orientation 0)
              (Type 1)
              (FontSize 0)
              (FontColor 0)
              (FontType 0)
              (FontName "")
              (Name "")
              (Width 0.762)
              (Points
                (pt 15.24 0)
                (pt 16.764 0)
              )
            )
            (Shape 3
              (Enabled "Y")
              (Locked "N")
              (VectorFont "N")
              (FontWidth 0)
              (FontScale 0)
              (Orientation 0)
              (Type 1)
              (FontSize 0)
              (FontColor 0)
              (FontType 0)
              (FontName "")
              (Name "")
              (Width 0.762)
              (Points
                (pt 21.336 0)
                (pt 22.86 0)
              )
            )
          )
          (UserFields
            (UserField "Manufacturer_Name" "TDK" 0)
            (UserField "Manufacturer_Part_Number" "C2012X7R2A104K125AA" 0)
            (UserField "Mouser Part Number" "810-C2012X7R2A104K" 0)
            (UserField "Mouser Price/Stock" "https://www.mouser.com/Search/Refine.aspx?Keyword=810-C2012X7R2A104K" 0)
            (UserField "RS Part Number" "7414642P" 0)
            (UserField "RS Price/Stock" "http://uk.rs-online.com/web/p/products/7414642P" 0)
            (UserField "Height" "1.45 mm" 0)
            (UserField "Description" "Multilayer Ceramic Capacitors MLCC - SMD/SMT 0805 0.1uF 100volts X7R 10%" 0)
          )
        )
        (Pattern "CAPC2012X145N"
          (Type 0)
          (VariableParameter1 "N")
          (VariableParameter2 "N")
          (VariableParameter3 "N")
          (VariableParameter4 "N")
          (InternalConnections
          )
          (Number1 0)
          (Number2 0)
          (Spacing1 0)
          (Spacing2 0)
          (VariableParameter5 "N")
          (Spacing3 0)
          (LockProperties "N")
          (PatternOrientation 0)
          (Width 6)
          (Height 3.75)
          (PadWidth 1.86)
          (PadHeight 4.41)
          (PadShape 2)
          (PadHole 0)
          (PadHoleH 0)
          (PadHoleType 0)
          (SurfacePad "Y")
          (OriginX 0)
          (OriginY 0)
          (PadPoints
          )
          (Pads
            (Pad 0 "" "" 0 0
              (Number 0)
              (Inverted "N")
              (Locked "N")
              (Sided "N")
              (DisableTopMask "N" 0)
              (DisableBottomMask "N" 0)
              (DisableTopPaste "N" 0)
              (DisableBottomPaste "N" 0)
              (CustomSwell 0)
              (CustomShrink 0)
              (PadWidth 0)
              (PadHeight 0)
              (PadHole 0)
              (PadHoleH 0)
              (PadHoleType 0)
              (SurfacePad "N")
              (PadShape 0)
              (Standard "N")
              (Point
              )
            )
            (Pad 1 "1" "" -3 0
              (Number 1)
              (Inverted "N")
              (Locked "N")
              (Sided "N")
              (DisableTopMask "N" 0)
              (DisableBottomMask "N" 0)
              (DisableTopPaste "N" 0)
              (DisableBottomPaste "N" 0)
              (CustomSwell -1000)
              (CustomShrink -1000)
              (PadWidth 1.86)
              (PadHeight 4.41)
              (PadHole 0)
              (PadHoleH 0)
              (PadHoleType 0)
              (SurfacePad "Y")
              (PadShape 2)
              (Standard "N")
              (Point
              )
            )
            (Pad 2 "2" "" 3 0
              (Number 2)
              (Inverted "N")
              (Locked "N")
              (Sided "N")
              (DisableTopMask "N" 0)
              (DisableBottomMask "N" 0)
              (DisableTopPaste "N" 0)
              (DisableBottomPaste "N" 0)
              (CustomSwell -1000)
              (CustomShrink -1000)
              (PadWidth 1.86)
              (PadHeight 4.41)
              (PadHole 0)
              (PadHoleH 0)
              (PadHoleType 0)
              (SurfacePad "Y")
              (PadShape 2)
              (Standard "N")
              (Point
              )
            )
            (Pad 3 "" "" 0 0
              (Number 0)
              (Inverted "N")
              (Locked "N")
              (Sided "N")
              (DisableTopMask "N" 0)
              (DisableBottomMask "N" 0)
              (DisableTopPaste "N" 0)
              (DisableBottomPaste "N" 0)
              (CustomSwell 0)
              (CustomShrink 0)
              (PadWidth 0)
              (PadHeight 0)
              (PadHole 0)
              (PadHoleH 0)
              (PadHoleType 0)
              (SurfacePad "N")
              (PadShape 0)
              (Standard "N")
              (Point
              )
            )
          )
          (Shapes
            (Shape 0 "N" 0 0 0 0 0 0 0 "" "" "N" 0 0 0 0 0 0)
            (Shape 8 "N" 1 0 0 0 0 0 0 "" "Tahoma" "Y" 4 1 -2 0 0.3 0)
              (Point
                (pt -0.5 -0.5)
                (pt 0.5 -0.5)
              )
            (Shape 8 "N" 1 0 0 0 0 0 0 "" "Tahoma" "Y" 4 1 -2 0 0.3 0)
              (Point
                (pt 0.5 -0.5)
                (pt 0.5 0.5)
              )
            (Shape 8 "N" 1 0 0 0 0 0 0 "" "Tahoma" "Y" 4 1 -2 0 0.3 0)
              (Point
                (pt 0.5 0.5)
                (pt -0.5 0.5)
              )
            (Shape 8 "N" 1 0 0 0 0 0 0 "" "Tahoma" "Y" 4 1 -2 0 0.3 0)
              (Point
                (pt -0.5 0.5)
                (pt -0.5 -0.5)
              )
            (Shape 8 "N" 0 0 0 0 0 0 0 "" "Tahoma" "Y" 4 1 -2 0 0.6 0)
              (Point
                (pt 0 -0.42)
                (pt 0 0.42)
              )
            (Shape 0 "N" 0 0 0 0 0 0 0 "" "" "N" 0 0 0 0 0 0)
          )
          (Model3D
            (Model3DFile "C2012X7R2A104K125AA.stp")
            (pt 0 0 0 0 0 0 1 1 1 "N" "N" 0)
          )
        )
      )
    )
  )
()

