#VRML V2.0 utf8
# META "generator" "CAD Exchanger 3.4.1 (cadexchanger.com)"
DEF __1 Transform {
  children [
    DEF ASSEMBLY Group {
      children [
        DEF __3 Transform {
          translation 0 0 0.0001
          children [
            DEF Body Group {
              children [
                DEF __5 Shape {
                  appearance DEF __6 Appearance {
                    material DEF __7 Material {
                      ambientIntensity 0.66666662693
                      diffuseColor 0.300000011921 0.300000011921 0.300000011921
                      shininess 0
                    }
                  }
                  geometry DEF __8 IndexedFaceSet {
                    solid FALSE
                    coord Coordinate {
                      point [
                        -0.00205 -0.00255 0,
                        -0.00205 -0.00255 0.001,
                        0.00205 -0.00255 0.001,
                        0.00205 -0.00255 0,
                        0.00205 0.00255 0.001,
                        0.00205 0.00255 0,
                        -0.00205 0.00255 0.001,
                        -0.00205 0.00255 0

                      ]
                    }
                    normal Normal {
                      vector [
                        0 -1 -0,
                        0 -1 -0,
                        0 -1 -0,
                        0 -1 -0,
                        1 -0 -0,
                        1 -0 -0,
                        1 -0 -0,
                        1 -0 -0,
                        -0 1 -0,
                        -0 1 -0,
                        -0 1 -0,
                        -0 1 -0,
                        -1 -0 -0,
                        -1 -0 -0,
                        -1 -0 -0,
                        -1 -0 -0,
                        -0 -0 -1,
                        -0 -0 -1,
                        -0 -0 -1,
                        -0 -0 -1,
                        0 0 1,
                        0 0 1,
                        0 0 1,
                        0 0 1

                      ]
                    }
                    coordIndex [
                      2 1 0 -1 
                      3 2 0 -1 
                      5 2 3 -1 
                      5 4 2 -1 
                      6 4 5 -1 
                      7 6 5 -1 
                      0 6 7 -1 
                      0 1 6 -1 
                      5 3 0 -1 
                      5 0 7 -1 
                      4 1 2 -1 
                      4 6 1 -1 
                    ]
                    normalIndex [
                      2 1 0 -1 
                      3 2 0 -1 
                      7 5 4 -1 
                      7 6 5 -1 
                      10 9 8 -1 
                      11 10 8 -1 
                      15 13 12 -1 
                      15 14 13 -1 
                      18 17 16 -1 
                      18 16 19 -1 
                      22 20 21 -1 
                      22 23 20 -1 
                    ]
                  }
                }
              ]
            }
          ]
        }
        DEF __9 Transform {
          translation -0.002025 0.00165 0
          children [
            DEF __10 Group {
              children [
                DEF __11 Shape {
                  appearance DEF __12 Appearance {
                    material DEF __13 Material {
                      ambientIntensity 0.260947436094
                      diffuseColor 0.73400002718 0.773000001907 0.79699999094
                      shininess 0
                    }
                  }
                  geometry DEF __14 IndexedFaceSet {
                    solid FALSE
                    coord Coordinate {
                      point [
                        0 0 0,
                        0 0 0.0001,
                        0 0.0002 0,
                        0 0.0002 0.0001,
                        0.0004 0 0,
                        0.0004 0 0.0001,
                        0.0004 0.0002 0,
                        0.0004 0.0002 0.0001

                      ]
                    }
                    normal Normal {
                      vector [
                        -1 -0 0,
                        -1 -0 0,
                        -1 -0 0,
                        -1 -0 0,
                        1 0 -0,
                        1 0 -0,
                        1 0 -0,
                        1 0 -0,
                        0 -1 -0,
                        0 -1 -0,
                        0 -1 -0,
                        0 -1 -0,
                        -0 1 0,
                        -0 1 0,
                        -0 1 0,
                        -0 1 0,
                        -0 -0 -1,
                        -0 -0 -1,
                        -0 -0 -1,
                        -0 -0 -1,
                        0 0 1,
                        0 0 1,
                        0 0 1,
                        0 0 1

                      ]
                    }
                    coordIndex [
                      1 2 0 -1 
                      1 3 2 -1 
                      5 4 6 -1 
                      5 6 7 -1 
                      5 0 4 -1 
                      5 1 0 -1 
                      7 6 2 -1 
                      7 2 3 -1 
                      6 0 2 -1 
                      6 4 0 -1 
                      7 3 1 -1 
                      7 1 5 -1 
                    ]
                    normalIndex [
                      1 2 0 -1 
                      1 3 2 -1 
                      5 4 6 -1 
                      5 6 7 -1 
                      11 8 9 -1 
                      11 10 8 -1 
                      15 13 12 -1 
                      15 12 14 -1 
                      19 16 17 -1 
                      19 18 16 -1 
                      23 21 20 -1 
                      23 20 22 -1 
                    ]
                  }
                }
              ]
            }
          ]
        }
        DEF __15 Transform {
          translation -0.002025 0.00115 0
          children [
            DEF __16 Group {
              children [
                DEF __17 Shape {
                  appearance USE __12
                  geometry DEF __18 IndexedFaceSet {
                    solid FALSE
                    coord Coordinate {
                      point [
                        0 0 0,
                        0 0 0.0001,
                        0 0.0002 0,
                        0 0.0002 0.0001,
                        0.0004 0 0,
                        0.0004 0 0.0001,
                        0.0004 0.0002 0,
                        0.0004 0.0002 0.0001

                      ]
                    }
                    normal Normal {
                      vector [
                        -1 -0 0,
                        -1 -0 0,
                        -1 -0 0,
                        -1 -0 0,
                        1 0 -0,
                        1 0 -0,
                        1 0 -0,
                        1 0 -0,
                        0 -1 -0,
                        0 -1 -0,
                        0 -1 -0,
                        0 -1 -0,
                        -0 1 0,
                        -0 1 0,
                        -0 1 0,
                        -0 1 0,
                        -0 -0 -1,
                        -0 -0 -1,
                        -0 -0 -1,
                        -0 -0 -1,
                        0 0 1,
                        0 0 1,
                        0 0 1,
                        0 0 1

                      ]
                    }
                    coordIndex [
                      1 2 0 -1 
                      1 3 2 -1 
                      5 4 6 -1 
                      5 6 7 -1 
                      5 0 4 -1 
                      5 1 0 -1 
                      7 6 2 -1 
                      7 2 3 -1 
                      6 0 2 -1 
                      6 4 0 -1 
                      7 3 1 -1 
                      7 1 5 -1 
                    ]
                    normalIndex [
                      1 2 0 -1 
                      1 3 2 -1 
                      5 4 6 -1 
                      5 6 7 -1 
                      11 8 9 -1 
                      11 10 8 -1 
                      15 13 12 -1 
                      15 12 14 -1 
                      19 16 17 -1 
                      19 18 16 -1 
                      23 21 20 -1 
                      23 20 22 -1 
                    ]
                  }
                }
              ]
            }
          ]
        }
        DEF __19 Transform {
          translation -0.002025 0.00065 0
          children [
            DEF __20 Group {
              children [
                DEF __21 Shape {
                  appearance USE __12
                  geometry DEF __22 IndexedFaceSet {
                    solid FALSE
                    coord Coordinate {
                      point [
                        0 0 0,
                        0 0 0.0001,
                        0 0.0002 0,
                        0 0.0002 0.0001,
                        0.0004 0 0,
                        0.0004 0 0.0001,
                        0.0004 0.0002 0,
                        0.0004 0.0002 0.0001

                      ]
                    }
                    normal Normal {
                      vector [
                        -1 -0 0,
                        -1 -0 0,
                        -1 -0 0,
                        -1 -0 0,
                        1 0 -0,
                        1 0 -0,
                        1 0 -0,
                        1 0 -0,
                        0 -1 -0,
                        0 -1 -0,
                        0 -1 -0,
                        0 -1 -0,
                        -0 1 0,
                        -0 1 0,
                        -0 1 0,
                        -0 1 0,
                        -0 -0 -1,
                        -0 -0 -1,
                        -0 -0 -1,
                        -0 -0 -1,
                        0 0 1,
                        0 0 1,
                        0 0 1,
                        0 0 1

                      ]
                    }
                    coordIndex [
                      1 2 0 -1 
                      1 3 2 -1 
                      5 4 6 -1 
                      5 6 7 -1 
                      5 0 4 -1 
                      5 1 0 -1 
                      7 6 2 -1 
                      7 2 3 -1 
                      6 0 2 -1 
                      6 4 0 -1 
                      7 3 1 -1 
                      7 1 5 -1 
                    ]
                    normalIndex [
                      1 2 0 -1 
                      1 3 2 -1 
                      5 4 6 -1 
                      5 6 7 -1 
                      11 8 9 -1 
                      11 10 8 -1 
                      15 13 12 -1 
                      15 12 14 -1 
                      19 16 17 -1 
                      19 18 16 -1 
                      23 21 20 -1 
                      23 20 22 -1 
                    ]
                  }
                }
              ]
            }
          ]
        }
        DEF __23 Transform {
          translation -0.002025 0.00015 0
          children [
            DEF __24 Group {
              children [
                DEF __25 Shape {
                  appearance USE __12
                  geometry DEF __26 IndexedFaceSet {
                    solid FALSE
                    coord Coordinate {
                      point [
                        0 0 0,
                        0 0 0.0001,
                        0 0.0002 0,
                        0 0.0002 0.0001,
                        0.0004 0 0,
                        0.0004 0 0.0001,
                        0.0004 0.0002 0,
                        0.0004 0.0002 0.0001

                      ]
                    }
                    normal Normal {
                      vector [
                        -1 -0 0,
                        -1 -0 0,
                        -1 -0 0,
                        -1 -0 0,
                        1 0 -0,
                        1 0 -0,
                        1 0 -0,
                        1 0 -0,
                        0 -1 -0,
                        0 -1 -0,
                        0 -1 -0,
                        0 -1 -0,
                        -0 1 0,
                        -0 1 0,
                        -0 1 0,
                        -0 1 0,
                        -0 -0 -1,
                        -0 -0 -1,
                        -0 -0 -1,
                        -0 -0 -1,
                        0 0 1,
                        0 0 1,
                        0 0 1,
                        0 0 1

                      ]
                    }
                    coordIndex [
                      1 2 0 -1 
                      1 3 2 -1 
                      5 4 6 -1 
                      5 6 7 -1 
                      5 0 4 -1 
                      5 1 0 -1 
                      7 6 2 -1 
                      7 2 3 -1 
                      6 0 2 -1 
                      6 4 0 -1 
                      7 3 1 -1 
                      7 1 5 -1 
                    ]
                    normalIndex [
                      1 2 0 -1 
                      1 3 2 -1 
                      5 4 6 -1 
                      5 6 7 -1 
                      11 8 9 -1 
                      11 10 8 -1 
                      15 13 12 -1 
                      15 12 14 -1 
                      19 16 17 -1 
                      19 18 16 -1 
                      23 21 20 -1 
                      23 20 22 -1 
                    ]
                  }
                }
              ]
            }
          ]
        }
        DEF __27 Transform {
          translation -0.002025 -0.00035 0
          children [
            DEF __28 Group {
              children [
                DEF __29 Shape {
                  appearance USE __12
                  geometry DEF __30 IndexedFaceSet {
                    solid FALSE
                    coord Coordinate {
                      point [
                        0 0 0,
                        0 0 0.0001,
                        0 0.0002 0,
                        0 0.0002 0.0001,
                        0.0004 0 0,
                        0.0004 0 0.0001,
                        0.0004 0.0002 0,
                        0.0004 0.0002 0.0001

                      ]
                    }
                    normal Normal {
                      vector [
                        -1 -0 0,
                        -1 -0 0,
                        -1 -0 0,
                        -1 -0 0,
                        1 0 -0,
                        1 0 -0,
                        1 0 -0,
                        1 0 -0,
                        0 -1 -0,
                        0 -1 -0,
                        0 -1 -0,
                        0 -1 -0,
                        -0 1 0,
                        -0 1 0,
                        -0 1 0,
                        -0 1 0,
                        -0 -0 -1,
                        -0 -0 -1,
                        -0 -0 -1,
                        -0 -0 -1,
                        0 0 1,
                        0 0 1,
                        0 0 1,
                        0 0 1

                      ]
                    }
                    coordIndex [
                      1 2 0 -1 
                      1 3 2 -1 
                      5 4 6 -1 
                      5 6 7 -1 
                      5 0 4 -1 
                      5 1 0 -1 
                      7 6 2 -1 
                      7 2 3 -1 
                      6 0 2 -1 
                      6 4 0 -1 
                      7 3 1 -1 
                      7 1 5 -1 
                    ]
                    normalIndex [
                      1 2 0 -1 
                      1 3 2 -1 
                      5 4 6 -1 
                      5 6 7 -1 
                      11 8 9 -1 
                      11 10 8 -1 
                      15 13 12 -1 
                      15 12 14 -1 
                      19 16 17 -1 
                      19 18 16 -1 
                      23 21 20 -1 
                      23 20 22 -1 
                    ]
                  }
                }
              ]
            }
          ]
        }
        DEF __31 Transform {
          translation -0.002025 -0.00085 0
          children [
            DEF __32 Group {
              children [
                DEF __33 Shape {
                  appearance USE __12
                  geometry DEF __34 IndexedFaceSet {
                    solid FALSE
                    coord Coordinate {
                      point [
                        0 0 0,
                        0 0 0.0001,
                        0 0.0002 0,
                        0 0.0002 0.0001,
                        0.0004 0 0,
                        0.0004 0 0.0001,
                        0.0004 0.0002 0,
                        0.0004 0.0002 0.0001

                      ]
                    }
                    normal Normal {
                      vector [
                        -1 -0 0,
                        -1 -0 0,
                        -1 -0 0,
                        -1 -0 0,
                        1 0 -0,
                        1 0 -0,
                        1 0 -0,
                        1 0 -0,
                        0 -1 -0,
                        0 -1 -0,
                        0 -1 -0,
                        0 -1 -0,
                        -0 1 0,
                        -0 1 0,
                        -0 1 0,
                        -0 1 0,
                        -0 -0 -1,
                        -0 -0 -1,
                        -0 -0 -1,
                        -0 -0 -1,
                        0 0 1,
                        0 0 1,
                        0 0 1,
                        0 0 1

                      ]
                    }
                    coordIndex [
                      1 2 0 -1 
                      1 3 2 -1 
                      5 4 6 -1 
                      5 6 7 -1 
                      5 0 4 -1 
                      5 1 0 -1 
                      7 6 2 -1 
                      7 2 3 -1 
                      6 0 2 -1 
                      6 4 0 -1 
                      7 3 1 -1 
                      7 1 5 -1 
                    ]
                    normalIndex [
                      1 2 0 -1 
                      1 3 2 -1 
                      5 4 6 -1 
                      5 6 7 -1 
                      11 8 9 -1 
                      11 10 8 -1 
                      15 13 12 -1 
                      15 12 14 -1 
                      19 16 17 -1 
                      19 18 16 -1 
                      23 21 20 -1 
                      23 20 22 -1 
                    ]
                  }
                }
              ]
            }
          ]
        }
        DEF __35 Transform {
          translation -0.002025 -0.00135 0
          children [
            DEF __36 Group {
              children [
                DEF __37 Shape {
                  appearance USE __12
                  geometry DEF __38 IndexedFaceSet {
                    solid FALSE
                    coord Coordinate {
                      point [
                        0 0 0,
                        0 0 0.0001,
                        0 0.0002 0,
                        0 0.0002 0.0001,
                        0.0004 0 0,
                        0.0004 0 0.0001,
                        0.0004 0.0002 0,
                        0.0004 0.0002 0.0001

                      ]
                    }
                    normal Normal {
                      vector [
                        -1 -0 0,
                        -1 -0 0,
                        -1 -0 0,
                        -1 -0 0,
                        1 0 -0,
                        1 0 -0,
                        1 0 -0,
                        1 0 -0,
                        0 -1 -0,
                        0 -1 -0,
                        0 -1 -0,
                        0 -1 -0,
                        -0 1 0,
                        -0 1 0,
                        -0 1 0,
                        -0 1 0,
                        -0 -0 -1,
                        -0 -0 -1,
                        -0 -0 -1,
                        -0 -0 -1,
                        0 0 1,
                        0 0 1,
                        0 0 1,
                        0 0 1

                      ]
                    }
                    coordIndex [
                      1 2 0 -1 
                      1 3 2 -1 
                      5 4 6 -1 
                      5 6 7 -1 
                      5 0 4 -1 
                      5 1 0 -1 
                      7 6 2 -1 
                      7 2 3 -1 
                      6 0 2 -1 
                      6 4 0 -1 
                      7 3 1 -1 
                      7 1 5 -1 
                    ]
                    normalIndex [
                      1 2 0 -1 
                      1 3 2 -1 
                      5 4 6 -1 
                      5 6 7 -1 
                      11 8 9 -1 
                      11 10 8 -1 
                      15 13 12 -1 
                      15 12 14 -1 
                      19 16 17 -1 
                      19 18 16 -1 
                      23 21 20 -1 
                      23 20 22 -1 
                    ]
                  }
                }
              ]
            }
          ]
        }
        DEF __39 Transform {
          translation -0.002025 -0.00185 0
          children [
            DEF __40 Group {
              children [
                DEF __41 Shape {
                  appearance USE __12
                  geometry DEF __42 IndexedFaceSet {
                    solid FALSE
                    coord Coordinate {
                      point [
                        0 0 0,
                        0 0 0.0001,
                        0 0.0002 0,
                        0 0.0002 0.0001,
                        0.0004 0 0,
                        0.0004 0 0.0001,
                        0.0004 0.0002 0,
                        0.0004 0.0002 0.0001

                      ]
                    }
                    normal Normal {
                      vector [
                        -1 -0 0,
                        -1 -0 0,
                        -1 -0 0,
                        -1 -0 0,
                        1 0 -0,
                        1 0 -0,
                        1 0 -0,
                        1 0 -0,
                        0 -1 -0,
                        0 -1 -0,
                        0 -1 -0,
                        0 -1 -0,
                        -0 1 0,
                        -0 1 0,
                        -0 1 0,
                        -0 1 0,
                        -0 -0 -1,
                        -0 -0 -1,
                        -0 -0 -1,
                        -0 -0 -1,
                        0 0 1,
                        0 0 1,
                        0 0 1,
                        0 0 1

                      ]
                    }
                    coordIndex [
                      1 2 0 -1 
                      1 3 2 -1 
                      5 4 6 -1 
                      5 6 7 -1 
                      5 0 4 -1 
                      5 1 0 -1 
                      7 6 2 -1 
                      7 2 3 -1 
                      6 0 2 -1 
                      6 4 0 -1 
                      7 3 1 -1 
                      7 1 5 -1 
                    ]
                    normalIndex [
                      1 2 0 -1 
                      1 3 2 -1 
                      5 4 6 -1 
                      5 6 7 -1 
                      11 8 9 -1 
                      11 10 8 -1 
                      15 13 12 -1 
                      15 12 14 -1 
                      19 16 17 -1 
                      19 18 16 -1 
                      23 21 20 -1 
                      23 20 22 -1 
                    ]
                  }
                }
              ]
            }
          ]
        }
        DEF __43 Transform {
          translation -0.00135 -0.002525 0
          children [
            DEF __44 Group {
              children [
                DEF __45 Shape {
                  appearance USE __12
                  geometry DEF __46 IndexedFaceSet {
                    solid FALSE
                    coord Coordinate {
                      point [
                        0 0 0,
                        0 0 0.0001,
                        0 0.0004 0,
                        0 0.0004 0.0001,
                        0.0002 0 0,
                        0.0002 0 0.0001,
                        0.0002 0.0004 0,
                        0.0002 0.0004 0.0001

                      ]
                    }
                    normal Normal {
                      vector [
                        -1 -0 0,
                        -1 -0 0,
                        -1 -0 0,
                        -1 -0 0,
                        1 0 -0,
                        1 0 -0,
                        1 0 -0,
                        1 0 -0,
                        0 -1 -0,
                        0 -1 -0,
                        0 -1 -0,
                        0 -1 -0,
                        -0 1 0,
                        -0 1 0,
                        -0 1 0,
                        -0 1 0,
                        -0 -0 -1,
                        -0 -0 -1,
                        -0 -0 -1,
                        -0 -0 -1,
                        0 0 1,
                        0 0 1,
                        0 0 1,
                        0 0 1

                      ]
                    }
                    coordIndex [
                      0 3 2 -1 
                      1 3 0 -1 
                      4 6 7 -1 
                      5 4 7 -1 
                      5 0 4 -1 
                      5 1 0 -1 
                      7 6 2 -1 
                      7 2 3 -1 
                      6 0 2 -1 
                      6 4 0 -1 
                      7 3 1 -1 
                      7 1 5 -1 
                    ]
                    normalIndex [
                      0 3 2 -1 
                      1 3 0 -1 
                      4 6 7 -1 
                      5 4 7 -1 
                      11 8 9 -1 
                      11 10 8 -1 
                      15 13 12 -1 
                      15 12 14 -1 
                      19 16 17 -1 
                      19 18 16 -1 
                      23 21 20 -1 
                      23 20 22 -1 
                    ]
                  }
                }
              ]
            }
          ]
        }
        DEF __47 Transform {
          translation -0.00085 -0.002525 0
          children [
            DEF __48 Group {
              children [
                DEF __49 Shape {
                  appearance USE __12
                  geometry DEF __50 IndexedFaceSet {
                    solid FALSE
                    coord Coordinate {
                      point [
                        0 0 0,
                        0 0 0.0001,
                        0 0.0004 0,
                        0 0.0004 0.0001,
                        0.0002 0 0,
                        0.0002 0 0.0001,
                        0.0002 0.0004 0,
                        0.0002 0.0004 0.0001

                      ]
                    }
                    normal Normal {
                      vector [
                        -1 -0 0,
                        -1 -0 0,
                        -1 -0 0,
                        -1 -0 0,
                        1 0 -0,
                        1 0 -0,
                        1 0 -0,
                        1 0 -0,
                        0 -1 -0,
                        0 -1 -0,
                        0 -1 -0,
                        0 -1 -0,
                        -0 1 0,
                        -0 1 0,
                        -0 1 0,
                        -0 1 0,
                        -0 -0 -1,
                        -0 -0 -1,
                        -0 -0 -1,
                        -0 -0 -1,
                        0 0 1,
                        0 0 1,
                        0 0 1,
                        0 0 1

                      ]
                    }
                    coordIndex [
                      0 3 2 -1 
                      1 3 0 -1 
                      4 6 7 -1 
                      5 4 7 -1 
                      5 0 4 -1 
                      5 1 0 -1 
                      7 6 2 -1 
                      7 2 3 -1 
                      6 0 2 -1 
                      6 4 0 -1 
                      7 3 1 -1 
                      7 1 5 -1 
                    ]
                    normalIndex [
                      0 3 2 -1 
                      1 3 0 -1 
                      4 6 7 -1 
                      5 4 7 -1 
                      11 8 9 -1 
                      11 10 8 -1 
                      15 13 12 -1 
                      15 12 14 -1 
                      19 16 17 -1 
                      19 18 16 -1 
                      23 21 20 -1 
                      23 20 22 -1 
                    ]
                  }
                }
              ]
            }
          ]
        }
        DEF __51 Transform {
          translation -0.00035 -0.002525 0
          children [
            DEF __52 Group {
              children [
                DEF __53 Shape {
                  appearance USE __12
                  geometry DEF __54 IndexedFaceSet {
                    solid FALSE
                    coord Coordinate {
                      point [
                        0 0 0,
                        0 0 0.0001,
                        0 0.0004 0,
                        0 0.0004 0.0001,
                        0.0002 0 0,
                        0.0002 0 0.0001,
                        0.0002 0.0004 0,
                        0.0002 0.0004 0.0001

                      ]
                    }
                    normal Normal {
                      vector [
                        -1 -0 0,
                        -1 -0 0,
                        -1 -0 0,
                        -1 -0 0,
                        1 0 -0,
                        1 0 -0,
                        1 0 -0,
                        1 0 -0,
                        0 -1 -0,
                        0 -1 -0,
                        0 -1 -0,
                        0 -1 -0,
                        -0 1 0,
                        -0 1 0,
                        -0 1 0,
                        -0 1 0,
                        -0 -0 -1,
                        -0 -0 -1,
                        -0 -0 -1,
                        -0 -0 -1,
                        0 0 1,
                        0 0 1,
                        0 0 1,
                        0 0 1

                      ]
                    }
                    coordIndex [
                      0 3 2 -1 
                      1 3 0 -1 
                      4 6 7 -1 
                      5 4 7 -1 
                      5 0 4 -1 
                      5 1 0 -1 
                      7 6 2 -1 
                      7 2 3 -1 
                      6 0 2 -1 
                      6 4 0 -1 
                      7 3 1 -1 
                      7 1 5 -1 
                    ]
                    normalIndex [
                      0 3 2 -1 
                      1 3 0 -1 
                      4 6 7 -1 
                      5 4 7 -1 
                      11 8 9 -1 
                      11 10 8 -1 
                      15 13 12 -1 
                      15 12 14 -1 
                      19 16 17 -1 
                      19 18 16 -1 
                      23 21 20 -1 
                      23 20 22 -1 
                    ]
                  }
                }
              ]
            }
          ]
        }
        DEF __55 Transform {
          translation 0.00015 -0.002525 0
          children [
            DEF __56 Group {
              children [
                DEF __57 Shape {
                  appearance USE __12
                  geometry DEF __58 IndexedFaceSet {
                    solid FALSE
                    coord Coordinate {
                      point [
                        0 0 0,
                        0 0 0.0001,
                        0 0.0004 0,
                        0 0.0004 0.0001,
                        0.0002 0 0,
                        0.0002 0 0.0001,
                        0.0002 0.0004 0,
                        0.0002 0.0004 0.0001

                      ]
                    }
                    normal Normal {
                      vector [
                        -1 -0 0,
                        -1 -0 0,
                        -1 -0 0,
                        -1 -0 0,
                        1 0 -0,
                        1 0 -0,
                        1 0 -0,
                        1 0 -0,
                        0 -1 -0,
                        0 -1 -0,
                        0 -1 -0,
                        0 -1 -0,
                        -0 1 0,
                        -0 1 0,
                        -0 1 0,
                        -0 1 0,
                        -0 -0 -1,
                        -0 -0 -1,
                        -0 -0 -1,
                        -0 -0 -1,
                        0 0 1,
                        0 0 1,
                        0 0 1,
                        0 0 1

                      ]
                    }
                    coordIndex [
                      0 3 2 -1 
                      1 3 0 -1 
                      4 6 7 -1 
                      5 4 7 -1 
                      5 0 4 -1 
                      5 1 0 -1 
                      7 6 2 -1 
                      7 2 3 -1 
                      6 0 2 -1 
                      6 4 0 -1 
                      7 3 1 -1 
                      7 1 5 -1 
                    ]
                    normalIndex [
                      0 3 2 -1 
                      1 3 0 -1 
                      4 6 7 -1 
                      5 4 7 -1 
                      11 8 9 -1 
                      11 10 8 -1 
                      15 13 12 -1 
                      15 12 14 -1 
                      19 16 17 -1 
                      19 18 16 -1 
                      23 21 20 -1 
                      23 20 22 -1 
                    ]
                  }
                }
              ]
            }
          ]
        }
        DEF __59 Transform {
          translation 0.00065 -0.002525 0
          children [
            DEF __60 Group {
              children [
                DEF __61 Shape {
                  appearance USE __12
                  geometry DEF __62 IndexedFaceSet {
                    solid FALSE
                    coord Coordinate {
                      point [
                        0 0 0,
                        0 0 0.0001,
                        0 0.0004 0,
                        0 0.0004 0.0001,
                        0.0002 0 0,
                        0.0002 0 0.0001,
                        0.0002 0.0004 0,
                        0.0002 0.0004 0.0001

                      ]
                    }
                    normal Normal {
                      vector [
                        -1 -0 0,
                        -1 -0 0,
                        -1 -0 0,
                        -1 -0 0,
                        1 0 -0,
                        1 0 -0,
                        1 0 -0,
                        1 0 -0,
                        0 -1 -0,
                        0 -1 -0,
                        0 -1 -0,
                        0 -1 -0,
                        -0 1 0,
                        -0 1 0,
                        -0 1 0,
                        -0 1 0,
                        -0 -0 -1,
                        -0 -0 -1,
                        -0 -0 -1,
                        -0 -0 -1,
                        0 0 1,
                        0 0 1,
                        0 0 1,
                        0 0 1

                      ]
                    }
                    coordIndex [
                      0 3 2 -1 
                      1 3 0 -1 
                      4 6 7 -1 
                      5 4 7 -1 
                      5 0 4 -1 
                      5 1 0 -1 
                      7 6 2 -1 
                      7 2 3 -1 
                      6 0 2 -1 
                      6 4 0 -1 
                      7 3 1 -1 
                      7 1 5 -1 
                    ]
                    normalIndex [
                      0 3 2 -1 
                      1 3 0 -1 
                      4 6 7 -1 
                      5 4 7 -1 
                      11 8 9 -1 
                      11 10 8 -1 
                      15 13 12 -1 
                      15 12 14 -1 
                      19 16 17 -1 
                      19 18 16 -1 
                      23 21 20 -1 
                      23 20 22 -1 
                    ]
                  }
                }
              ]
            }
          ]
        }
        DEF __63 Transform {
          translation 0.00115 -0.002525 0
          children [
            DEF __64 Group {
              children [
                DEF __65 Shape {
                  appearance USE __12
                  geometry DEF __66 IndexedFaceSet {
                    solid FALSE
                    coord Coordinate {
                      point [
                        0 0 0,
                        0 0 0.0001,
                        0 0.0004 0,
                        0 0.0004 0.0001,
                        0.0002 0 0,
                        0.0002 0 0.0001,
                        0.0002 0.0004 0,
                        0.0002 0.0004 0.0001

                      ]
                    }
                    normal Normal {
                      vector [
                        -1 -0 0,
                        -1 -0 0,
                        -1 -0 0,
                        -1 -0 0,
                        1 0 -0,
                        1 0 -0,
                        1 0 -0,
                        1 0 -0,
                        0 -1 -0,
                        0 -1 -0,
                        0 -1 -0,
                        0 -1 -0,
                        -0 1 0,
                        -0 1 0,
                        -0 1 0,
                        -0 1 0,
                        -0 -0 -1,
                        -0 -0 -1,
                        -0 -0 -1,
                        -0 -0 -1,
                        0 0 1,
                        0 0 1,
                        0 0 1,
                        0 0 1

                      ]
                    }
                    coordIndex [
                      0 3 2 -1 
                      1 3 0 -1 
                      4 6 7 -1 
                      5 4 7 -1 
                      5 0 4 -1 
                      5 1 0 -1 
                      7 6 2 -1 
                      7 2 3 -1 
                      6 0 2 -1 
                      6 4 0 -1 
                      7 3 1 -1 
                      7 1 5 -1 
                    ]
                    normalIndex [
                      0 3 2 -1 
                      1 3 0 -1 
                      4 6 7 -1 
                      5 4 7 -1 
                      11 8 9 -1 
                      11 10 8 -1 
                      15 13 12 -1 
                      15 12 14 -1 
                      19 16 17 -1 
                      19 18 16 -1 
                      23 21 20 -1 
                      23 20 22 -1 
                    ]
                  }
                }
              ]
            }
          ]
        }
        DEF __67 Transform {
          translation 0.001625 -0.00185 0
          children [
            DEF __68 Group {
              children [
                DEF __69 Shape {
                  appearance USE __12
                  geometry DEF __70 IndexedFaceSet {
                    solid FALSE
                    coord Coordinate {
                      point [
                        0 0 0,
                        0 0 0.0001,
                        0 0.0002 0,
                        0 0.0002 0.0001,
                        0.0004 0 0,
                        0.0004 0 0.0001,
                        0.0004 0.0002 0,
                        0.0004 0.0002 0.0001

                      ]
                    }
                    normal Normal {
                      vector [
                        -1 -0 0,
                        -1 -0 0,
                        -1 -0 0,
                        -1 -0 0,
                        1 0 -0,
                        1 0 -0,
                        1 0 -0,
                        1 0 -0,
                        0 -1 -0,
                        0 -1 -0,
                        0 -1 -0,
                        0 -1 -0,
                        -0 1 0,
                        -0 1 0,
                        -0 1 0,
                        -0 1 0,
                        -0 -0 -1,
                        -0 -0 -1,
                        -0 -0 -1,
                        -0 -0 -1,
                        0 0 1,
                        0 0 1,
                        0 0 1,
                        0 0 1

                      ]
                    }
                    coordIndex [
                      1 2 0 -1 
                      1 3 2 -1 
                      5 4 6 -1 
                      5 6 7 -1 
                      5 0 4 -1 
                      5 1 0 -1 
                      7 6 2 -1 
                      7 2 3 -1 
                      6 0 2 -1 
                      6 4 0 -1 
                      7 3 1 -1 
                      7 1 5 -1 
                    ]
                    normalIndex [
                      1 2 0 -1 
                      1 3 2 -1 
                      5 4 6 -1 
                      5 6 7 -1 
                      11 8 9 -1 
                      11 10 8 -1 
                      15 13 12 -1 
                      15 12 14 -1 
                      19 16 17 -1 
                      19 18 16 -1 
                      23 21 20 -1 
                      23 20 22 -1 
                    ]
                  }
                }
              ]
            }
          ]
        }
        DEF __71 Transform {
          translation 0.001625 -0.00135 0
          children [
            DEF __72 Group {
              children [
                DEF __73 Shape {
                  appearance USE __12
                  geometry DEF __74 IndexedFaceSet {
                    solid FALSE
                    coord Coordinate {
                      point [
                        0 0 0,
                        0 0 0.0001,
                        0 0.0002 0,
                        0 0.0002 0.0001,
                        0.0004 0 0,
                        0.0004 0 0.0001,
                        0.0004 0.0002 0,
                        0.0004 0.0002 0.0001

                      ]
                    }
                    normal Normal {
                      vector [
                        -1 -0 0,
                        -1 -0 0,
                        -1 -0 0,
                        -1 -0 0,
                        1 0 -0,
                        1 0 -0,
                        1 0 -0,
                        1 0 -0,
                        0 -1 -0,
                        0 -1 -0,
                        0 -1 -0,
                        0 -1 -0,
                        -0 1 0,
                        -0 1 0,
                        -0 1 0,
                        -0 1 0,
                        -0 -0 -1,
                        -0 -0 -1,
                        -0 -0 -1,
                        -0 -0 -1,
                        0 0 1,
                        0 0 1,
                        0 0 1,
                        0 0 1

                      ]
                    }
                    coordIndex [
                      1 2 0 -1 
                      1 3 2 -1 
                      5 4 6 -1 
                      5 6 7 -1 
                      5 0 4 -1 
                      5 1 0 -1 
                      7 6 2 -1 
                      7 2 3 -1 
                      6 0 2 -1 
                      6 4 0 -1 
                      7 3 1 -1 
                      7 1 5 -1 
                    ]
                    normalIndex [
                      1 2 0 -1 
                      1 3 2 -1 
                      5 4 6 -1 
                      5 6 7 -1 
                      11 8 9 -1 
                      11 10 8 -1 
                      15 13 12 -1 
                      15 12 14 -1 
                      19 16 17 -1 
                      19 18 16 -1 
                      23 21 20 -1 
                      23 20 22 -1 
                    ]
                  }
                }
              ]
            }
          ]
        }
        DEF __75 Transform {
          translation 0.001625 -0.00085 0
          children [
            DEF __76 Group {
              children [
                DEF __77 Shape {
                  appearance USE __12
                  geometry DEF __78 IndexedFaceSet {
                    solid FALSE
                    coord Coordinate {
                      point [
                        0 0 0,
                        0 0 0.0001,
                        0 0.0002 0,
                        0 0.0002 0.0001,
                        0.0004 0 0,
                        0.0004 0 0.0001,
                        0.0004 0.0002 0,
                        0.0004 0.0002 0.0001

                      ]
                    }
                    normal Normal {
                      vector [
                        -1 -0 0,
                        -1 -0 0,
                        -1 -0 0,
                        -1 -0 0,
                        1 0 -0,
                        1 0 -0,
                        1 0 -0,
                        1 0 -0,
                        0 -1 -0,
                        0 -1 -0,
                        0 -1 -0,
                        0 -1 -0,
                        -0 1 0,
                        -0 1 0,
                        -0 1 0,
                        -0 1 0,
                        -0 -0 -1,
                        -0 -0 -1,
                        -0 -0 -1,
                        -0 -0 -1,
                        0 0 1,
                        0 0 1,
                        0 0 1,
                        0 0 1

                      ]
                    }
                    coordIndex [
                      1 2 0 -1 
                      1 3 2 -1 
                      5 4 6 -1 
                      5 6 7 -1 
                      5 0 4 -1 
                      5 1 0 -1 
                      7 6 2 -1 
                      7 2 3 -1 
                      6 0 2 -1 
                      6 4 0 -1 
                      7 3 1 -1 
                      7 1 5 -1 
                    ]
                    normalIndex [
                      1 2 0 -1 
                      1 3 2 -1 
                      5 4 6 -1 
                      5 6 7 -1 
                      11 8 9 -1 
                      11 10 8 -1 
                      15 13 12 -1 
                      15 12 14 -1 
                      19 16 17 -1 
                      19 18 16 -1 
                      23 21 20 -1 
                      23 20 22 -1 
                    ]
                  }
                }
              ]
            }
          ]
        }
        DEF __79 Transform {
          translation 0.001625 -0.00035 0
          children [
            DEF __80 Group {
              children [
                DEF __81 Shape {
                  appearance USE __12
                  geometry DEF __82 IndexedFaceSet {
                    solid FALSE
                    coord Coordinate {
                      point [
                        0 0 0,
                        0 0 0.0001,
                        0 0.0002 0,
                        0 0.0002 0.0001,
                        0.0004 0 0,
                        0.0004 0 0.0001,
                        0.0004 0.0002 0,
                        0.0004 0.0002 0.0001

                      ]
                    }
                    normal Normal {
                      vector [
                        -1 -0 0,
                        -1 -0 0,
                        -1 -0 0,
                        -1 -0 0,
                        1 0 -0,
                        1 0 -0,
                        1 0 -0,
                        1 0 -0,
                        0 -1 -0,
                        0 -1 -0,
                        0 -1 -0,
                        0 -1 -0,
                        -0 1 0,
                        -0 1 0,
                        -0 1 0,
                        -0 1 0,
                        -0 -0 -1,
                        -0 -0 -1,
                        -0 -0 -1,
                        -0 -0 -1,
                        0 0 1,
                        0 0 1,
                        0 0 1,
                        0 0 1

                      ]
                    }
                    coordIndex [
                      1 2 0 -1 
                      1 3 2 -1 
                      5 4 6 -1 
                      5 6 7 -1 
                      5 0 4 -1 
                      5 1 0 -1 
                      7 6 2 -1 
                      7 2 3 -1 
                      6 0 2 -1 
                      6 4 0 -1 
                      7 3 1 -1 
                      7 1 5 -1 
                    ]
                    normalIndex [
                      1 2 0 -1 
                      1 3 2 -1 
                      5 4 6 -1 
                      5 6 7 -1 
                      11 8 9 -1 
                      11 10 8 -1 
                      15 13 12 -1 
                      15 12 14 -1 
                      19 16 17 -1 
                      19 18 16 -1 
                      23 21 20 -1 
                      23 20 22 -1 
                    ]
                  }
                }
              ]
            }
          ]
        }
        DEF __83 Transform {
          translation 0.001625 0.00015 0
          children [
            DEF __84 Group {
              children [
                DEF __85 Shape {
                  appearance USE __12
                  geometry DEF __86 IndexedFaceSet {
                    solid FALSE
                    coord Coordinate {
                      point [
                        0 0 0,
                        0 0 0.0001,
                        0 0.0002 0,
                        0 0.0002 0.0001,
                        0.0004 0 0,
                        0.0004 0 0.0001,
                        0.0004 0.0002 0,
                        0.0004 0.0002 0.0001

                      ]
                    }
                    normal Normal {
                      vector [
                        -1 -0 0,
                        -1 -0 0,
                        -1 -0 0,
                        -1 -0 0,
                        1 0 -0,
                        1 0 -0,
                        1 0 -0,
                        1 0 -0,
                        0 -1 -0,
                        0 -1 -0,
                        0 -1 -0,
                        0 -1 -0,
                        -0 1 0,
                        -0 1 0,
                        -0 1 0,
                        -0 1 0,
                        -0 -0 -1,
                        -0 -0 -1,
                        -0 -0 -1,
                        -0 -0 -1,
                        0 0 1,
                        0 0 1,
                        0 0 1,
                        0 0 1

                      ]
                    }
                    coordIndex [
                      1 2 0 -1 
                      1 3 2 -1 
                      5 4 6 -1 
                      5 6 7 -1 
                      5 0 4 -1 
                      5 1 0 -1 
                      7 6 2 -1 
                      7 2 3 -1 
                      6 0 2 -1 
                      6 4 0 -1 
                      7 3 1 -1 
                      7 1 5 -1 
                    ]
                    normalIndex [
                      1 2 0 -1 
                      1 3 2 -1 
                      5 4 6 -1 
                      5 6 7 -1 
                      11 8 9 -1 
                      11 10 8 -1 
                      15 13 12 -1 
                      15 12 14 -1 
                      19 16 17 -1 
                      19 18 16 -1 
                      23 21 20 -1 
                      23 20 22 -1 
                    ]
                  }
                }
              ]
            }
          ]
        }
        DEF __87 Transform {
          translation 0.001625 0.00065 0
          children [
            DEF __88 Group {
              children [
                DEF __89 Shape {
                  appearance USE __12
                  geometry DEF __90 IndexedFaceSet {
                    solid FALSE
                    coord Coordinate {
                      point [
                        0 0 0,
                        0 0 0.0001,
                        0 0.0002 0,
                        0 0.0002 0.0001,
                        0.0004 0 0,
                        0.0004 0 0.0001,
                        0.0004 0.0002 0,
                        0.0004 0.0002 0.0001

                      ]
                    }
                    normal Normal {
                      vector [
                        -1 -0 0,
                        -1 -0 0,
                        -1 -0 0,
                        -1 -0 0,
                        1 0 -0,
                        1 0 -0,
                        1 0 -0,
                        1 0 -0,
                        0 -1 -0,
                        0 -1 -0,
                        0 -1 -0,
                        0 -1 -0,
                        -0 1 0,
                        -0 1 0,
                        -0 1 0,
                        -0 1 0,
                        -0 -0 -1,
                        -0 -0 -1,
                        -0 -0 -1,
                        -0 -0 -1,
                        0 0 1,
                        0 0 1,
                        0 0 1,
                        0 0 1

                      ]
                    }
                    coordIndex [
                      1 2 0 -1 
                      1 3 2 -1 
                      5 4 6 -1 
                      5 6 7 -1 
                      5 0 4 -1 
                      5 1 0 -1 
                      7 6 2 -1 
                      7 2 3 -1 
                      6 0 2 -1 
                      6 4 0 -1 
                      7 3 1 -1 
                      7 1 5 -1 
                    ]
                    normalIndex [
                      1 2 0 -1 
                      1 3 2 -1 
                      5 4 6 -1 
                      5 6 7 -1 
                      11 8 9 -1 
                      11 10 8 -1 
                      15 13 12 -1 
                      15 12 14 -1 
                      19 16 17 -1 
                      19 18 16 -1 
                      23 21 20 -1 
                      23 20 22 -1 
                    ]
                  }
                }
              ]
            }
          ]
        }
        DEF __91 Transform {
          translation 0.001625 0.00115 0
          children [
            DEF __92 Group {
              children [
                DEF __93 Shape {
                  appearance USE __12
                  geometry DEF __94 IndexedFaceSet {
                    solid FALSE
                    coord Coordinate {
                      point [
                        0 0 0,
                        0 0 0.0001,
                        0 0.0002 0,
                        0 0.0002 0.0001,
                        0.0004 0 0,
                        0.0004 0 0.0001,
                        0.0004 0.0002 0,
                        0.0004 0.0002 0.0001

                      ]
                    }
                    normal Normal {
                      vector [
                        -1 -0 0,
                        -1 -0 0,
                        -1 -0 0,
                        -1 -0 0,
                        1 0 -0,
                        1 0 -0,
                        1 0 -0,
                        1 0 -0,
                        0 -1 -0,
                        0 -1 -0,
                        0 -1 -0,
                        0 -1 -0,
                        -0 1 0,
                        -0 1 0,
                        -0 1 0,
                        -0 1 0,
                        -0 -0 -1,
                        -0 -0 -1,
                        -0 -0 -1,
                        -0 -0 -1,
                        0 0 1,
                        0 0 1,
                        0 0 1,
                        0 0 1

                      ]
                    }
                    coordIndex [
                      1 2 0 -1 
                      1 3 2 -1 
                      5 4 6 -1 
                      5 6 7 -1 
                      5 0 4 -1 
                      5 1 0 -1 
                      7 6 2 -1 
                      7 2 3 -1 
                      6 0 2 -1 
                      6 4 0 -1 
                      7 3 1 -1 
                      7 1 5 -1 
                    ]
                    normalIndex [
                      1 2 0 -1 
                      1 3 2 -1 
                      5 4 6 -1 
                      5 6 7 -1 
                      11 8 9 -1 
                      11 10 8 -1 
                      15 13 12 -1 
                      15 12 14 -1 
                      19 16 17 -1 
                      19 18 16 -1 
                      23 21 20 -1 
                      23 20 22 -1 
                    ]
                  }
                }
              ]
            }
          ]
        }
        DEF __95 Transform {
          translation 0.001625 0.00165 0
          children [
            DEF __96 Group {
              children [
                DEF __97 Shape {
                  appearance USE __12
                  geometry DEF __98 IndexedFaceSet {
                    solid FALSE
                    coord Coordinate {
                      point [
                        0 0 0,
                        0 0 0.0001,
                        0 0.0002 0,
                        0 0.0002 0.0001,
                        0.0004 0 0,
                        0.0004 0 0.0001,
                        0.0004 0.0002 0,
                        0.0004 0.0002 0.0001

                      ]
                    }
                    normal Normal {
                      vector [
                        -1 -0 0,
                        -1 -0 0,
                        -1 -0 0,
                        -1 -0 0,
                        1 0 -0,
                        1 0 -0,
                        1 0 -0,
                        1 0 -0,
                        0 -1 -0,
                        0 -1 -0,
                        0 -1 -0,
                        0 -1 -0,
                        -0 1 0,
                        -0 1 0,
                        -0 1 0,
                        -0 1 0,
                        -0 -0 -1,
                        -0 -0 -1,
                        -0 -0 -1,
                        -0 -0 -1,
                        0 0 1,
                        0 0 1,
                        0 0 1,
                        0 0 1

                      ]
                    }
                    coordIndex [
                      1 2 0 -1 
                      1 3 2 -1 
                      5 4 6 -1 
                      5 6 7 -1 
                      5 0 4 -1 
                      5 1 0 -1 
                      7 6 2 -1 
                      7 2 3 -1 
                      6 0 2 -1 
                      6 4 0 -1 
                      7 3 1 -1 
                      7 1 5 -1 
                    ]
                    normalIndex [
                      1 2 0 -1 
                      1 3 2 -1 
                      5 4 6 -1 
                      5 6 7 -1 
                      11 8 9 -1 
                      11 10 8 -1 
                      15 13 12 -1 
                      15 12 14 -1 
                      19 16 17 -1 
                      19 18 16 -1 
                      23 21 20 -1 
                      23 20 22 -1 
                    ]
                  }
                }
              ]
            }
          ]
        }
        DEF __99 Transform {
          translation 0.00115 0.002125 0
          children [
            DEF __100 Group {
              children [
                DEF __101 Shape {
                  appearance USE __12
                  geometry DEF __102 IndexedFaceSet {
                    solid FALSE
                    coord Coordinate {
                      point [
                        0 0 0,
                        0 0 0.0001,
                        0 0.0004 0,
                        0 0.0004 0.0001,
                        0.0002 0 0,
                        0.0002 0 0.0001,
                        0.0002 0.0004 0,
                        0.0002 0.0004 0.0001

                      ]
                    }
                    normal Normal {
                      vector [
                        -1 -0 0,
                        -1 -0 0,
                        -1 -0 0,
                        -1 -0 0,
                        1 0 -0,
                        1 0 -0,
                        1 0 -0,
                        1 0 -0,
                        0 -1 -0,
                        0 -1 -0,
                        0 -1 -0,
                        0 -1 -0,
                        -0 1 0,
                        -0 1 0,
                        -0 1 0,
                        -0 1 0,
                        -0 -0 -1,
                        -0 -0 -1,
                        -0 -0 -1,
                        -0 -0 -1,
                        0 0 1,
                        0 0 1,
                        0 0 1,
                        0 0 1

                      ]
                    }
                    coordIndex [
                      0 3 2 -1 
                      1 3 0 -1 
                      4 6 7 -1 
                      5 4 7 -1 
                      5 0 4 -1 
                      5 1 0 -1 
                      7 6 2 -1 
                      7 2 3 -1 
                      6 0 2 -1 
                      6 4 0 -1 
                      7 3 1 -1 
                      7 1 5 -1 
                    ]
                    normalIndex [
                      0 3 2 -1 
                      1 3 0 -1 
                      4 6 7 -1 
                      5 4 7 -1 
                      11 8 9 -1 
                      11 10 8 -1 
                      15 13 12 -1 
                      15 12 14 -1 
                      19 16 17 -1 
                      19 18 16 -1 
                      23 21 20 -1 
                      23 20 22 -1 
                    ]
                  }
                }
              ]
            }
          ]
        }
        DEF __103 Transform {
          translation 0.00065 0.002125 0
          children [
            DEF __104 Group {
              children [
                DEF __105 Shape {
                  appearance USE __12
                  geometry DEF __106 IndexedFaceSet {
                    solid FALSE
                    coord Coordinate {
                      point [
                        0 0 0,
                        0 0 0.0001,
                        0 0.0004 0,
                        0 0.0004 0.0001,
                        0.0002 0 0,
                        0.0002 0 0.0001,
                        0.0002 0.0004 0,
                        0.0002 0.0004 0.0001

                      ]
                    }
                    normal Normal {
                      vector [
                        -1 -0 0,
                        -1 -0 0,
                        -1 -0 0,
                        -1 -0 0,
                        1 0 -0,
                        1 0 -0,
                        1 0 -0,
                        1 0 -0,
                        0 -1 -0,
                        0 -1 -0,
                        0 -1 -0,
                        0 -1 -0,
                        -0 1 0,
                        -0 1 0,
                        -0 1 0,
                        -0 1 0,
                        -0 -0 -1,
                        -0 -0 -1,
                        -0 -0 -1,
                        -0 -0 -1,
                        0 0 1,
                        0 0 1,
                        0 0 1,
                        0 0 1

                      ]
                    }
                    coordIndex [
                      0 3 2 -1 
                      1 3 0 -1 
                      4 6 7 -1 
                      5 4 7 -1 
                      5 0 4 -1 
                      5 1 0 -1 
                      7 6 2 -1 
                      7 2 3 -1 
                      6 0 2 -1 
                      6 4 0 -1 
                      7 3 1 -1 
                      7 1 5 -1 
                    ]
                    normalIndex [
                      0 3 2 -1 
                      1 3 0 -1 
                      4 6 7 -1 
                      5 4 7 -1 
                      11 8 9 -1 
                      11 10 8 -1 
                      15 13 12 -1 
                      15 12 14 -1 
                      19 16 17 -1 
                      19 18 16 -1 
                      23 21 20 -1 
                      23 20 22 -1 
                    ]
                  }
                }
              ]
            }
          ]
        }
        DEF __107 Transform {
          translation 0.00015 0.002125 0
          children [
            DEF __108 Group {
              children [
                DEF __109 Shape {
                  appearance USE __12
                  geometry DEF __110 IndexedFaceSet {
                    solid FALSE
                    coord Coordinate {
                      point [
                        0 0 0,
                        0 0 0.0001,
                        0 0.0004 0,
                        0 0.0004 0.0001,
                        0.0002 0 0,
                        0.0002 0 0.0001,
                        0.0002 0.0004 0,
                        0.0002 0.0004 0.0001

                      ]
                    }
                    normal Normal {
                      vector [
                        -1 -0 0,
                        -1 -0 0,
                        -1 -0 0,
                        -1 -0 0,
                        1 0 -0,
                        1 0 -0,
                        1 0 -0,
                        1 0 -0,
                        0 -1 -0,
                        0 -1 -0,
                        0 -1 -0,
                        0 -1 -0,
                        -0 1 0,
                        -0 1 0,
                        -0 1 0,
                        -0 1 0,
                        -0 -0 -1,
                        -0 -0 -1,
                        -0 -0 -1,
                        -0 -0 -1,
                        0 0 1,
                        0 0 1,
                        0 0 1,
                        0 0 1

                      ]
                    }
                    coordIndex [
                      0 3 2 -1 
                      1 3 0 -1 
                      4 6 7 -1 
                      5 4 7 -1 
                      5 0 4 -1 
                      5 1 0 -1 
                      7 6 2 -1 
                      7 2 3 -1 
                      6 0 2 -1 
                      6 4 0 -1 
                      7 3 1 -1 
                      7 1 5 -1 
                    ]
                    normalIndex [
                      0 3 2 -1 
                      1 3 0 -1 
                      4 6 7 -1 
                      5 4 7 -1 
                      11 8 9 -1 
                      11 10 8 -1 
                      15 13 12 -1 
                      15 12 14 -1 
                      19 16 17 -1 
                      19 18 16 -1 
                      23 21 20 -1 
                      23 20 22 -1 
                    ]
                  }
                }
              ]
            }
          ]
        }
        DEF __111 Transform {
          translation -0.00035 0.002125 0
          children [
            DEF __112 Group {
              children [
                DEF __113 Shape {
                  appearance USE __12
                  geometry DEF __114 IndexedFaceSet {
                    solid FALSE
                    coord Coordinate {
                      point [
                        0 0 0,
                        0 0 0.0001,
                        0 0.0004 0,
                        0 0.0004 0.0001,
                        0.0002 0 0,
                        0.0002 0 0.0001,
                        0.0002 0.0004 0,
                        0.0002 0.0004 0.0001

                      ]
                    }
                    normal Normal {
                      vector [
                        -1 -0 0,
                        -1 -0 0,
                        -1 -0 0,
                        -1 -0 0,
                        1 0 -0,
                        1 0 -0,
                        1 0 -0,
                        1 0 -0,
                        0 -1 -0,
                        0 -1 -0,
                        0 -1 -0,
                        0 -1 -0,
                        -0 1 0,
                        -0 1 0,
                        -0 1 0,
                        -0 1 0,
                        -0 -0 -1,
                        -0 -0 -1,
                        -0 -0 -1,
                        -0 -0 -1,
                        0 0 1,
                        0 0 1,
                        0 0 1,
                        0 0 1

                      ]
                    }
                    coordIndex [
                      0 3 2 -1 
                      1 3 0 -1 
                      4 6 7 -1 
                      5 4 7 -1 
                      5 0 4 -1 
                      5 1 0 -1 
                      7 6 2 -1 
                      7 2 3 -1 
                      6 0 2 -1 
                      6 4 0 -1 
                      7 3 1 -1 
                      7 1 5 -1 
                    ]
                    normalIndex [
                      0 3 2 -1 
                      1 3 0 -1 
                      4 6 7 -1 
                      5 4 7 -1 
                      11 8 9 -1 
                      11 10 8 -1 
                      15 13 12 -1 
                      15 12 14 -1 
                      19 16 17 -1 
                      19 18 16 -1 
                      23 21 20 -1 
                      23 20 22 -1 
                    ]
                  }
                }
              ]
            }
          ]
        }
        DEF __115 Transform {
          translation -0.00085 0.002125 0
          children [
            DEF __116 Group {
              children [
                DEF __117 Shape {
                  appearance USE __12
                  geometry DEF __118 IndexedFaceSet {
                    solid FALSE
                    coord Coordinate {
                      point [
                        0 0 0,
                        0 0 0.0001,
                        0 0.0004 0,
                        0 0.0004 0.0001,
                        0.0002 0 0,
                        0.0002 0 0.0001,
                        0.0002 0.0004 0,
                        0.0002 0.0004 0.0001

                      ]
                    }
                    normal Normal {
                      vector [
                        -1 -0 0,
                        -1 -0 0,
                        -1 -0 0,
                        -1 -0 0,
                        1 0 -0,
                        1 0 -0,
                        1 0 -0,
                        1 0 -0,
                        0 -1 -0,
                        0 -1 -0,
                        0 -1 -0,
                        0 -1 -0,
                        -0 1 0,
                        -0 1 0,
                        -0 1 0,
                        -0 1 0,
                        -0 -0 -1,
                        -0 -0 -1,
                        -0 -0 -1,
                        -0 -0 -1,
                        0 0 1,
                        0 0 1,
                        0 0 1,
                        0 0 1

                      ]
                    }
                    coordIndex [
                      0 3 2 -1 
                      1 3 0 -1 
                      4 6 7 -1 
                      5 4 7 -1 
                      5 0 4 -1 
                      5 1 0 -1 
                      7 6 2 -1 
                      7 2 3 -1 
                      6 0 2 -1 
                      6 4 0 -1 
                      7 3 1 -1 
                      7 1 5 -1 
                    ]
                    normalIndex [
                      0 3 2 -1 
                      1 3 0 -1 
                      4 6 7 -1 
                      5 4 7 -1 
                      11 8 9 -1 
                      11 10 8 -1 
                      15 13 12 -1 
                      15 12 14 -1 
                      19 16 17 -1 
                      19 18 16 -1 
                      23 21 20 -1 
                      23 20 22 -1 
                    ]
                  }
                }
              ]
            }
          ]
        }
        DEF __119 Transform {
          translation -0.00135 0.002125 0
          children [
            DEF __120 Group {
              children [
                DEF __121 Shape {
                  appearance USE __12
                  geometry DEF __122 IndexedFaceSet {
                    solid FALSE
                    coord Coordinate {
                      point [
                        0 0 0,
                        0 0 0.0001,
                        0 0.0004 0,
                        0 0.0004 0.0001,
                        0.0002 0 0,
                        0.0002 0 0.0001,
                        0.0002 0.0004 0,
                        0.0002 0.0004 0.0001

                      ]
                    }
                    normal Normal {
                      vector [
                        -1 -0 0,
                        -1 -0 0,
                        -1 -0 0,
                        -1 -0 0,
                        1 0 -0,
                        1 0 -0,
                        1 0 -0,
                        1 0 -0,
                        0 -1 -0,
                        0 -1 -0,
                        0 -1 -0,
                        0 -1 -0,
                        -0 1 0,
                        -0 1 0,
                        -0 1 0,
                        -0 1 0,
                        -0 -0 -1,
                        -0 -0 -1,
                        -0 -0 -1,
                        -0 -0 -1,
                        0 0 1,
                        0 0 1,
                        0 0 1,
                        0 0 1

                      ]
                    }
                    coordIndex [
                      0 3 2 -1 
                      1 3 0 -1 
                      4 6 7 -1 
                      5 4 7 -1 
                      5 0 4 -1 
                      5 1 0 -1 
                      7 6 2 -1 
                      7 2 3 -1 
                      6 0 2 -1 
                      6 4 0 -1 
                      7 3 1 -1 
                      7 1 5 -1 
                    ]
                    normalIndex [
                      0 3 2 -1 
                      1 3 0 -1 
                      4 6 7 -1 
                      5 4 7 -1 
                      11 8 9 -1 
                      11 10 8 -1 
                      15 13 12 -1 
                      15 12 14 -1 
                      19 16 17 -1 
                      19 18 16 -1 
                      23 21 20 -1 
                      23 20 22 -1 
                    ]
                  }
                }
              ]
            }
          ]
        }
        DEF __123 Transform {
          translation -0.00108 -0.00158 0
          children [
            DEF __124 Group {
              children [
                DEF __125 Shape {
                  appearance USE __12
                  geometry DEF __126 IndexedFaceSet {
                    solid FALSE
                    coord Coordinate {
                      point [
                        0 0 0,
                        0 0 0.0001,
                        0 0.00316 0,
                        0 0.00316 0.0001,
                        0.00216 0 0,
                        0.00216 0 0.0001,
                        0.00216 0.00316 0,
                        0.00216 0.00316 0.0001

                      ]
                    }
                    normal Normal {
                      vector [
                        -1 -0 0,
                        -1 -0 0,
                        -1 -0 0,
                        -1 -0 0,
                        1 0 -0,
                        1 0 -0,
                        1 0 -0,
                        1 0 -0,
                        0 -1 -0,
                        0 -1 -0,
                        0 -1 -0,
                        0 -1 -0,
                        -0 1 0,
                        -0 1 0,
                        -0 1 0,
                        -0 1 0,
                        -0 -0 -1,
                        -0 -0 -1,
                        -0 -0 -1,
                        -0 -0 -1,
                        0 0 1,
                        0 0 1,
                        0 0 1,
                        0 0 1

                      ]
                    }
                    coordIndex [
                      1 2 0 -1 
                      1 3 2 -1 
                      5 4 6 -1 
                      5 6 7 -1 
                      5 0 4 -1 
                      5 1 0 -1 
                      7 6 2 -1 
                      7 2 3 -1 
                      6 0 2 -1 
                      6 4 0 -1 
                      7 3 1 -1 
                      7 1 5 -1 
                    ]
                    normalIndex [
                      1 2 0 -1 
                      1 3 2 -1 
                      5 4 6 -1 
                      5 6 7 -1 
                      11 8 9 -1 
                      11 10 8 -1 
                      15 13 12 -1 
                      15 12 14 -1 
                      19 16 17 -1 
                      19 18 16 -1 
                      23 21 20 -1 
                      23 20 22 -1 
                    ]
                  }
                }
              ]
            }
          ]
        }
      ]
    }
  ]
}
