PCBNEW-LibModule-V1  2020-06-23 21:09:48
# encoding utf-8
Units mm
$INDEX
HDRV6W64P254_2X3_1524X508X1104P
$EndINDEX
$MODULE HDRV6W64P254_2X3_1524X508X1104P
Po 0 0 0 15 5ef2618c 00000000 ~~
Li HDRV6W64P254_2X3_1524X508X1104P
Cd M20-9970346
Kw Connector
Sc 0
At STD
AR 
Op 0 0 0
T0 0 0 1.27 1.27 0 0.254 N V 21 N "J**"
T1 0 0 1.27 1.27 0 0.254 N I 21 N "HDRV6W64P254_2X3_1524X508X1104P"
DS -5.505 1.52 -5.505 -4.06 0.05 24
DS -5.505 -4.06 10.585 -4.06 0.05 24
DS 10.585 -4.06 10.585 1.52 0.05 24
DS 10.585 1.52 -5.505 1.52 0.05 24
DS -5.255 1.27 -5.255 -3.81 0.1 24
DS -5.255 -3.81 10.335 -3.81 0.1 24
DS 10.335 -3.81 10.335 1.27 0.1 24
DS 10.335 1.27 -5.255 1.27 0.1 24
DS -5.255 0 -5.255 1.27 0.2 21
DS -5.255 1.27 10.335 1.27 0.2 21
DS 10.335 1.27 10.335 -3.81 0.2 21
DS 10.335 -3.81 0 -3.81 0.2 21
$PAD
Po 0 0
Sh "1" R 1.65 1.65 0 0 900
Dr 1.1 0 0
At STD N 00E0FFFF
Ne 0 ""
$EndPAD
$PAD
Po 0 -2.54
Sh "2" C 1.65 1.65 0 0 900
Dr 1.1 0 0
At STD N 00E0FFFF
Ne 0 ""
$EndPAD
$PAD
Po 2.54 0
Sh "3" C 1.65 1.65 0 0 900
Dr 1.1 0 0
At STD N 00E0FFFF
Ne 0 ""
$EndPAD
$PAD
Po 2.54 -2.54
Sh "4" C 1.65 1.65 0 0 900
Dr 1.1 0 0
At STD N 00E0FFFF
Ne 0 ""
$EndPAD
$PAD
Po 5.08 0
Sh "5" C 1.65 1.65 0 0 900
Dr 1.1 0 0
At STD N 00E0FFFF
Ne 0 ""
$EndPAD
$PAD
Po 5.08 -2.54
Sh "6" C 1.65 1.65 0 0 900
Dr 1.1 0 0
At STD N 00E0FFFF
Ne 0 ""
$EndPAD
$EndMODULE HDRV6W64P254_2X3_1524X508X1104P
$EndLIBRARY
