PCBNEW-LibModule-V1
# encoding utf-8
Units mm
$INDEX
SOIC127P600X175-8N
QFN50P400X400X100-25N-D
NX3215SA32768KEXS00AMU00003
NCP176AMX330TCG
SON65P200X200X55-6N
$EndINDEX
$MODULE SON65P200X200X55-6N
Po 0 0 0 15 5dcad5cc 00000000 ~~
Li SON65P200X200X55-6N
Cd UDFN-6L
Kw Undefined or Miscellaneous
Sc 0
At SMD
AR 
Op 0 0 0
T0 0 0 1.27 1.27 0 0.254 N V 21 N "U**"
T1 0 0 1.27 1.27 0 0.254 N I 21 N "SON65P200X200X55-6N"
DS -1.625 -1.275 1.625 -1.275 0.05 24
DS 1.625 -1.275 1.625 1.275 0.05 24
DS 1.625 1.275 -1.625 1.275 0.05 24
DS -1.625 1.275 -1.625 -1.275 0.05 24
DS -1 -1 1 -1 0.1 24
DS 1 -1 1 1 0.1 24
DS 1 1 -1 1 0.1 24
DS -1 1 -1 -1 0.1 24
DS -1 -0.5 -0.5 -1 0.1 24
DC -1.375 -1.3 -1.25 -1.3 0.254 21
$PAD
Po -0.85 -0.65
Sh "1" R 0.3 1.05 0 0 900
At SMD N 00888000
Ne 0 ""
$EndPAD
$PAD
Po -0.85 0
Sh "2" R 0.3 1.05 0 0 900
At SMD N 00888000
Ne 0 ""
$EndPAD
$PAD
Po -0.85 0.65
Sh "3" R 0.3 1.05 0 0 900
At SMD N 00888000
Ne 0 ""
$EndPAD
$PAD
Po 0.85 0.65
Sh "4" R 0.3 1.05 0 0 900
At SMD N 00888000
Ne 0 ""
$EndPAD
$PAD
Po 0.85 0
Sh "5" R 0.3 1.05 0 0 900
At SMD N 00888000
Ne 0 ""
$EndPAD
$PAD
Po 0.85 -0.65
Sh "6" R 0.3 1.05 0 0 900
At SMD N 00888000
Ne 0 ""
$EndPAD
$EndMODULE SON65P200X200X55-6N
$MODULE NCP176AMX330TCG
Po 0 0 0 15 5dcad579 00000000 ~~
Li NCP176AMX330TCG
Cd NCP176AMX330TCG-2
Kw Integrated Circuit
Sc 0
At SMD
AR 
Op 0 0 0
T0 0.000 0.175 1.27 1.27 0 0.254 N V 21 N "IC**"
T1 0.000 0.175 1.27 1.27 0 0.254 N I 21 N "NCP176AMX330TCG"
DS -0.6 -0.6 0.6 -0.6 0.2 24
DS 0.6 -0.6 0.6 0.6 0.2 24
DS 0.6 0.6 -0.6 0.6 0.2 24
DS -0.6 0.6 -0.6 -0.6 0.2 24
DS -1.6 -1.7 1.6 -1.7 0.1 24
DS 1.6 -1.7 1.6 2.05 0.1 24
DS 1.6 2.05 -1.6 2.05 0.1 24
DS -1.6 2.05 -1.6 -1.7 0.1 24
DS 0.6 -0.6 0.6 0.515 0.1 21
DS -0.6 -0.6 -0.6 0.515 0.1 21
DS -0.5 1 -0.5 1 0.2 21
DS -0.6 1 -0.6 1 0.2 21
DA -0.55 1 -0.500 1 -1800 0.2 21
DA -0.55 1 -0.600 1 -1800 0.2 21
$PAD
Po -0.400 0.515
Sh "1" R 0.240 0.370 0 0 0
At SMD N 00888000
Ne 0 ""
$EndPAD
$PAD
Po 0.000 0.515
Sh "2" R 0.240 0.370 0 0 0
At SMD N 00888000
Ne 0 ""
$EndPAD
$PAD
Po 0.400 0.515
Sh "3" R 0.240 0.370 0 0 0
At SMD N 00888000
Ne 0 ""
$EndPAD
$PAD
Po 0.400 -0.515
Sh "4" R 0.240 0.370 0 0 0
At SMD N 00888000
Ne 0 ""
$EndPAD
$PAD
Po 0.000 -0.515
Sh "5" R 0.240 0.370 0 0 0
At SMD N 00888000
Ne 0 ""
$EndPAD
$PAD
Po -0.400 -0.515
Sh "6" R 0.240 0.370 0 0 0
At SMD N 00888000
Ne 0 ""
$EndPAD
$PAD
Po 0.000 -0
Sh "7" R 0.400 1.080 0 0 900
At SMD N 00888000
Ne 0 ""
$EndPAD
$EndMODULE NCP176AMX330TCG
$MODULE QFN50P400X400X100-25N-D
Po 0 0 0 15 5dcad2ea 00000000 ~~
Li QFN50P400X400X100-25N-D
Cd QFN 4x4(1)
Kw Integrated Circuit
Sc 0
At SMD
AR 
Op 0 0 0
T0 0 0 1.27 1.27 0 0.254 N V 21 N "IC**"
T1 0 0 1.27 1.27 0 0.254 N I 21 N "QFN50P400X400X100-25N-D"
DS -2.625 -2.625 2.625 -2.625 0.05 24
DS 2.625 -2.625 2.625 2.625 0.05 24
DS 2.625 2.625 -2.625 2.625 0.05 24
DS -2.625 2.625 -2.625 -2.625 0.05 24
DS -2 -2 2 -2 0.1 24
DS 2 -2 2 2 0.1 24
DS 2 2 -2 2 0.1 24
DS -2 2 -2 -2 0.1 24
DS -2 -1.5 -1.5 -2 0.1 24
DC -2.375 -2 -2.25 -2 0.254 21
$PAD
Po -1.95 -1.25
Sh "1" R 0.3 0.85 0 0 900
At SMD N 00888000
Ne 0 ""
$EndPAD
$PAD
Po -1.95 -0.75
Sh "2" R 0.3 0.85 0 0 900
At SMD N 00888000
Ne 0 ""
$EndPAD
$PAD
Po -1.95 -0.25
Sh "3" R 0.3 0.85 0 0 900
At SMD N 00888000
Ne 0 ""
$EndPAD
$PAD
Po -1.95 0.25
Sh "4" R 0.3 0.85 0 0 900
At SMD N 00888000
Ne 0 ""
$EndPAD
$PAD
Po -1.95 0.75
Sh "5" R 0.3 0.85 0 0 900
At SMD N 00888000
Ne 0 ""
$EndPAD
$PAD
Po -1.95 1.25
Sh "6" R 0.3 0.85 0 0 900
At SMD N 00888000
Ne 0 ""
$EndPAD
$PAD
Po -1.25 1.95
Sh "7" R 0.3 0.85 0 0 0
At SMD N 00888000
Ne 0 ""
$EndPAD
$PAD
Po -0.75 1.95
Sh "8" R 0.3 0.85 0 0 0
At SMD N 00888000
Ne 0 ""
$EndPAD
$PAD
Po -0.25 1.95
Sh "9" R 0.3 0.85 0 0 0
At SMD N 00888000
Ne 0 ""
$EndPAD
$PAD
Po 0.25 1.95
Sh "10" R 0.3 0.85 0 0 0
At SMD N 00888000
Ne 0 ""
$EndPAD
$PAD
Po 0.75 1.95
Sh "11" R 0.3 0.85 0 0 0
At SMD N 00888000
Ne 0 ""
$EndPAD
$PAD
Po 1.25 1.95
Sh "12" R 0.3 0.85 0 0 0
At SMD N 00888000
Ne 0 ""
$EndPAD
$PAD
Po 1.95 1.25
Sh "13" R 0.3 0.85 0 0 900
At SMD N 00888000
Ne 0 ""
$EndPAD
$PAD
Po 1.95 0.75
Sh "14" R 0.3 0.85 0 0 900
At SMD N 00888000
Ne 0 ""
$EndPAD
$PAD
Po 1.95 0.25
Sh "15" R 0.3 0.85 0 0 900
At SMD N 00888000
Ne 0 ""
$EndPAD
$PAD
Po 1.95 -0.25
Sh "16" R 0.3 0.85 0 0 900
At SMD N 00888000
Ne 0 ""
$EndPAD
$PAD
Po 1.95 -0.75
Sh "17" R 0.3 0.85 0 0 900
At SMD N 00888000
Ne 0 ""
$EndPAD
$PAD
Po 1.95 -1.25
Sh "18" R 0.3 0.85 0 0 900
At SMD N 00888000
Ne 0 ""
$EndPAD
$PAD
Po 1.25 -1.95
Sh "19" R 0.3 0.85 0 0 0
At SMD N 00888000
Ne 0 ""
$EndPAD
$PAD
Po 0.75 -1.95
Sh "20" R 0.3 0.85 0 0 0
At SMD N 00888000
Ne 0 ""
$EndPAD
$PAD
Po 0.25 -1.95
Sh "21" R 0.3 0.85 0 0 0
At SMD N 00888000
Ne 0 ""
$EndPAD
$PAD
Po -0.25 -1.95
Sh "22" R 0.3 0.85 0 0 0
At SMD N 00888000
Ne 0 ""
$EndPAD
$PAD
Po -0.75 -1.95
Sh "23" R 0.3 0.85 0 0 0
At SMD N 00888000
Ne 0 ""
$EndPAD
$PAD
Po -1.25 -1.95
Sh "24" R 0.3 0.85 0 0 0
At SMD N 00888000
Ne 0 ""
$EndPAD
$PAD
Po 0 0
Sh "25" R 2.65 2.65 0 0 0
At SMD N 00888000
Ne 0 ""
$EndPAD
$EndMODULE QFN50P400X400X100-25N-D
$MODULE NX3215SA32768KEXS00AMU00003
Po 0 0 0 15 5dcac31b 00000000 ~~
Li NX3215SA32768KEXS00AMU00003
Cd NX3215SA-32.768K-EXS00A-MU00003
Kw Crystal or Oscillator
Sc 0
At SMD
AR 
Op 0 0 0
T0 0.000 -0 1.27 1.27 0 0.254 N V 21 N "Y**"
T1 0.000 -0 1.27 1.27 0 0.254 N I 21 N "NX3215SA32768KEXS00AMU00003"
DS -1.6 -0.75 1.6 -0.75 0.2 24
DS 1.6 -0.75 1.6 0.75 0.2 24
DS 1.6 0.75 -1.6 0.75 0.2 24
DS -1.6 0.75 -1.6 -0.75 0.2 24
DS -2.75 -1.9 2.75 -1.9 0.1 24
DS 2.75 -1.9 2.75 1.9 0.1 24
DS 2.75 1.9 -2.75 1.9 0.1 24
DS -2.75 1.9 -2.75 -1.9 0.1 24
DS -0.5 0.75 0.5 0.75 0.1 21
DS -0.5 -0.75 0.5 -0.75 0.1 21
DS -2.3 -0.1 -2.3 -0.1 0.2 21
DS -2.3 0.1 -2.3 0.1 0.2 21
DA -2.3 -0 -2.300 -0.1 -1800 0.2 21
DA -2.3 -0 -2.300 0.1 -1800 0.2 21
$PAD
Po -1.250 -0
Sh "1" R 1.000 1.800 0 0 0
At SMD N 00888000
Ne 0 ""
$EndPAD
$PAD
Po 1.250 -0
Sh "2" R 1.000 1.800 0 0 0
At SMD N 00888000
Ne 0 ""
$EndPAD
$EndMODULE NX3215SA32768KEXS00AMU00003
$MODULE SOIC127P600X175-8N
Po 0 0 0 15 5b50713e 00000000 ~~
Li SOIC127P600X175-8N
Cd D (R-PDSO-G8)
Kw Integrated Circuit
Sc 0
At SMD
AR
Op 0 0 0
T0 0 0 1.27 1.27 0 0.254 N V 21 N "IC**"
T1 0 0 1.27 1.27 0 0.254 N I 21 N "SOIC127P600X175-8N"
DS -3.725 -2.75 3.725 -2.75 0.05 24
DS 3.725 -2.75 3.725 2.75 0.05 24
DS 3.725 2.75 -3.725 2.75 0.05 24
DS -3.725 2.75 -3.725 -2.75 0.05 24
DS -1.95 -2.45 1.95 -2.45 0.1 24
DS 1.95 -2.45 1.95 2.45 0.1 24
DS 1.95 2.45 -1.95 2.45 0.1 24
DS -1.95 2.45 -1.95 -2.45 0.1 24
DS -1.95 -1.18 -0.68 -2.45 0.1 24
DS -1.6 -2.45 1.6 -2.45 0.2 21
DS 1.6 -2.45 1.6 2.45 0.2 21
DS 1.6 2.45 -1.6 2.45 0.2 21
DS -1.6 2.45 -1.6 -2.45 0.2 21
DS -3.475 -2.58 -1.95 -2.58 0.2 21
$PAD
Po -2.712 -1.905
Sh "1" R 0.65 1.525 0 0 900
At SMD N 00888000
Ne 0 ""
$EndPAD
$PAD
Po -2.712 -0.635
Sh "2" R 0.65 1.525 0 0 900
At SMD N 00888000
Ne 0 ""
$EndPAD
$PAD
Po -2.712 0.635
Sh "3" R 0.65 1.525 0 0 900
At SMD N 00888000
Ne 0 ""
$EndPAD
$PAD
Po -2.712 1.905
Sh "4" R 0.65 1.525 0 0 900
At SMD N 00888000
Ne 0 ""
$EndPAD
$PAD
Po 2.712 1.905
Sh "5" R 0.65 1.525 0 0 900
At SMD N 00888000
Ne 0 ""
$EndPAD
$PAD
Po 2.712 0.635
Sh "6" R 0.65 1.525 0 0 900
At SMD N 00888000
Ne 0 ""
$EndPAD
$PAD
Po 2.712 -0.635
Sh "7" R 0.65 1.525 0 0 900
At SMD N 00888000
Ne 0 ""
$EndPAD
$PAD
Po 2.712 -1.905
Sh "8" R 0.65 1.525 0 0 900
At SMD N 00888000
Ne 0 ""
$EndPAD
$EndMODULE SOIC127P600X175-8N
$EndLIBRARY
