<?xml version="1.0" encoding="utf-8"?>
<!--/1146455/180600/2.46/3/3/MOSFET (N-Channel)/-->
<!DOCTYPE curve SYSTEM "eagle.dtd">
<eagle version="7.7.0">
<drawing>
<settings>
<setting alwaysvectorfont="no"/>
<setting verticaltext="up"/>
</settings>
<grid distance="0.1" unitdist="inch" unit="inch" style="lines" multiple="1" display="no" altdistance="0.01" altunitdist="inch" altunit="inch"/>
<layers>
<layer number="1" name="Top" color="4" fill="1" visible="yes" active="yes"/>
<layer number="16" name="Bottom" color="1" fill="1" visible="yes" active="yes"/>
<layer number="17" name="Pads" color="2" fill="1" visible="yes" active="yes"/>
<layer number="18" name="Vias" color="2" fill="1" visible="yes" active="yes"/>
<layer number="19" name="Unrouted" color="6" fill="1" visible="yes" active="yes"/>
<layer number="20" name="Dimension" color="15" fill="1" visible="yes" active="yes"/>
<layer number="21" name="tPlace" color="7" fill="1" visible="yes" active="yes"/>
<layer number="22" name="bPlace" color="7" fill="1" visible="yes" active="yes"/>
<layer number="23" name="tOrigins" color="15" fill="1" visible="yes" active="yes"/>
<layer number="24" name="bOrigins" color="15" fill="1" visible="yes" active="yes"/>
<layer number="25" name="tNames" color="7" fill="1" visible="yes" active="yes"/>
<layer number="26" name="bNames" color="7" fill="1" visible="yes" active="yes"/>
<layer number="27" name="tValues" color="7" fill="1" visible="yes" active="yes"/>
<layer number="28" name="bValues" color="7" fill="1" visible="yes" active="yes"/>
<layer number="29" name="tStop" color="7" fill="3" visible="no" active="yes"/>
<layer number="30" name="bStop" color="7" fill="6" visible="no" active="yes"/>
<layer number="31" name="tCream" color="7" fill="4" visible="no" active="yes"/>
<layer number="32" name="bCream" color="7" fill="5" visible="no" active="yes"/>
<layer number="33" name="tFinish" color="6" fill="3" visible="no" active="yes"/>
<layer number="34" name="bFinish" color="6" fill="6" visible="no" active="yes"/>
<layer number="35" name="tGlue" color="7" fill="4" visible="no" active="yes"/>
<layer number="36" name="bGlue" color="7" fill="5" visible="no" active="yes"/>
<layer number="37" name="tTest" color="7" fill="1" visible="no" active="yes"/>
<layer number="38" name="bTest" color="7" fill="1" visible="no" active="yes"/>
<layer number="39" name="tKeepout" color="4" fill="11" visible="yes" active="yes"/>
<layer number="40" name="bKeepout" color="1" fill="11" visible="yes" active="yes"/>
<layer number="41" name="tRestrict" color="4" fill="10" visible="yes" active="yes"/>
<layer number="42" name="bRestrict" color="1" fill="10" visible="yes" active="yes"/>
<layer number="43" name="vRestrict" color="2" fill="10" visible="yes" active="yes"/>
<layer number="44" name="Drills" color="7" fill="1" visible="no" active="yes"/>
<layer number="45" name="Holes" color="7" fill="1" visible="no" active="yes"/>
<layer number="46" name="Milling" color="3" fill="1" visible="no" active="yes"/>
<layer number="47" name="Measures" color="7" fill="1" visible="no" active="yes"/>
<layer number="48" name="Document" color="7" fill="1" visible="yes" active="yes"/>
<layer number="49" name="Reference" color="7" fill="1" visible="yes" active="yes"/>
<layer number="51" name="tDocu" color="7" fill="1" visible="yes" active="yes"/>
<layer number="52" name="bDocu" color="7" fill="1" visible="yes" active="yes"/>
<layer number="90" name="Modules" color="5" fill="1" visible="yes" active="yes"/>
<layer number="91" name="Nets" color="2" fill="1" visible="yes" active="yes"/>
<layer number="92" name="Busses" color="1" fill="1" visible="yes" active="yes"/>
<layer number="93" name="Pins" color="2" fill="1" visible="no" active="yes"/>
<layer number="94" name="Symbols" color="4" fill="1" visible="yes" active="yes"/>
<layer number="95" name="Names" color="7" fill="1" visible="yes" active="yes"/>
<layer number="96" name="Values" color="7" fill="1" visible="yes" active="yes"/>
<layer number="97" name="Info" color="7" fill="1" visible="yes" active="yes"/>
<layer number="98" name="Guide" color="6" fill="1" visible="yes" active="yes"/>
</layers>
<library>
<description>&lt;FDN86246 N-Channel MOSFET, 1.6 A, 150 V PowerTrench, 3-Pin SOT-23 ON Semiconductor&lt;/b&gt;&lt;p&gt;
&lt;author&gt;Created by SamacSys&lt;/author&gt;</description>
<packages>
<package name="SOT95P237X122-3N">
<description>&lt;b&gt;sot-23-1-ren1&lt;/b&gt;&lt;br&gt;
</description>
<smd name="1" x="-1.1" y="0.95" dx="1.2" dy="0.6" layer="1" rot="R0"/>
<smd name="2" x="-1.1" y="-0.95" dx="1.2" dy="0.6" layer="1" rot="R0"/>
<smd name="3" x="1.1" y="0" dx="1.2" dy="0.6" layer="1" rot="R0"/>
<text x="0" y="0" align="center" size="1.27" layer="25" rot="R0" >&gt;NAME</text>
<text x="0" y="0" align="center" size="1.27" layer="27" rot="R0" >&gt;VALUE</text>
<wire x1="-1.95" y1="1.77" x2="1.95" y2="1.77" width="0.05" layer="51"/>
<wire x1="1.95" y1="1.77" x2="1.95" y2="-1.77" width="0.05" layer="51"/>
<wire x1="1.95" y1="-1.77" x2="-1.95" y2="-1.77" width="0.05" layer="51"/>
<wire x1="-1.95" y1="-1.77" x2="-1.95" y2="1.77" width="0.05" layer="51"/>
<wire x1="-0.65" y1="1.46" x2="0.65" y2="1.46" width="0.1" layer="51"/>
<wire x1="0.65" y1="1.46" x2="0.65" y2="-1.46" width="0.1" layer="51"/>
<wire x1="0.65" y1="-1.46" x2="-0.65" y2="-1.46" width="0.1" layer="51"/>
<wire x1="-0.65" y1="-1.46" x2="-0.65" y2="1.46" width="0.1" layer="51"/>
<wire x1="-0.65" y1="0.51" x2="0.3" y2="1.46" width="0.1" layer="51"/>
<wire x1="-0.15" y1="1.46" x2="0.15" y2="1.46" width="0.2" layer="21"/>
<wire x1="0.15" y1="1.46" x2="0.15" y2="-1.46" width="0.2" layer="21"/>
<wire x1="0.15" y1="-1.46" x2="-0.15" y2="-1.46" width="0.2" layer="21"/>
<wire x1="-0.15" y1="-1.46" x2="-0.15" y2="1.46" width="0.2" layer="21"/>
<wire x1="-1.7" y1="1.5" x2="-0.5" y2="1.5" width="0.2" layer="21"/>
</package>
</packages>
<symbols>
<symbol name="FDN86246">
<wire x1="7.62" y1="2.54" x2="7.62" y2="-2.54" width="0.254" layer="94"/>
<wire x1="7.62" y1="5.08" x2="7.62" y2="7.62" width="0.254" layer="94"/>
<wire x1="2.54" y1="0" x2="5.08" y2="0" width="0.254" layer="94"/>
<wire x1="5.08" y1="5.08" x2="5.08" y2="0" width="0.254" layer="94"/>
<wire x1="7.62" y1="2.54" x2="5.842" y2="2.54" width="0.254" layer="94"/>
<wire x1="7.62" y1="5.08" x2="5.842" y2="5.08" width="0.254" layer="94"/>
<wire x1="5.842" y1="0" x2="7.62" y2="0" width="0.254" layer="94"/>
<wire x1="5.842" y1="5.588" x2="5.842" y2="4.572" width="0.254" layer="94"/>
<wire x1="5.842" y1="-0.508" x2="5.842" y2="0.508" width="0.254" layer="94"/>
<wire x1="5.842" y1="2.032" x2="5.842" y2="3.048" width="0.254" layer="94"/>
<circle x="6.35" y="2.54" radius="3.81" width="0.254" layer="94"/>
<text x="11.43" y="3.81" align="center-left" size="1.778" layer="95">&gt;NAME</text>
<text x="11.43" y="1.27" align="center-left" size="1.778" layer="96">&gt;VALUE</text>
<pin name="G" x="0" y="0" visible="pad" length="short" direction="io" rot="R0"/>
<pin name="D" x="7.62" y="10.16" visible="pad" length="short" direction="io" rot="R270"/>
<pin name="S" x="7.62" y="-5.08" visible="pad" length="short" direction="io" rot="R90"/>
<polygon width="0.254" layer="94">
<vertex x="5.842" y="2.54"/>
<vertex x="6.858" y="3.048"/>
<vertex x="6.858" y="2.032"/>
</polygon>
</symbol>
</symbols>
<devicesets>
<deviceset name="FDN86246" prefix="Q">
<description>&lt;b&gt;FDN86246 N-Channel MOSFET, 1.6 A, 150 V PowerTrench, 3-Pin SOT-23 ON Semiconductor&lt;/b&gt;&lt;p&gt;
Source: &lt;a href="https://www.onsemi.com/pub/Collateral/FDN86246-D.pdf"&gt; Datasheet &lt;/a&gt;</description>
<gates>
<gate name="G$1" symbol="FDN86246" x="0" y="0"/>
</gates>
<devices>
<device name="" package="SOT95P237X122-3N">
<connects>
<connect gate="G$1" pin="G" pad="1"/>
<connect gate="G$1" pin="S" pad="2"/>
<connect gate="G$1" pin="D" pad="3"/>
</connects>
<technologies>
<technology name="">
<attribute name="Manufacturer_Name" value="ON Semiconductor" constant="no"/>
<attribute name="Manufacturer_Part_Number" value="FDN86246" constant="no"/>
<attribute name="Arrow_Part_Number" value="FDN86246" constant="no"/>
<attribute name="Arrow_Price-Stock" value="https://www.arrow.com/en/products/fdn86246/on-semiconductor" constant="no"/>
<attribute name="Mouser_Part_Number" value="512-FDN86246" constant="no"/>
<attribute name="Mouser_Price-Stock" value="https://www.mouser.co.uk/ProductDetail/ON-Semiconductor-Fairchild/FDN86246?qs=dIxESgyDOrhoaLoGKHFSzg%3D%3D" constant="no"/>
<attribute name="Description" value="FDN86246 N-Channel MOSFET, 1.6 A, 150 V PowerTrench, 3-Pin SOT-23 ON Semiconductor" constant="no"/>
<attribute name="Height" value="1.22mm" constant="no"/>
</technology>
</technologies>
</device>
</devices>
</deviceset>
</devicesets>
</library>
</drawing>
</eagle>
