<?xml version="1.0" encoding="utf-8"?>
<!--/2403679/180600/2.45/69/3/Integrated Circuit/-->
<!DOCTYPE curve SYSTEM "eagle.dtd">
<eagle version="7.7.0">
<drawing>
<settings>
<setting alwaysvectorfont="no"/>
<setting verticaltext="up"/>
</settings>
<grid distance="0.1" unitdist="inch" unit="inch" style="lines" multiple="1" display="no" altdistance="0.01" altunitdist="inch" altunit="inch"/>
<layers>
<layer number="1" name="Top" color="4" fill="1" visible="yes" active="yes"/>
<layer number="16" name="Bottom" color="1" fill="1" visible="yes" active="yes"/>
<layer number="17" name="Pads" color="2" fill="1" visible="yes" active="yes"/>
<layer number="18" name="Vias" color="2" fill="1" visible="yes" active="yes"/>
<layer number="19" name="Unrouted" color="6" fill="1" visible="yes" active="yes"/>
<layer number="20" name="Dimension" color="15" fill="1" visible="yes" active="yes"/>
<layer number="21" name="tPlace" color="7" fill="1" visible="yes" active="yes"/>
<layer number="22" name="bPlace" color="7" fill="1" visible="yes" active="yes"/>
<layer number="23" name="tOrigins" color="15" fill="1" visible="yes" active="yes"/>
<layer number="24" name="bOrigins" color="15" fill="1" visible="yes" active="yes"/>
<layer number="25" name="tNames" color="7" fill="1" visible="yes" active="yes"/>
<layer number="26" name="bNames" color="7" fill="1" visible="yes" active="yes"/>
<layer number="27" name="tValues" color="7" fill="1" visible="yes" active="yes"/>
<layer number="28" name="bValues" color="7" fill="1" visible="yes" active="yes"/>
<layer number="29" name="tStop" color="7" fill="3" visible="no" active="yes"/>
<layer number="30" name="bStop" color="7" fill="6" visible="no" active="yes"/>
<layer number="31" name="tCream" color="7" fill="4" visible="no" active="yes"/>
<layer number="32" name="bCream" color="7" fill="5" visible="no" active="yes"/>
<layer number="33" name="tFinish" color="6" fill="3" visible="no" active="yes"/>
<layer number="34" name="bFinish" color="6" fill="6" visible="no" active="yes"/>
<layer number="35" name="tGlue" color="7" fill="4" visible="no" active="yes"/>
<layer number="36" name="bGlue" color="7" fill="5" visible="no" active="yes"/>
<layer number="37" name="tTest" color="7" fill="1" visible="no" active="yes"/>
<layer number="38" name="bTest" color="7" fill="1" visible="no" active="yes"/>
<layer number="39" name="tKeepout" color="4" fill="11" visible="yes" active="yes"/>
<layer number="40" name="bKeepout" color="1" fill="11" visible="yes" active="yes"/>
<layer number="41" name="tRestrict" color="4" fill="10" visible="yes" active="yes"/>
<layer number="42" name="bRestrict" color="1" fill="10" visible="yes" active="yes"/>
<layer number="43" name="vRestrict" color="2" fill="10" visible="yes" active="yes"/>
<layer number="44" name="Drills" color="7" fill="1" visible="no" active="yes"/>
<layer number="45" name="Holes" color="7" fill="1" visible="no" active="yes"/>
<layer number="46" name="Milling" color="3" fill="1" visible="no" active="yes"/>
<layer number="47" name="Measures" color="7" fill="1" visible="no" active="yes"/>
<layer number="48" name="Document" color="7" fill="1" visible="yes" active="yes"/>
<layer number="49" name="Reference" color="7" fill="1" visible="yes" active="yes"/>
<layer number="51" name="tDocu" color="7" fill="1" visible="yes" active="yes"/>
<layer number="52" name="bDocu" color="7" fill="1" visible="yes" active="yes"/>
<layer number="90" name="Modules" color="5" fill="1" visible="yes" active="yes"/>
<layer number="91" name="Nets" color="2" fill="1" visible="yes" active="yes"/>
<layer number="92" name="Busses" color="1" fill="1" visible="yes" active="yes"/>
<layer number="93" name="Pins" color="2" fill="1" visible="no" active="yes"/>
<layer number="94" name="Symbols" color="4" fill="1" visible="yes" active="yes"/>
<layer number="95" name="Names" color="7" fill="1" visible="yes" active="yes"/>
<layer number="96" name="Values" color="7" fill="1" visible="yes" active="yes"/>
<layer number="97" name="Info" color="7" fill="1" visible="yes" active="yes"/>
<layer number="98" name="Guide" color="6" fill="1" visible="yes" active="yes"/>
</layers>
<library>
<description>&lt;RF Transceiver LoRa Gateway Baseband Transceiver&lt;/b&gt;&lt;p&gt;
&lt;author&gt;Created by SamacSys&lt;/author&gt;</description>
<packages>
<package name="QFN35P700X700X80-69N">
<description>&lt;b&gt;QFN-64-AA&lt;/b&gt;&lt;br&gt;
</description>
<smd name="1" x="-3.45" y="2.8" dx="0.85" dy="0.15" layer="1" rot="R0"/>
<smd name="2" x="-3.45" y="2.45" dx="0.85" dy="0.15" layer="1" rot="R0"/>
<smd name="3" x="-3.45" y="2.1" dx="0.85" dy="0.15" layer="1" rot="R0"/>
<smd name="4" x="-3.45" y="1.75" dx="0.85" dy="0.15" layer="1" rot="R0"/>
<smd name="5" x="-3.45" y="1.4" dx="0.85" dy="0.15" layer="1" rot="R0"/>
<smd name="6" x="-3.45" y="1.05" dx="0.85" dy="0.15" layer="1" rot="R0"/>
<smd name="7" x="-3.45" y="0.7" dx="0.85" dy="0.15" layer="1" rot="R0"/>
<smd name="8" x="-3.45" y="0.35" dx="0.85" dy="0.15" layer="1" rot="R0"/>
<smd name="9" x="-3.45" y="0" dx="0.85" dy="0.15" layer="1" rot="R0"/>
<smd name="10" x="-3.45" y="-0.35" dx="0.85" dy="0.15" layer="1" rot="R0"/>
<smd name="11" x="-3.45" y="-0.7" dx="0.85" dy="0.15" layer="1" rot="R0"/>
<smd name="12" x="-3.45" y="-1.05" dx="0.85" dy="0.15" layer="1" rot="R0"/>
<smd name="13" x="-3.45" y="-1.4" dx="0.85" dy="0.15" layer="1" rot="R0"/>
<smd name="14" x="-3.45" y="-1.75" dx="0.85" dy="0.15" layer="1" rot="R0"/>
<smd name="15" x="-3.45" y="-2.1" dx="0.85" dy="0.15" layer="1" rot="R0"/>
<smd name="16" x="-3.45" y="-2.45" dx="0.85" dy="0.15" layer="1" rot="R0"/>
<smd name="17" x="-3.45" y="-2.8" dx="0.85" dy="0.15" layer="1" rot="R0"/>
<smd name="18" x="-2.8" y="-3.45" dx="0.85" dy="0.15" layer="1" rot="R90"/>
<smd name="19" x="-2.45" y="-3.45" dx="0.85" dy="0.15" layer="1" rot="R90"/>
<smd name="20" x="-2.1" y="-3.45" dx="0.85" dy="0.15" layer="1" rot="R90"/>
<smd name="21" x="-1.75" y="-3.45" dx="0.85" dy="0.15" layer="1" rot="R90"/>
<smd name="22" x="-1.4" y="-3.45" dx="0.85" dy="0.15" layer="1" rot="R90"/>
<smd name="23" x="-1.05" y="-3.45" dx="0.85" dy="0.15" layer="1" rot="R90"/>
<smd name="24" x="-0.7" y="-3.45" dx="0.85" dy="0.15" layer="1" rot="R90"/>
<smd name="25" x="-0.35" y="-3.45" dx="0.85" dy="0.15" layer="1" rot="R90"/>
<smd name="26" x="0" y="-3.45" dx="0.85" dy="0.15" layer="1" rot="R90"/>
<smd name="27" x="0.35" y="-3.45" dx="0.85" dy="0.15" layer="1" rot="R90"/>
<smd name="28" x="0.7" y="-3.45" dx="0.85" dy="0.15" layer="1" rot="R90"/>
<smd name="29" x="1.05" y="-3.45" dx="0.85" dy="0.15" layer="1" rot="R90"/>
<smd name="30" x="1.4" y="-3.45" dx="0.85" dy="0.15" layer="1" rot="R90"/>
<smd name="31" x="1.75" y="-3.45" dx="0.85" dy="0.15" layer="1" rot="R90"/>
<smd name="32" x="2.1" y="-3.45" dx="0.85" dy="0.15" layer="1" rot="R90"/>
<smd name="33" x="2.45" y="-3.45" dx="0.85" dy="0.15" layer="1" rot="R90"/>
<smd name="34" x="2.8" y="-3.45" dx="0.85" dy="0.15" layer="1" rot="R90"/>
<smd name="35" x="3.45" y="-2.8" dx="0.85" dy="0.15" layer="1" rot="R0"/>
<smd name="36" x="3.45" y="-2.45" dx="0.85" dy="0.15" layer="1" rot="R0"/>
<smd name="37" x="3.45" y="-2.1" dx="0.85" dy="0.15" layer="1" rot="R0"/>
<smd name="38" x="3.45" y="-1.75" dx="0.85" dy="0.15" layer="1" rot="R0"/>
<smd name="39" x="3.45" y="-1.4" dx="0.85" dy="0.15" layer="1" rot="R0"/>
<smd name="40" x="3.45" y="-1.05" dx="0.85" dy="0.15" layer="1" rot="R0"/>
<smd name="41" x="3.45" y="-0.7" dx="0.85" dy="0.15" layer="1" rot="R0"/>
<smd name="42" x="3.45" y="-0.35" dx="0.85" dy="0.15" layer="1" rot="R0"/>
<smd name="43" x="3.45" y="0" dx="0.85" dy="0.15" layer="1" rot="R0"/>
<smd name="44" x="3.45" y="0.35" dx="0.85" dy="0.15" layer="1" rot="R0"/>
<smd name="45" x="3.45" y="0.7" dx="0.85" dy="0.15" layer="1" rot="R0"/>
<smd name="46" x="3.45" y="1.05" dx="0.85" dy="0.15" layer="1" rot="R0"/>
<smd name="47" x="3.45" y="1.4" dx="0.85" dy="0.15" layer="1" rot="R0"/>
<smd name="48" x="3.45" y="1.75" dx="0.85" dy="0.15" layer="1" rot="R0"/>
<smd name="49" x="3.45" y="2.1" dx="0.85" dy="0.15" layer="1" rot="R0"/>
<smd name="50" x="3.45" y="2.45" dx="0.85" dy="0.15" layer="1" rot="R0"/>
<smd name="51" x="3.45" y="2.8" dx="0.85" dy="0.15" layer="1" rot="R0"/>
<smd name="52" x="2.8" y="3.45" dx="0.85" dy="0.15" layer="1" rot="R90"/>
<smd name="53" x="2.45" y="3.45" dx="0.85" dy="0.15" layer="1" rot="R90"/>
<smd name="54" x="2.1" y="3.45" dx="0.85" dy="0.15" layer="1" rot="R90"/>
<smd name="55" x="1.75" y="3.45" dx="0.85" dy="0.15" layer="1" rot="R90"/>
<smd name="56" x="1.4" y="3.45" dx="0.85" dy="0.15" layer="1" rot="R90"/>
<smd name="57" x="1.05" y="3.45" dx="0.85" dy="0.15" layer="1" rot="R90"/>
<smd name="58" x="0.7" y="3.45" dx="0.85" dy="0.15" layer="1" rot="R90"/>
<smd name="59" x="0.35" y="3.45" dx="0.85" dy="0.15" layer="1" rot="R90"/>
<smd name="60" x="0" y="3.45" dx="0.85" dy="0.15" layer="1" rot="R90"/>
<smd name="61" x="-0.35" y="3.45" dx="0.85" dy="0.15" layer="1" rot="R90"/>
<smd name="62" x="-0.7" y="3.45" dx="0.85" dy="0.15" layer="1" rot="R90"/>
<smd name="63" x="-1.05" y="3.45" dx="0.85" dy="0.15" layer="1" rot="R90"/>
<smd name="64" x="-1.4" y="3.45" dx="0.85" dy="0.15" layer="1" rot="R90"/>
<smd name="65" x="-1.75" y="3.45" dx="0.85" dy="0.15" layer="1" rot="R90"/>
<smd name="66" x="-2.1" y="3.45" dx="0.85" dy="0.15" layer="1" rot="R90"/>
<smd name="67" x="-2.45" y="3.45" dx="0.85" dy="0.15" layer="1" rot="R90"/>
<smd name="68" x="-2.8" y="3.45" dx="0.85" dy="0.15" layer="1" rot="R90"/>
<smd name="69" x="0" y="0" dx="5.61" dy="5.61" layer="1" rot="R90"/>
<text x="0" y="0" align="center" size="1.27" layer="25" rot="R0" >&gt;NAME</text>
<text x="0" y="0" align="center" size="1.27" layer="27" rot="R0" >&gt;VALUE</text>
<wire x1="-4.125" y1="4.125" x2="4.125" y2="4.125" width="0.05" layer="51"/>
<wire x1="4.125" y1="4.125" x2="4.125" y2="-4.125" width="0.05" layer="51"/>
<wire x1="4.125" y1="-4.125" x2="-4.125" y2="-4.125" width="0.05" layer="51"/>
<wire x1="-4.125" y1="-4.125" x2="-4.125" y2="4.125" width="0.05" layer="51"/>
<wire x1="-3.5" y1="3.5" x2="3.5" y2="3.5" width="0.1" layer="51"/>
<wire x1="3.5" y1="3.5" x2="3.5" y2="-3.5" width="0.1" layer="51"/>
<wire x1="3.5" y1="-3.5" x2="-3.5" y2="-3.5" width="0.1" layer="51"/>
<wire x1="-3.5" y1="-3.5" x2="-3.5" y2="3.5" width="0.1" layer="51"/>
<wire x1="-3.5" y1="3.15" x2="-3.15" y2="3.5" width="0.1" layer="51"/>
<circle x="-3.8755" y="3.325" radius="0.0875" width="0.175" layer="25"/>
</package>
</packages>
<symbols>
<symbol name="SX1302IMLTRT">
<wire x1="5.08" y1="20.32" x2="53.34" y2="20.32" width="0.254" layer="94"/>
<wire x1="53.34" y1="-63.5" x2="53.34" y2="20.32" width="0.254" layer="94"/>
<wire x1="53.34" y1="-63.5" x2="5.08" y2="-63.5" width="0.254" layer="94"/>
<wire x1="5.08" y1="20.32" x2="5.08" y2="-63.5" width="0.254" layer="94"/>
<text x="54.61" y="25.4" align="center-left" size="1.778" layer="95">&gt;NAME</text>
<text x="54.61" y="22.86" align="center-left" size="1.778" layer="96">&gt;VALUE</text>
<pin name="HOST_CSN" x="0" y="0" length="middle" direction="io" rot="R0"/>
<pin name="HOST_MISO" x="0" y="-2.54" length="middle" direction="io" rot="R0"/>
<pin name="HOST_MOSI" x="0" y="-5.08" length="middle" direction="io" rot="R0"/>
<pin name="HOST_SCK" x="0" y="-7.62" length="middle" direction="io" rot="R0"/>
<pin name="VCC_CORE_1" x="0" y="-10.16" length="middle" direction="io" rot="R0"/>
<pin name="GND_1" x="0" y="-12.7" length="middle" direction="io" rot="R0"/>
<pin name="RESET" x="0" y="-15.24" length="middle" direction="io" rot="R0"/>
<pin name="PPS" x="0" y="-17.78" length="middle" direction="io" rot="R0"/>
<pin name="GND_2" x="0" y="-20.32" length="middle" direction="io" rot="R0"/>
<pin name="RADIO_CTRL[0]" x="0" y="-22.86" length="middle" direction="io" rot="R0"/>
<pin name="RADIO_CTRL[1]" x="0" y="-25.4" length="middle" direction="io" rot="R0"/>
<pin name="RADIO_CTRL[2]" x="0" y="-27.94" length="middle" direction="io" rot="R0"/>
<pin name="RADIO_CTRL[3]" x="0" y="-30.48" length="middle" direction="io" rot="R0"/>
<pin name="VCC_IO_1" x="0" y="-33.02" length="middle" direction="io" rot="R0"/>
<pin name="GND_3" x="0" y="-35.56" length="middle" direction="io" rot="R0"/>
<pin name="RADIO_CTRL[4]" x="0" y="-38.1" length="middle" direction="io" rot="R0"/>
<pin name="RADIO_CTRL[5]" x="0" y="-40.64" length="middle" direction="io" rot="R0"/>
<pin name="RADIO_B_CSN" x="7.62" y="-68.58" length="middle" direction="io" rot="R90"/>
<pin name="RADIO_B_MOSI" x="10.16" y="-68.58" length="middle" direction="io" rot="R90"/>
<pin name="SP_VALID" x="12.7" y="-68.58" length="middle" direction="io" rot="R90"/>
<pin name="RADIO_B_SCK" x="15.24" y="-68.58" length="middle" direction="io" rot="R90"/>
<pin name="RADIO_CTRL[6]" x="17.78" y="-68.58" length="middle" direction="io" rot="R90"/>
<pin name="VCC_CORE_2" x="20.32" y="-68.58" length="middle" direction="io" rot="R90"/>
<pin name="GND_4" x="22.86" y="-68.58" length="middle" direction="io" rot="R90"/>
<pin name="GND_5" x="25.4" y="-68.58" length="middle" direction="io" rot="R90"/>
<pin name="RADIO_CTRL[7]" x="27.94" y="-68.58" length="middle" direction="io" rot="R90"/>
<pin name="RADIO_CTRL[8]" x="30.48" y="-68.58" length="middle" direction="io" rot="R90"/>
<pin name="RADIO_CTRL[9]" x="33.02" y="-68.58" length="middle" direction="io" rot="R90"/>
<pin name="RADIO_CTRL[10]" x="35.56" y="-68.58" length="middle" direction="io" rot="R90"/>
<pin name="VCC_IO_2" x="38.1" y="-68.58" length="middle" direction="io" rot="R90"/>
<pin name="RADIO_CTRL[11]" x="40.64" y="-68.58" length="middle" direction="io" rot="R90"/>
<pin name="RADIO_B_IQ[3]" x="43.18" y="-68.58" length="middle" direction="io" rot="R90"/>
<pin name="RADIO_B_MISO" x="45.72" y="-68.58" length="middle" direction="io" rot="R90"/>
<pin name="RADIO_B_CLK_I" x="48.26" y="-68.58" length="middle" direction="io" rot="R90"/>
<pin name="GPIO[10]" x="58.42" y="0" length="middle" direction="io" rot="R180"/>
<pin name="GPIO[11]" x="58.42" y="-2.54" length="middle" direction="io" rot="R180"/>
<pin name="RADIO_A_IQ[2]" x="58.42" y="-5.08" length="middle" direction="io" rot="R180"/>
<pin name="RADIO_A_IQ[4]" x="58.42" y="-7.62" length="middle" direction="io" rot="R180"/>
<pin name="VCC_IO_3" x="58.42" y="-10.16" length="middle" direction="io" rot="R180"/>
<pin name="GND_7" x="58.42" y="-12.7" length="middle" direction="io" rot="R180"/>
<pin name="RADIO_A_IQ[1]" x="58.42" y="-15.24" length="middle" direction="io" rot="R180"/>
<pin name="RADIO_A_IQ[0]" x="58.42" y="-17.78" length="middle" direction="io" rot="R180"/>
<pin name="RADIO_A_CLK_I" x="58.42" y="-20.32" length="middle" direction="io" rot="R180"/>
<pin name="RADIO_A_MISO" x="58.42" y="-22.86" length="middle" direction="io" rot="R180"/>
<pin name="RADIO_A_IQ[3]" x="58.42" y="-25.4" length="middle" direction="io" rot="R180"/>
<pin name="VCC_CORE_3" x="58.42" y="-27.94" length="middle" direction="io" rot="R180"/>
<pin name="GND_6" x="58.42" y="-30.48" length="middle" direction="io" rot="R180"/>
<pin name="RADIO_B_IQ[2]" x="58.42" y="-33.02" length="middle" direction="io" rot="R180"/>
<pin name="RADIO_B_IQ[4]" x="58.42" y="-35.56" length="middle" direction="io" rot="R180"/>
<pin name="RADIO_B_IQ[1]" x="58.42" y="-38.1" length="middle" direction="io" rot="R180"/>
<pin name="RADIO_B_IQ[0]" x="58.42" y="-40.64" length="middle" direction="io" rot="R180"/>
<pin name="GND_10" x="7.62" y="25.4" length="middle" direction="io" rot="R270"/>
<pin name="RADIO_A_CSN" x="10.16" y="25.4" length="middle" direction="io" rot="R270"/>
<pin name="RADIO_A_MOSI" x="12.7" y="25.4" length="middle" direction="io" rot="R270"/>
<pin name="GPIO[0]" x="15.24" y="25.4" length="middle" direction="io" rot="R270"/>
<pin name="RADIO_A_SCK" x="17.78" y="25.4" length="middle" direction="io" rot="R270"/>
<pin name="GPIO[1]" x="20.32" y="25.4" length="middle" direction="io" rot="R270"/>
<pin name="GPIO[2]" x="22.86" y="25.4" length="middle" direction="io" rot="R270"/>
<pin name="GND_9" x="25.4" y="25.4" length="middle" direction="io" rot="R270"/>
<pin name="VCC_IO_4" x="27.94" y="25.4" length="middle" direction="io" rot="R270"/>
<pin name="GPIO[3]" x="30.48" y="25.4" length="middle" direction="io" rot="R270"/>
<pin name="GPIO[4]" x="33.02" y="25.4" length="middle" direction="io" rot="R270"/>
<pin name="GPIO[5]" x="35.56" y="25.4" length="middle" direction="io" rot="R270"/>
<pin name="GPIO[6]" x="38.1" y="25.4" length="middle" direction="io" rot="R270"/>
<pin name="VCC_CORE_4" x="40.64" y="25.4" length="middle" direction="io" rot="R270"/>
<pin name="GND_8" x="43.18" y="25.4" length="middle" direction="io" rot="R270"/>
<pin name="GPIO[7]" x="45.72" y="25.4" length="middle" direction="io" rot="R270"/>
<pin name="GPIO[8]" x="48.26" y="25.4" length="middle" direction="io" rot="R270"/>
<pin name="GPIO[9]" x="50.8" y="25.4" length="middle" direction="io" rot="R270"/>
</symbol>
</symbols>
<devicesets>
<deviceset name="SX1302IMLTRT" prefix="IC">
<description>&lt;b&gt;RF Transceiver LoRa Gateway Baseband Transceiver&lt;/b&gt;&lt;p&gt;
Source: &lt;a href="https://semtech.my.salesforce.com/sfc/p/#E0000000JelG/a/2R000000HT9v/RZOhRxioNRLuliCj0BMkAJaN0x9h8HC49w4AKkfcuiE"&gt; Datasheet &lt;/a&gt;</description>
<gates>
<gate name="G$1" symbol="SX1302IMLTRT" x="0" y="0"/>
</gates>
<devices>
<device name="" package="QFN35P700X700X80-69N">
<connects>
<connect gate="G$1" pin="HOST_CSN" pad="1"/>
<connect gate="G$1" pin="HOST_MISO" pad="2"/>
<connect gate="G$1" pin="HOST_MOSI" pad="3"/>
<connect gate="G$1" pin="HOST_SCK" pad="4"/>
<connect gate="G$1" pin="VCC_CORE_1" pad="5"/>
<connect gate="G$1" pin="GND_1" pad="6"/>
<connect gate="G$1" pin="RESET" pad="7"/>
<connect gate="G$1" pin="PPS" pad="8"/>
<connect gate="G$1" pin="GND_2" pad="9"/>
<connect gate="G$1" pin="RADIO_CTRL[0]" pad="10"/>
<connect gate="G$1" pin="RADIO_CTRL[1]" pad="11"/>
<connect gate="G$1" pin="RADIO_CTRL[2]" pad="12"/>
<connect gate="G$1" pin="RADIO_CTRL[3]" pad="13"/>
<connect gate="G$1" pin="VCC_IO_1" pad="14"/>
<connect gate="G$1" pin="GND_3" pad="15"/>
<connect gate="G$1" pin="RADIO_CTRL[4]" pad="16"/>
<connect gate="G$1" pin="RADIO_CTRL[5]" pad="17"/>
<connect gate="G$1" pin="RADIO_B_CSN" pad="18"/>
<connect gate="G$1" pin="RADIO_B_MOSI" pad="19"/>
<connect gate="G$1" pin="SP_VALID" pad="20"/>
<connect gate="G$1" pin="RADIO_B_SCK" pad="21"/>
<connect gate="G$1" pin="RADIO_CTRL[6]" pad="22"/>
<connect gate="G$1" pin="VCC_CORE_2" pad="23"/>
<connect gate="G$1" pin="GND_4" pad="24"/>
<connect gate="G$1" pin="GND_5" pad="25"/>
<connect gate="G$1" pin="RADIO_CTRL[7]" pad="26"/>
<connect gate="G$1" pin="RADIO_CTRL[8]" pad="27"/>
<connect gate="G$1" pin="RADIO_CTRL[9]" pad="28"/>
<connect gate="G$1" pin="RADIO_CTRL[10]" pad="29"/>
<connect gate="G$1" pin="VCC_IO_2" pad="30"/>
<connect gate="G$1" pin="RADIO_CTRL[11]" pad="31"/>
<connect gate="G$1" pin="RADIO_B_IQ[3]" pad="32"/>
<connect gate="G$1" pin="RADIO_B_MISO" pad="33"/>
<connect gate="G$1" pin="RADIO_B_CLK_I" pad="34"/>
<connect gate="G$1" pin="RADIO_B_IQ[0]" pad="35"/>
<connect gate="G$1" pin="RADIO_B_IQ[1]" pad="36"/>
<connect gate="G$1" pin="RADIO_B_IQ[4]" pad="37"/>
<connect gate="G$1" pin="RADIO_B_IQ[2]" pad="38"/>
<connect gate="G$1" pin="GND_6" pad="39"/>
<connect gate="G$1" pin="VCC_CORE_3" pad="40"/>
<connect gate="G$1" pin="RADIO_A_IQ[3]" pad="41"/>
<connect gate="G$1" pin="RADIO_A_MISO" pad="42"/>
<connect gate="G$1" pin="RADIO_A_CLK_I" pad="43"/>
<connect gate="G$1" pin="RADIO_A_IQ[0]" pad="44"/>
<connect gate="G$1" pin="RADIO_A_IQ[1]" pad="45"/>
<connect gate="G$1" pin="GND_7" pad="46"/>
<connect gate="G$1" pin="VCC_IO_3" pad="47"/>
<connect gate="G$1" pin="RADIO_A_IQ[4]" pad="48"/>
<connect gate="G$1" pin="RADIO_A_IQ[2]" pad="49"/>
<connect gate="G$1" pin="GPIO[11]" pad="50"/>
<connect gate="G$1" pin="GPIO[10]" pad="51"/>
<connect gate="G$1" pin="GPIO[9]" pad="52"/>
<connect gate="G$1" pin="GPIO[8]" pad="53"/>
<connect gate="G$1" pin="GPIO[7]" pad="54"/>
<connect gate="G$1" pin="GND_8" pad="55"/>
<connect gate="G$1" pin="VCC_CORE_4" pad="56"/>
<connect gate="G$1" pin="GPIO[6]" pad="57"/>
<connect gate="G$1" pin="GPIO[5]" pad="58"/>
<connect gate="G$1" pin="GPIO[4]" pad="59"/>
<connect gate="G$1" pin="GPIO[3]" pad="60"/>
<connect gate="G$1" pin="VCC_IO_4" pad="61"/>
<connect gate="G$1" pin="GND_9" pad="62"/>
<connect gate="G$1" pin="GPIO[2]" pad="63"/>
<connect gate="G$1" pin="GPIO[1]" pad="64"/>
<connect gate="G$1" pin="RADIO_A_SCK" pad="65"/>
<connect gate="G$1" pin="GPIO[0]" pad="66"/>
<connect gate="G$1" pin="RADIO_A_MOSI" pad="67"/>
<connect gate="G$1" pin="RADIO_A_CSN" pad="68"/>
<connect gate="G$1" pin="GND_10" pad="69"/>
</connects>
<technologies>
<technology name="">
<attribute name="Manufacturer_Name" value="SEMTECH" constant="no"/>
<attribute name="Manufacturer_Part_Number" value="SX1302IMLTRT" constant="no"/>
<attribute name="Mouser_Part_Number" value="947-SX1302IMLTRT" constant="no"/>
<attribute name="Mouser_Price-Stock" value="https://www.mouser.com/Search/Refine.aspx?Keyword=947-SX1302IMLTRT" constant="no"/>
<attribute name="RS_Part_Number" value="" constant="no"/>
<attribute name="RS_Price-Stock" value="" constant="no"/>
<attribute name="Description" value="RF Transceiver LoRa Gateway Baseband Transceiver" constant="no"/>
<attribute name="Height" value="0.8mm" constant="no"/>
</technology>
</technologies>
</device>
</devices>
</deviceset>
</devicesets>
</library>
</drawing>
</eagle>
