PCBNEW-LibModule-V1  2020-02-06 15:38:25
# encoding utf-8
Units mm
$INDEX
NX3215SA32768KEXS00AMU00003
$EndINDEX
$MODULE NX3215SA32768KEXS00AMU00003
Po 0 0 0 15 5e3c32f1 00000000 ~~
Li NX3215SA32768KEXS00AMU00003
Cd NX3215SA-32.768K-EXS00A-MU00003
Kw Crystal or Oscillator
Sc 0
At SMD
AR 
Op 0 0 0
T0 0.000 -0 1.27 1.27 0 0.254 N V 21 N "Y**"
T1 0.000 -0 1.27 1.27 0 0.254 N I 21 N "NX3215SA32768KEXS00AMU00003"
DS -1.6 -0.75 1.6 -0.75 0.2 24
DS 1.6 -0.75 1.6 0.75 0.2 24
DS 1.6 0.75 -1.6 0.75 0.2 24
DS -1.6 0.75 -1.6 -0.75 0.2 24
DS -2.75 -1.9 2.75 -1.9 0.1 24
DS 2.75 -1.9 2.75 1.9 0.1 24
DS 2.75 1.9 -2.75 1.9 0.1 24
DS -2.75 1.9 -2.75 -1.9 0.1 24
DS -0.5 0.75 0.5 0.75 0.1 21
DS -0.5 -0.75 0.5 -0.75 0.1 21
DS -2.3 -0.1 -2.3 -0.1 0.2 21
DS -2.3 0.1 -2.3 0.1 0.2 21
DA -2.3 -0 -2.300 -0.1 -1800 0.2 21
DA -2.3 -0 -2.300 0.1 -1800 0.2 21
$PAD
Po -1.250 -0
Sh "1" R 1.000 1.800 0 0 0
At SMD N 00888000
Ne 0 ""
$EndPAD
$PAD
Po 1.250 -0
Sh "2" R 1.000 1.800 0 0 0
At SMD N 00888000
Ne 0 ""
$EndPAD
$EndMODULE NX3215SA32768KEXS00AMU00003
$EndLIBRARY
