PCBNEW-LibModule-V1  2020-06-12 13:22:05
# encoding utf-8
Units mm
$INDEX
SOP254P1016X385-4N
$EndINDEX
$MODULE SOP254P1016X385-4N
Po 0 0 0 15 5ee3736d 00000000 ~~
Li SOP254P1016X385-4N
Cd FOD817AS-1
Kw Phototransistor
Sc 0
At SMD
AR 
Op 0 0 0
T0 0 0 1.27 1.27 0 0.254 N V 21 N "Q**"
T1 0 0 1.27 1.27 0 0.254 N I 21 N "SOP254P1016X385-4N"
DS -5.85 -2.8 5.85 -2.8 0.05 24
DS 5.85 -2.8 5.85 2.8 0.05 24
DS 5.85 2.8 -5.85 2.8 0.05 24
DS -5.85 2.8 -5.85 -2.8 0.05 24
DS -3.25 -2.3 3.25 -2.3 0.1 24
DS 3.25 -2.3 3.25 2.3 0.1 24
DS 3.25 2.3 -3.25 2.3 0.1 24
DS -3.25 2.3 -3.25 -2.3 0.1 24
DS -3.25 0.24 -0.71 -2.3 0.1 24
DS -3.15 -2.3 3.15 -2.3 0.2 21
DS 3.15 -2.3 3.15 2.3 0.2 21
DS 3.15 2.3 -3.15 2.3 0.2 21
DS -3.15 2.3 -3.15 -2.3 0.2 21
DS -5.6 -2.37 -3.5 -2.37 0.2 21
$PAD
Po -4.55 -1.27
Sh "1" R 1.5 2.1 0 0 900
At SMD N 00888000
Ne 0 ""
$EndPAD
$PAD
Po -4.55 1.27
Sh "2" R 1.5 2.1 0 0 900
At SMD N 00888000
Ne 0 ""
$EndPAD
$PAD
Po 4.55 1.27
Sh "3" R 1.5 2.1 0 0 900
At SMD N 00888000
Ne 0 ""
$EndPAD
$PAD
Po 4.55 -1.27
Sh "4" R 1.5 2.1 0 0 900
At SMD N 00888000
Ne 0 ""
$EndPAD
$EndMODULE SOP254P1016X385-4N
$EndLIBRARY
