PCBNEW-LibModule-V1  2020-06-10 19:36:23
# encoding utf-8
Units mm
$INDEX
POE13P50LD
$EndINDEX
$MODULE POE13P50LD
Po 0 0 0 15 5ee12827 00000000 ~~
Li POE13P50LD
Cd POE13P-50LD-2
Kw Transformer
Sc 0
At SMD
AR 
Op 0 0 0
T0 0.000 -0 1.27 1.27 0 0.254 N V 21 N "T**"
T1 0.000 -0 1.27 1.27 0 0.254 N I 21 N "POE13P50LD"
DS -6.5 -6.73 6.5 -6.73 0.2 24
DS 6.5 -6.73 6.5 6.73 0.2 24
DS 6.5 6.73 -6.5 6.73 0.2 24
DS -6.5 6.73 -6.5 -6.73 0.2 24
DS -6.5 -6.73 6.5 -6.73 0.1 21
DS 6.5 -6.73 6.5 6.73 0.1 21
DS 6.5 6.73 -6.5 6.73 0.1 21
DS -6.5 6.73 -6.5 -6.73 0.1 21
DS -10.025 -7.23 10.025 -7.23 0.1 24
DS 10.025 -7.23 10.025 7.23 0.1 24
DS 10.025 7.23 -10.025 7.23 0.1 24
DS -10.025 7.23 -10.025 -7.23 0.1 24
DS -8.6 6.2 -8.6 6.2 0.2 21
DS -8.4 6.2 -8.4 6.2 0.2 21
DA -8.5 6.2 -8.600 6.2 -1800 0.2 21
DA -8.5 6.2 -8.400 6.2 -1800 0.2 21
$PAD
Po -8.510 5
Sh "1" R 1.270 2.030 0 0 900
At SMD N 00888000
Ne 0 ""
$EndPAD
$PAD
Po -8.510 2.5
Sh "2" R 1.270 2.030 0 0 900
At SMD N 00888000
Ne 0 ""
$EndPAD
$PAD
Po -8.510 -0
Sh "3" R 1.270 2.030 0 0 900
At SMD N 00888000
Ne 0 ""
$EndPAD
$PAD
Po -8.510 -2.5
Sh "4" R 1.270 2.030 0 0 900
At SMD N 00888000
Ne 0 ""
$EndPAD
$PAD
Po -8.510 -5
Sh "5" R 1.270 2.030 0 0 900
At SMD N 00888000
Ne 0 ""
$EndPAD
$PAD
Po 8.510 -5
Sh "6" R 1.270 2.030 0 0 900
At SMD N 00888000
Ne 0 ""
$EndPAD
$PAD
Po 8.510 -2.5
Sh "7" R 1.270 2.030 0 0 900
At SMD N 00888000
Ne 0 ""
$EndPAD
$PAD
Po 8.510 -0
Sh "8" R 1.270 2.030 0 0 900
At SMD N 00888000
Ne 0 ""
$EndPAD
$PAD
Po 8.510 2.5
Sh "9" R 1.270 2.030 0 0 900
At SMD N 00888000
Ne 0 ""
$EndPAD
$PAD
Po 8.510 5
Sh "10" R 1.270 2.030 0 0 900
At SMD N 00888000
Ne 0 ""
$EndPAD
$EndMODULE POE13P50LD
$EndLIBRARY
