PCBNEW-LibModule-V1  2020-06-12 18:32:53
# encoding utf-8
Units mm
$INDEX
SOT95P237X122-3N
$EndINDEX
$MODULE SOT95P237X122-3N
Po 0 0 0 15 5ee3bc45 00000000 ~~
Li SOT95P237X122-3N
Cd sot-23-1-ren1
Kw MOSFET (N-Channel)
Sc 0
At SMD
AR 
Op 0 0 0
T0 0 0 1.27 1.27 0 0.254 N V 21 N "Q**"
T1 0 0 1.27 1.27 0 0.254 N I 21 N "SOT95P237X122-3N"
DS -1.95 -1.77 1.95 -1.77 0.05 24
DS 1.95 -1.77 1.95 1.77 0.05 24
DS 1.95 1.77 -1.95 1.77 0.05 24
DS -1.95 1.77 -1.95 -1.77 0.05 24
DS -0.65 -1.46 0.65 -1.46 0.1 24
DS 0.65 -1.46 0.65 1.46 0.1 24
DS 0.65 1.46 -0.65 1.46 0.1 24
DS -0.65 1.46 -0.65 -1.46 0.1 24
DS -0.65 -0.51 0.3 -1.46 0.1 24
DS -0.15 -1.46 0.15 -1.46 0.2 21
DS 0.15 -1.46 0.15 1.46 0.2 21
DS 0.15 1.46 -0.15 1.46 0.2 21
DS -0.15 1.46 -0.15 -1.46 0.2 21
DS -1.7 -1.5 -0.5 -1.5 0.2 21
$PAD
Po -1.1 -0.95
Sh "1" R 0.6 1.2 0 0 900
At SMD N 00888000
Ne 0 ""
$EndPAD
$PAD
Po -1.1 0.95
Sh "2" R 0.6 1.2 0 0 900
At SMD N 00888000
Ne 0 ""
$EndPAD
$PAD
Po 1.1 0
Sh "3" R 0.6 1.2 0 0 900
At SMD N 00888000
Ne 0 ""
$EndPAD
$EndMODULE SOT95P237X122-3N
$EndLIBRARY
