PCBNEW-LibModule-V1  2020-02-05 13:33:29
# encoding utf-8
Units mm
$INDEX
POE13F12LD
$EndINDEX
$MODULE POE13F12LD
Po 0 0 0 15 5e3ac429 00000000 ~~
Li POE13F12LD
Cd POE13F-12LD-2
Kw Transformer
Sc 0
At SMD
AR 
Op 0 0 0
T0 -0.565 -0 1.27 1.27 0 0.254 N V 21 N "T**"
T1 -0.565 -0 1.27 1.27 0 0.254 N I 21 N "POE13F12LD"
DS -7.49 8.6 7.49 8.6 0.2 24
DS 7.49 8.6 7.49 -8.6 0.2 24
DS 7.49 -8.6 -7.49 -8.6 0.2 24
DS -7.49 -8.6 -7.49 8.6 0.2 24
DS -7.49 -8.6 7.49 -8.6 0.1 21
DS 7.49 -8.6 7.49 8.6 0.1 21
DS 7.49 8.6 -7.49 8.6 0.1 21
DS -7.49 8.6 -7.49 -8.6 0.1 21
DS -14 -9.6 12.87 -9.6 0.1 24
DS 12.87 -9.6 12.87 9.6 0.1 24
DS 12.87 9.6 -14 9.6 0.1 24
DS -14 9.6 -14 -9.6 0.1 24
DS -13 -6.3 -13 -6.3 0.2 21
DS -12.9 -6.3 -12.9 -6.3 0.2 21
DS -13 -6.3 -13 -6.3 0.2 21
DA -12.95 -6.3 -13.000 -6.3 -1800 0.2 21
DA -12.95 -6.3 -12.900 -6.3 -1800 0.2 21
DA -12.95 -6.3 -13.000 -6.3 -1800 0.2 21
$PAD
Po -10.155 -6.25
Sh "1" R 1.790 3.430 0 0 900
At SMD N 00888000
Ne 0 ""
$EndPAD
$PAD
Po -10.155 -3.75
Sh "2" R 1.790 3.430 0 0 900
At SMD N 00888000
Ne 0 ""
$EndPAD
$PAD
Po -10.155 -1.25
Sh "3" R 1.790 3.430 0 0 900
At SMD N 00888000
Ne 0 ""
$EndPAD
$PAD
Po -10.155 3.75
Sh "5" R 1.790 3.430 0 0 900
At SMD N 00888000
Ne 0 ""
$EndPAD
$PAD
Po -10.155 6.25
Sh "6" R 1.790 3.430 0 0 900
At SMD N 00888000
Ne 0 ""
$EndPAD
$PAD
Po 10.155 6.25
Sh "7" R 1.790 3.430 0 0 900
At SMD N 00888000
Ne 0 ""
$EndPAD
$PAD
Po 10.155 3.75
Sh "8" R 1.790 3.430 0 0 900
At SMD N 00888000
Ne 0 ""
$EndPAD
$PAD
Po 10.155 -1.25
Sh "10" R 1.790 3.430 0 0 900
At SMD N 00888000
Ne 0 ""
$EndPAD
$PAD
Po 10.155 -3.75
Sh "11" R 1.790 3.430 0 0 900
At SMD N 00888000
Ne 0 ""
$EndPAD
$PAD
Po 10.155 -6.25
Sh "12" R 1.790 3.430 0 0 900
At SMD N 00888000
Ne 0 ""
$EndPAD
$EndMODULE POE13F12LD
$EndLIBRARY
