PCBNEW-LibModule-V1  2020-02-12 17:22:20
# encoding utf-8
Units mm
$INDEX
B39921B4344P810
$EndINDEX
$MODULE B39921B4344P810
Po 0 0 0 15 5e44344c 00000000 ~~
Li B39921B4344P810
Cd B39921B4344P810-4
Kw Filter
Sc 0
At SMD
AR 
Op 0 0 0
T0 -0.325 -0 1.27 1.27 0 0.254 N V 21 N "FL**"
T1 -0.325 -0 1.27 1.27 0 0.254 N I 21 N "B39921B4344P810"
DS -0.7 -0.55 0.7 -0.55 0.2 24
DS 0.7 -0.55 0.7 0.55 0.2 24
DS 0.7 0.55 -0.7 0.55 0.2 24
DS -0.7 0.55 -0.7 -0.55 0.2 24
DS -1.85 -1.05 1.2 -1.05 0.1 24
DS 1.2 -1.05 1.2 1.05 0.1 24
DS 1.2 1.05 -1.85 1.05 0.1 24
DS -1.85 1.05 -1.85 -1.05 0.1 24
DS -1.25 -0.1 -1.25 -0.1 0.2 21
DS -1.25 0.1 -1.25 0.1 0.2 21
DS -0.7 -0.4 -0.7 -0.55 0.1 21
DS -0.7 -0.55 -0.4 -0.55 0.1 21
DS -0.7 0.4 -0.7 0.55 0.1 21
DS -0.7 0.55 -0.4 0.55 0.1 21
DA -1.25 -0 -1.250 -0.1 -1800 0.2 21
DA -1.25 -0 -1.250 0.1 -1800 0.2 21
$PAD
Po -0.500 -0
Sh "1" R 0.300 0.375 0 0 0
At SMD N 00888000
Ne 0 ""
$EndPAD
$PAD
Po 0.000 0.287
Sh "2" R 0.300 0.375 0 0 0
At SMD N 00888000
Ne 0 ""
$EndPAD
$PAD
Po 0.500 0.287
Sh "3" R 0.300 0.375 0 0 0
At SMD N 00888000
Ne 0 ""
$EndPAD
$PAD
Po 0.500 -0.287
Sh "4" R 0.300 0.375 0 0 0
At SMD N 00888000
Ne 0 ""
$EndPAD
$PAD
Po 0.000 -0.287
Sh "5" R 0.300 0.375 0 0 0
At SMD N 00888000
Ne 0 ""
$EndPAD
$EndMODULE B39921B4344P810
$EndLIBRARY
