PCBNEW-LibModule-V1  2020-02-12 13:54:03
# encoding utf-8
Units mm
$INDEX
SKY6629711
$EndINDEX
$MODULE SKY6629711
Po 0 0 0 15 5e44037b 00000000 ~~
Li SKY6629711
Cd SKY66297-11-2
Kw Integrated Circuit
Sc 0
At SMD
AR 
Op 0 0 0
T0 -0.200 -0 1.27 1.27 0 0.254 N V 21 N "IC**"
T1 -0.200 -0 1.27 1.27 0 0.254 N I 21 N "SKY6629711"
DS -2.5 -2.5 2.5 -2.5 0.2 24
DS 2.5 -2.5 2.5 2.5 0.2 24
DS 2.5 2.5 -2.5 2.5 0.2 24
DS -2.5 2.5 -2.5 -2.5 0.2 24
DS -4.05 -3.65 3.65 -3.65 0.1 24
DS 3.65 -3.65 3.65 3.65 0.1 24
DS 3.65 3.65 -4.05 3.65 0.1 24
DS -4.05 3.65 -4.05 -3.65 0.1 24
DS 1.6 -2.5 2.5 -2.5 0.1 21
DS 2.5 -2.5 2.5 -1.8 0.1 21
DS -1.6 -2.5 -2.5 -2.5 0.1 21
DS -2.5 -2.5 -2.5 -1.6 0.1 21
DS 2.5 1.6 2.5 2.5 0.1 21
DS 2.5 2.5 1.6 2.5 0.1 21
DS -2.5 1.6 -2.5 2.5 0.1 21
DS -2.5 2.5 -1.6 2.5 0.1 21
DS -3 -1.2 -3 -1.2 0.1 21
DS -3 -1.3 -3 -1.3 0.1 21
DA -3 -1.25 -3.000 -1.2 -1800 0.1 21
DA -3 -1.25 -3.000 -1.3 -1800 0.1 21
$PAD
Po -2.315 -1.2
Sh "1" R 0.500 0.670 0 0 900
At SMD N 00888000
Ne 0 ""
$EndPAD
$PAD
Po -2.315 -0.4
Sh "2" R 0.500 0.670 0 0 900
At SMD N 00888000
Ne 0 ""
$EndPAD
$PAD
Po -2.315 0.4
Sh "3" R 0.500 0.670 0 0 900
At SMD N 00888000
Ne 0 ""
$EndPAD
$PAD
Po -2.315 1.2
Sh "4" R 0.500 0.670 0 0 900
At SMD N 00888000
Ne 0 ""
$EndPAD
$PAD
Po -1.200 2.315
Sh "5" R 0.500 0.670 0 0 0
At SMD N 00888000
Ne 0 ""
$EndPAD
$PAD
Po -0.400 2.315
Sh "6" R 0.500 0.670 0 0 0
At SMD N 00888000
Ne 0 ""
$EndPAD
$PAD
Po 0.400 2.315
Sh "7" R 0.500 0.670 0 0 0
At SMD N 00888000
Ne 0 ""
$EndPAD
$PAD
Po 1.200 2.315
Sh "8" R 0.500 0.670 0 0 0
At SMD N 00888000
Ne 0 ""
$EndPAD
$PAD
Po 2.315 1.2
Sh "9" R 0.500 0.670 0 0 900
At SMD N 00888000
Ne 0 ""
$EndPAD
$PAD
Po 2.315 0.4
Sh "10" R 0.500 0.670 0 0 900
At SMD N 00888000
Ne 0 ""
$EndPAD
$PAD
Po 2.315 -0.4
Sh "11" R 0.500 0.670 0 0 900
At SMD N 00888000
Ne 0 ""
$EndPAD
$PAD
Po 2.315 -1.2
Sh "12" R 0.500 0.670 0 0 900
At SMD N 00888000
Ne 0 ""
$EndPAD
$PAD
Po 1.200 -2.315
Sh "13" R 0.500 0.670 0 0 0
At SMD N 00888000
Ne 0 ""
$EndPAD
$PAD
Po 0.400 -2.315
Sh "14" R 0.500 0.670 0 0 0
At SMD N 00888000
Ne 0 ""
$EndPAD
$PAD
Po -0.400 -2.315
Sh "15" R 0.500 0.670 0 0 0
At SMD N 00888000
Ne 0 ""
$EndPAD
$PAD
Po -1.200 -2.315
Sh "16" R 0.500 0.670 0 0 0
At SMD N 00888000
Ne 0 ""
$EndPAD
$PAD
Po -1.000 -1
Sh "17" R 0.875 0.875 0 0 0
At SMD N 00888000
Ne 0 ""
$EndPAD
$PAD
Po 0.000 -1
Sh "18" R 0.875 0.875 0 0 0
At SMD N 00888000
Ne 0 ""
$EndPAD
$PAD
Po 1.000 -1
Sh "19" R 0.875 0.875 0 0 0
At SMD N 00888000
Ne 0 ""
$EndPAD
$PAD
Po -1.000 -0
Sh "20" R 0.875 0.875 0 0 0
At SMD N 00888000
Ne 0 ""
$EndPAD
$PAD
Po 0.000 -0
Sh "21" R 0.875 0.875 0 0 0
At SMD N 00888000
Ne 0 ""
$EndPAD
$PAD
Po 1.000 -0
Sh "22" R 0.875 0.875 0 0 0
At SMD N 00888000
Ne 0 ""
$EndPAD
$PAD
Po -1.000 1
Sh "23" R 0.875 0.875 0 0 0
At SMD N 00888000
Ne 0 ""
$EndPAD
$PAD
Po 0.000 1
Sh "24" R 0.875 0.875 0 0 0
At SMD N 00888000
Ne 0 ""
$EndPAD
$PAD
Po 1.000 1
Sh "25" R 0.875 0.875 0 0 0
At SMD N 00888000
Ne 0 ""
$EndPAD
$EndMODULE SKY6629711
$EndLIBRARY
