!PADS-POWERPCB-V9.5-METRIC! DESIGN DATABASE ASCII FILE 1.0
*PARTDECAL*  ITEMS

CAPAE530X610N M 0 0 4 2 1 0 2
CLOSED 5 0.05 0 20
-4.55 3.25
4.55 3.25
4.55 -3.25
-4.55 -3.25
-4.55 3.25
CLOSED 7 0.1 0 27
2.65 2.65
-1.325 2.65
-2.65 1.325
-2.65 -1.325
-1.325 -2.65
2.65 -2.65
2.65 2.65
OPEN 2 0.2 0 26
-4.05 2.65
2.65 2.65
OPEN 2 0.2 0 26
-1.325 -2.65
2.65 -2.65
VALUE 0 0 0 1 1.27 0.127 N LEFT DOWN
Regular <Romansim Stroke Font>
Ref.Des.
VALUE 0 0 0 1 1.27 0.127 N LEFT UP
Regular <Romansim Stroke Font>
Part Type
T-2.55 0 -2.55 0 1
T2.55 0 2.55 0 2
PAD 0 3
-2 1.8 RF 0 3 0 0 0 N
-1 0 R
0 0 R

*END*     OF ASCII OUTPUT FILE
