M48
; DRILL file {KiCad 5.1.6-c6e7f7d~87~ubuntu18.04.1} date Fri Jul 24 15:14:19 2020
; FORMAT={-:-/ absolute / metric / decimal}
; #@! TF.CreationDate,2020-07-24T15:14:19-03:00
; #@! TF.GenerationSoftware,Kicad,Pcbnew,5.1.6-c6e7f7d~87~ubuntu18.04.1
; #@! TF.FileFunction,Plated,1,2,PTH
FMAT,2
METRIC
T1C0.400
T2C1.100
%
G90
G05
T1
X32.233Y-33.401
X34.976Y-41.25
X35.001Y-28.245
X36.258Y-24.511
X36.386Y-44.514
X37.795Y-29.185
X37.821Y-26.924
X40.31Y-29.185
X41.719Y-43.688
X46.418Y-23.622
X46.736Y-38.862
X49.685Y-58.89
X50.419Y-44.133
X55.307Y-34.456
X55.931Y-28.829
X57.34Y-50.546
X57.748Y-20.547
X57.948Y-47.966
X61.531Y-27.368
X65.354Y-45.212
X65.735Y-60.49
X67.754Y-60.008
X69.139Y-35.56
X73.724Y-45.593
X80.285Y-56.94
X87.135Y-56.79
X90.535Y-59.79
X93.435Y-59.54
X94.685Y-60.74
X98.085Y-57.69
X98.435Y-56.621
X99.435Y-57.59
X109.535Y-60.14
X112.035Y-58.89
X117.272Y-57.252
T2
X122.985Y-57.49
X122.985Y-60.03
X35.886Y-55.774
X35.886Y-58.314
X38.426Y-55.774
X38.426Y-58.314
X40.966Y-55.774
X40.966Y-58.314
T0
M30
