PCBNEW-LibModule-V1  2020-02-04 17:44:01
# encoding utf-8
Units mm
$INDEX
MP8007GVZ
$EndINDEX
$MODULE MP8007GVZ
Po 0 0 0 15 5e39ad61 00000000 ~~
Li MP8007GVZ
Cd MP8007GV-Z-3
Kw Integrated Circuit
Sc 0
At SMD
AR 
Op 0 0 0
T0 -0.200 -0 1.27 1.27 0 0.254 N V 21 N "IC**"
T1 -0.200 -0 1.27 1.27 0 0.254 N I 21 N "MP8007GVZ"
DS -2.05 2.55 2.05 2.55 0.2 24
DS 2.05 2.55 2.05 -2.55 0.2 24
DS 2.05 -2.55 -2.05 -2.55 0.2 24
DS -2.05 -2.55 -2.05 2.55 0.2 24
DS -3.7 -3.8 3.3 -3.8 0.1 24
DS 3.3 -3.8 3.3 3.8 0.1 24
DS 3.3 3.8 -3.7 3.8 0.1 24
DS -3.7 3.8 -3.7 -3.8 0.1 24
DS -2.7 -1.8 -2.7 -1.8 0.2 21
DS -2.6 -1.8 -2.6 -1.8 0.2 21
DS -2.7 -1.8 -2.7 -1.8 0.2 21
DA -2.65 -1.8 -2.700 -1.8 -1800 0.2 21
DA -2.65 -1.8 -2.600 -1.8 -1800 0.2 21
DA -2.65 -1.8 -2.700 -1.8 -1800 0.2 21
$PAD
Po -1.950 -1.75
Sh "1" R 0.250 0.700 0 0 900
At SMD N 00888000
Ne 0 ""
$EndPAD
$PAD
Po -1.950 -1.25
Sh "2" R 0.250 0.700 0 0 900
At SMD N 00888000
Ne 0 ""
$EndPAD
$PAD
Po -1.950 -0.75
Sh "3" R 0.250 0.700 0 0 900
At SMD N 00888000
Ne 0 ""
$EndPAD
$PAD
Po -1.950 -0.25
Sh "4" R 0.250 0.700 0 0 900
At SMD N 00888000
Ne 0 ""
$EndPAD
$PAD
Po -1.950 0.25
Sh "5" R 0.250 0.700 0 0 900
At SMD N 00888000
Ne 0 ""
$EndPAD
$PAD
Po -1.950 0.75
Sh "6" R 0.250 0.700 0 0 900
At SMD N 00888000
Ne 0 ""
$EndPAD
$PAD
Po -1.950 1.25
Sh "7" R 0.250 0.700 0 0 900
At SMD N 00888000
Ne 0 ""
$EndPAD
$PAD
Po -1.950 1.75
Sh "8" R 0.250 0.700 0 0 900
At SMD N 00888000
Ne 0 ""
$EndPAD
$PAD
Po -1.250 2.45
Sh "9" R 0.250 0.700 0 0 0
At SMD N 00888000
Ne 0 ""
$EndPAD
$PAD
Po -0.750 2.45
Sh "10" R 0.250 0.700 0 0 0
At SMD N 00888000
Ne 0 ""
$EndPAD
$PAD
Po -0.250 2.45
Sh "11" R 0.250 0.700 0 0 0
At SMD N 00888000
Ne 0 ""
$EndPAD
$PAD
Po 0.250 2.45
Sh "12" R 0.250 0.700 0 0 0
At SMD N 00888000
Ne 0 ""
$EndPAD
$PAD
Po 0.750 2.45
Sh "13" R 0.250 0.700 0 0 0
At SMD N 00888000
Ne 0 ""
$EndPAD
$PAD
Po 1.250 2.45
Sh "14" R 0.250 0.700 0 0 0
At SMD N 00888000
Ne 0 ""
$EndPAD
$PAD
Po 1.950 1.75
Sh "15" R 0.250 0.700 0 0 900
At SMD N 00888000
Ne 0 ""
$EndPAD
$PAD
Po 1.950 1.25
Sh "16" R 0.250 0.700 0 0 900
At SMD N 00888000
Ne 0 ""
$EndPAD
$PAD
Po 1.950 0.75
Sh "17" R 0.250 0.700 0 0 900
At SMD N 00888000
Ne 0 ""
$EndPAD
$PAD
Po 1.950 0.25
Sh "18" R 0.250 0.700 0 0 900
At SMD N 00888000
Ne 0 ""
$EndPAD
$PAD
Po 1.950 -0.25
Sh "19" R 0.250 0.700 0 0 900
At SMD N 00888000
Ne 0 ""
$EndPAD
$PAD
Po 1.950 -0.75
Sh "20" R 0.250 0.700 0 0 900
At SMD N 00888000
Ne 0 ""
$EndPAD
$PAD
Po 1.950 -1.25
Sh "21" R 0.250 0.700 0 0 900
At SMD N 00888000
Ne 0 ""
$EndPAD
$PAD
Po 1.950 -1.75
Sh "22" R 0.250 0.700 0 0 900
At SMD N 00888000
Ne 0 ""
$EndPAD
$PAD
Po 1.250 -2.45
Sh "23" R 0.250 0.700 0 0 0
At SMD N 00888000
Ne 0 ""
$EndPAD
$PAD
Po 0.750 -2.45
Sh "24" R 0.250 0.700 0 0 0
At SMD N 00888000
Ne 0 ""
$EndPAD
$PAD
Po 0.250 -2.45
Sh "25" R 0.250 0.700 0 0 0
At SMD N 00888000
Ne 0 ""
$EndPAD
$PAD
Po -0.250 -2.45
Sh "26" R 0.250 0.700 0 0 0
At SMD N 00888000
Ne 0 ""
$EndPAD
$PAD
Po -0.750 -2.45
Sh "27" R 0.250 0.700 0 0 0
At SMD N 00888000
Ne 0 ""
$EndPAD
$PAD
Po -1.250 -2.45
Sh "28" R 0.250 0.700 0 0 0
At SMD N 00888000
Ne 0 ""
$EndPAD
$PAD
Po 0.000 -0
Sh "29" R 2.700 3.700 0 0 0
At SMD N 00888000
Ne 0 ""
$EndPAD
$EndMODULE MP8007GVZ
$EndLIBRARY
