EESchema Schematic File Version 4
EELAYER 30 0
EELAYER END
$Descr A2 23386 16535
encoding utf-8
Sheet 1 1
Title ""
Date ""
Rev ""
Comp ""
Comment1 ""
Comment2 ""
Comment3 ""
Comment4 ""
$EndDescr
$Comp
L Device:C C70
U 1 1 5FA4EC8B
P 14684 1282
F 0 "C70" V 14432 1282 50  0000 C CNN
F 1 "2200pf" V 14523 1282 50  0000 C CNN
F 2 "Capacitors_SMD:C_1812_4532Metric_Pad1.30x3.40mm_HandSolder" H 14722 1132 50  0001 C CNN
F 3 "~" H 14684 1282 50  0001 C CNN
F 4 "C4532X7R3D222K130KA " V 14684 1282 50  0001 C CNN "Manufacter N"
	1    14684 1282
	0    1    1    0   
$EndComp
$Comp
L power:GND #PWR0120
U 1 1 5FA503B0
P 15084 1482
F 0 "#PWR0120" H 15084 1232 50  0001 C CNN
F 1 "GND" H 15089 1309 50  0000 C CNN
F 2 "" H 15084 1482 50  0001 C CNN
F 3 "" H 15084 1482 50  0001 C CNN
	1    15084 1482
	1    0    0    -1  
$EndComp
Wire Wire Line
	14834 1282 14924 1282
Wire Wire Line
	15084 1282 15084 1482
Text Notes 8224 2167 0    197  ~ 0
POE
$Comp
L power:GNDPWR #PWR0165
U 1 1 61BB8723
P 14250 1709
F 0 "#PWR0165" H 14250 1509 50  0001 C CNN
F 1 "GNDPWR" H 14254 1555 50  0000 C CNN
F 2 "" H 14250 1659 50  0001 C CNN
F 3 "" H 14250 1659 50  0001 C CNN
	1    14250 1709
	1    0    0    -1  
$EndComp
Text Notes 14184 932  0    50   ~ 0
Acoplamento TERRAS\n
$Comp
L power:VCOM #PWR0168
U 1 1 62E17EC7
P 22550 750
F 0 "#PWR0168" H 22550 600 50  0001 C CNN
F 1 "VCOM" H 22567 923 50  0000 C CNN
F 2 "" H 22550 750 50  0001 C CNN
F 3 "" H 22550 750 50  0001 C CNN
	1    22550 750 
	1    0    0    -1  
$EndComp
$Comp
L PoEPowerBoard-rescue:TPS23753APWR-TPS23753APWR IC7
U 1 1 5EF4C620
P 7674 3467
F 0 "IC7" H 8224 3732 50  0000 C CNN
F 1 "TPS23753APWR" H 8224 3641 50  0000 C CNN
F 2 "TPS23753APWR:SOP65P640X120-14N" H 8624 3567 50  0001 L CNN
F 3 "http://www.ti.com/lit/gpn/tps23753a" H 8624 3467 50  0001 L CNN
F 4 "IEEE 802.3-2005 PoE Interface and Isolated Converter Controller with Enhanced ESD Ride-Through" H 8624 3367 50  0001 L CNN "Description"
F 5 "1.2" H 8624 3267 50  0001 L CNN "Height"
F 6 "Texas Instruments" H 8624 3167 50  0001 L CNN "Manufacturer_Name"
F 7 "TPS23753APWR" H 8624 3067 50  0001 L CNN "Manufacturer_Part_Number"
F 8 "TPS23753APWR" H 8624 2967 50  0001 L CNN "Arrow Part Number"
F 9 "https://www.arrow.com/en/products/tps23753apwr/texas-instruments" H 8624 2867 50  0001 L CNN "Arrow Price/Stock"
F 10 "595-TPS23753APWR" H 8624 2767 50  0001 L CNN "Mouser Part Number"
F 11 "https://www.mouser.co.uk/ProductDetail/Texas-Instruments/TPS23753APWR?qs=i6VRxKQL%2FYzzeXAQVxAzsw%3D%3D" H 8624 2667 50  0001 L CNN "Mouser Price/Stock"
	1    7674 3467
	1    0    0    -1  
$EndComp
$Comp
L PoEPowerBoard-rescue:SMAJ58A-13-F-SMAJ58A-13-F-Project0-rescue D1
U 1 1 5F9ACF45
P 4724 3767
F 0 "D1" V 4978 3895 50  0000 L CNN
F 1 "SMAJ58A-13-F" V 5069 3895 50  0000 L CNN
F 2 "SMAJ58A-13-F:DIOM5226X230N" H 5124 3917 50  0001 L BNN
F 3 "https://componentsearchengine.com/Datasheets/1/SMAJ58A-13-F.pdf" H 5124 3817 50  0001 L BNN
F 4 "Diodes Inc SMAJ58A-13-F, Uni-Directional TVS Diode, 400W, 2-Pin DO-214AC" H 5124 3717 50  0001 L BNN "Description"
F 5 "2.3" H 5124 3617 50  0001 L BNN "Height"
F 6 "Diodes Inc." H 5124 3517 50  0001 L BNN "Manufacturer_Name"
F 7 "SMAJ58A-13-F" H 5124 3417 50  0001 L BNN "Manufacter N"
F 8 "621-SMAJ58A-13-F" H 5124 3317 50  0001 L BNN "Mouser Part Number"
F 9 "https://www.mouser.com/Search/Refine.aspx?Keyword=621-SMAJ58A-13-F" H 5124 3217 50  0001 L BNN "Mouser Price/Stock"
F 10 "7515010P" H 5124 3117 50  0001 L BNN "RS Part Number"
F 11 "http://uk.rs-online.com/web/p/products/7515010P" H 5124 3017 50  0001 L BNN "RS Price/Stock"
F 12 "70438548" H 5124 2917 50  0001 L BNN "Allied_Number"
F 13 "https://www.alliedelec.com/diodes-inc-smaj58a-13-f/70438548/" H 5124 2817 50  0001 L BNN "Allied Price/Stock"
	1    4724 3767
	0    1    1    0   
$EndComp
$Comp
L Device:Ferrite_Bead FB8
U 1 1 5FBA189C
P 3474 3067
F 0 "FB8" V 3200 3067 50  0000 C CNN
F 1 "30 Ohm" V 3291 3067 50  0000 C CNN
F 2 "08051C104KAT2A:CAPC2012X140N" V 3404 3067 50  0001 C CNN
F 3 "~" H 3474 3067 50  0001 C CNN
F 4 "810-MMZ2012R300AT000" V 3474 3067 50  0001 C CNN "Manufacter N"
	1    3474 3067
	0    1    1    0   
$EndComp
$Comp
L Device:Ferrite_Bead FB9
U 1 1 5FC9DD29
P 3474 5217
F 0 "FB9" V 3200 5217 50  0000 C CNN
F 1 "30 Ohm" V 3291 5217 50  0000 C CNN
F 2 "08051C104KAT2A:CAPC2012X140N" V 3404 5217 50  0001 C CNN
F 3 "~" H 3474 5217 50  0001 C CNN
F 4 "810-MMZ2012R300AT000 " V 3474 5217 50  0001 C CNN "Manufacter N"
	1    3474 5217
	0    1    1    0   
$EndComp
Text GLabel 2374 3067 0    50   Input ~ 0
TR2
Text GLabel 2524 5217 0    50   Input ~ 0
TR3
Wire Wire Line
	3324 3067 2924 3067
Wire Wire Line
	3324 5217 2924 5217
Wire Wire Line
	4724 3067 4724 3767
Wire Wire Line
	4724 5217 4724 4367
Wire Wire Line
	4724 3067 5624 3067
Connection ~ 4724 3067
Wire Wire Line
	5624 5217 4724 5217
Connection ~ 4724 5217
$Comp
L Device:R_Small_US R40
U 1 1 6069FC04
P 9574 3417
F 0 "R40" V 9369 3417 50  0000 C CNN
F 1 "59.0K" V 9460 3417 50  0000 C CNN
F 2 "Resistor_SMD:R_0603_1608Metric_Pad1.05x0.95mm_HandSolder" H 9574 3417 50  0001 C CNN
F 3 "~" H 9574 3417 50  0001 C CNN
F 4 "CRCW060359K0FKEA" V 9574 3417 50  0001 C CNN "Manufacter N"
	1    9574 3417
	0    1    1    0   
$EndComp
$Comp
L Device:R_Small_US R41
U 1 1 606A10CA
P 9624 3767
F 0 "R41" V 9419 3767 50  0000 C CNN
F 1 "80.6K" V 9510 3767 50  0000 C CNN
F 2 "Resistor_SMD:R_0603_1608Metric_Pad1.05x0.95mm_HandSolder" H 9624 3767 50  0001 C CNN
F 3 "~" H 9624 3767 50  0001 C CNN
F 4 "CRCW060380K6FKEA" V 9624 3767 50  0001 C CNN "Manufacter N"
	1    9624 3767
	0    1    1    0   
$EndComp
Wire Wire Line
	9474 3417 8774 3417
Wire Wire Line
	8774 3417 8774 3467
Wire Wire Line
	9524 3767 9374 3767
Wire Wire Line
	9374 3767 9374 3567
Wire Wire Line
	9374 3567 8774 3567
Wire Wire Line
	9674 3417 9974 3417
Wire Wire Line
	10224 3417 10224 3613
Wire Wire Line
	9724 3767 9974 3767
Wire Wire Line
	9974 3767 9974 3417
Connection ~ 9974 3417
Wire Wire Line
	9974 3417 10224 3417
Wire Wire Line
	7674 3467 6924 3467
$Comp
L Device:C C35
U 1 1 617382A8
P 5624 4067
F 0 "C35" H 5739 4113 50  0000 L CNN
F 1 "0.1uF" H 5739 4022 50  0000 L CNN
F 2 "08051C104KAT2A:CAPC2012X140N" H 5662 3917 50  0001 C CNN
F 3 "~" H 5624 4067 50  0001 C CNN
F 4 "C0805C104K1RACTU" H 5624 4067 50  0001 C CNN "Manufacter N"
	1    5624 4067
	1    0    0    -1  
$EndComp
$Comp
L Device:C C37
U 1 1 61844736
P 6474 3817
F 0 "C37" H 6589 3863 50  0000 L CNN
F 1 "0.1uF" H 6589 3772 50  0000 L CNN
F 2 "Capacitors_SMD:C_0603_1608Metric_Pad1.05x0.95mm_HandSolder" H 6512 3667 50  0001 C CNN
F 3 "~" H 6474 3817 50  0001 C CNN
F 4 "C1608X7R1H104K" H 6474 3817 50  0001 C CNN "Manufacter N"
	1    6474 3817
	1    0    0    -1  
$EndComp
$Comp
L Device:C C54
U 1 1 6194F66D
P 11324 2817
F 0 "C54" H 11439 2863 50  0000 L CNN
F 1 "0.22uF" H 11439 2772 50  0000 L CNN
F 2 "Capacitors_SMD:C_0805_2012Metric_Pad1.15x1.40mm_HandSolder" H 11362 2667 50  0001 C CNN
F 3 "~" H 11324 2817 50  0001 C CNN
F 4 "08053C224KAT2A" H 11324 2817 50  0001 C CNN "Manufacter N"
	1    11324 2817
	1    0    0    -1  
$EndComp
$Comp
L Device:C C31
U 1 1 61739C6B
P 2924 4067
F 0 "C31" H 3039 4113 50  0000 L CNN
F 1 "1000pF" H 3039 4022 50  0000 L CNN
F 2 "08051C104KAT2A:CAPC2012X140N" H 2962 3917 50  0001 C CNN
F 3 "~" H 2924 4067 50  0001 C CNN
F 4 "08051C102KAT2A" H 2924 4067 50  0001 C CNN "Manufacter N"
	1    2924 4067
	1    0    0    -1  
$EndComp
Wire Wire Line
	5624 3067 5624 3917
Wire Wire Line
	5624 4217 5624 5217
Wire Wire Line
	7674 3567 6474 3567
Wire Wire Line
	6474 3567 6474 3667
Wire Wire Line
	6474 3967 6474 4067
Wire Wire Line
	7674 3767 7124 3767
Wire Wire Line
	7124 3767 7124 2667
Wire Wire Line
	7124 2667 11324 2667
Connection ~ 11324 2667
$Comp
L Device:D_Small_ALT D3
U 1 1 62F507BE
P 12174 2667
F 0 "D3" H 12174 2874 50  0000 C CNN
F 1 "FastSwitchDiode" H 12174 2783 50  0000 C CNN
F 2 "Diodes_SMD:D_SOT-23_ANK" V 12174 2667 50  0001 C CNN
F 3 "~" V 12174 2667 50  0001 C CNN
F 4 "BAS16-7-F" H 12174 2667 50  0001 C CNN "Manufacter N"
	1    12174 2667
	1    0    0    -1  
$EndComp
Wire Wire Line
	12074 2667 11874 2667
$Comp
L Device:R_Small_US R57
U 1 1 6306578D
P 13424 2667
F 0 "R57" V 13219 2667 50  0000 C CNN
F 1 "49.9k" V 13310 2667 50  0000 C CNN
F 2 "Resistor_SMD:R_0603_1608Metric_Pad1.05x0.95mm_HandSolder" H 13424 2667 50  0001 C CNN
F 3 "~" H 13424 2667 50  0001 C CNN
F 4 "CRCW060349R9FKEA" V 13424 2667 50  0001 C CNN "Manufacter N"
	1    13424 2667
	0    1    1    0   
$EndComp
$Comp
L PoEPowerBoard-rescue:POE13P-50LD-POE13P-50LD T1
U 1 1 634AFF9E
P 14374 2167
F 0 "T1" H 15024 2432 50  0000 C CNN
F 1 "POE13P-50LD" H 15024 2341 50  0000 C CNN
F 2 "Project0:POE13P50LD" H 15524 2267 50  0001 L CNN
F 3 "https://www.coilcraft.com/pdfs/poe_ep.pdf" H 15524 2167 50  0001 L CNN
F 4 "Audio Transformers / Signal Transformers POE13P Flyback PoE 127uH 5.0 V 2.6 A" H 15524 2067 50  0001 L CNN "Description"
F 5 "12.7" H 15524 1967 50  0001 L CNN "Height"
F 6 "COILCRAFT" H 15524 1867 50  0001 L CNN "Manufacturer_Name"
F 7 "POE13P-50LD" H 15524 1767 50  0001 L CNN "Manufacter N"
F 8 "POE13P-50LD" H 15524 1667 50  0001 L CNN "Arrow Part Number"
F 9 "" H 15524 1567 50  0001 L CNN "Arrow Price/Stock"
F 10 "994-POE13P-50LD" H 15524 1467 50  0001 L CNN "Mouser Part Number"
F 11 "https://www.mouser.co.uk/ProductDetail/Coilcraft/POE13P-50LD?qs=ZYnrCdKdyeddNNNVe24YVA%3D%3D" H 15524 1367 50  0001 L CNN "Mouser Price/Stock"
	1    14374 2167
	1    0    0    -1  
$EndComp
Wire Wire Line
	14374 2567 13924 2567
Wire Wire Line
	13924 2567 13924 2667
Wire Wire Line
	13924 2667 13524 2667
Wire Wire Line
	14374 2467 14274 2467
Wire Wire Line
	14274 2467 14274 2817
$Comp
L PoEPowerBoard-rescue:MURA120T3G-MURA120T3G D4
U 1 1 6390F490
P 12274 2117
F 0 "D4" H 12574 2382 50  0000 C CNN
F 1 "MURA120T3G" H 12574 2291 50  0000 C CNN
F 2 "MURA120T3G:DIOM5226X220N" H 12724 2117 50  0001 L CNN
F 3 "http://www.onsemi.com/pub/Collateral/MURA115T3-D.PDF" H 12724 2017 50  0001 L CNN
F 4 "" H 12724 1917 50  0001 L CNN "Description"
F 5 "2.2" H 12724 1817 50  0001 L CNN "Height"
F 6 "ON Semiconductor" H 12724 1717 50  0001 L CNN "Manufacturer_Name"
F 7 "MURA120T3G" H 12724 1617 50  0001 L CNN "Manufacter N"
F 8 "MURA120T3G" H 12724 1517 50  0001 L CNN "Arrow Part Number"
F 9 "https://www.arrow.com/en/products/mura120t3g/on-semiconductor" H 12724 1417 50  0001 L CNN "Arrow Price/Stock"
F 10 "863-MURA120T3G" H 12724 1317 50  0001 L CNN "Mouser Part Number"
F 11 "https://www.mouser.co.uk/ProductDetail/ON-Semiconductor/MURA120T3G?qs=Gev%252BmEvV0iYrsyIrWcjJxg%3D%3D" H 12724 1217 50  0001 L CNN "Mouser Price/Stock"
	1    12274 2117
	1    0    0    -1  
$EndComp
Wire Wire Line
	13324 2267 13324 2117
Wire Wire Line
	13324 2117 12874 2117
$Comp
L Device:C C59
U 1 1 63A27B8E
P 12074 1817
F 0 "C59" H 12189 1863 50  0000 L CNN
F 1 "0,01uF" H 12189 1772 50  0000 L CNN
F 2 "Capacitors_SMD:C_0805_2012Metric_Pad1.15x1.40mm_HandSolder" H 12112 1667 50  0001 C CNN
F 3 "~" H 12074 1817 50  0001 C CNN
F 4 "GRM21BR72A103KA01L" H 12074 1817 50  0001 C CNN "Manufacter N"
	1    12074 1817
	1    0    0    -1  
$EndComp
$Comp
L Device:C C45
U 1 1 642E66C3
P 8874 1967
F 0 "C45" H 8989 2013 50  0000 L CNN
F 1 "1uF" H 8989 1922 50  0000 L CNN
F 2 "Capacitors_SMD:C_1210_3225Metric_Pad1.42x2.65mm_HandSolder" H 8912 1817 50  0001 C CNN
F 3 "~" H 8874 1967 50  0001 C CNN
F 4 "C3225X7R2A105K200AA" H 8874 1967 50  0001 C CNN "Manufacter N"
	1    8874 1967
	1    0    0    -1  
$EndComp
$Comp
L Device:C C42
U 1 1 643FE02D
P 8524 1967
F 0 "C42" H 8639 2013 50  0000 L CNN
F 1 "1uF" H 8639 1922 50  0000 L CNN
F 2 "Capacitors_SMD:C_1210_3225Metric_Pad1.42x2.65mm_HandSolder" H 8562 1817 50  0001 C CNN
F 3 "~" H 8524 1967 50  0001 C CNN
F 4 "C3225X7R2A105K200AA" H 8524 1967 50  0001 C CNN "Manufacter N"
	1    8524 1967
	1    0    0    -1  
$EndComp
Wire Wire Line
	8874 1667 8874 1817
Wire Wire Line
	8524 1817 8524 1667
Connection ~ 8524 1667
Wire Wire Line
	8524 1667 8874 1667
Wire Wire Line
	8874 2117 8724 2117
$Comp
L Device:R_Small_US R34
U 1 1 64CDECB9
P 6524 2567
F 0 "R34" H 6592 2613 50  0000 L CNN
F 1 "24.9 k" H 6592 2522 50  0000 L CNN
F 2 "Resistor_SMD:R_0603_1608Metric_Pad1.05x0.95mm_HandSolder" H 6524 2567 50  0001 C CNN
F 3 "~" H 6524 2567 50  0001 C CNN
F 4 "CRCW060324K9FKEA" V 6524 2567 50  0001 C CNN "Manufacter N"
	1    6524 2567
	1    0    0    -1  
$EndComp
Wire Wire Line
	6524 2667 6524 3117
Wire Wire Line
	6524 2467 6524 1667
Wire Wire Line
	6524 1667 7124 1667
Wire Wire Line
	6524 3117 9224 3117
Wire Wire Line
	9224 3117 9224 3867
Wire Wire Line
	9224 3867 8774 3867
Wire Wire Line
	6524 1667 5624 1667
Wire Wire Line
	5624 1667 5624 3067
Connection ~ 6524 1667
Connection ~ 5624 3067
Wire Wire Line
	8774 3967 9324 3967
Wire Wire Line
	9324 4967 5974 4967
Wire Wire Line
	5974 4967 5974 3067
Wire Wire Line
	5974 3067 5624 3067
Wire Wire Line
	8774 4067 9324 4067
Wire Wire Line
	9324 3967 9324 4067
Connection ~ 9324 4067
Wire Wire Line
	9324 4067 9324 4967
$Comp
L Device:R_Small_US R43
U 1 1 6570C50A
P 10374 4317
F 0 "R43" V 10169 4317 50  0000 C CNN
F 1 "1.27k" V 10260 4317 50  0000 C CNN
F 2 "Resistor_SMD:R_0603_1608Metric_Pad1.05x0.95mm_HandSolder" H 10374 4317 50  0001 C CNN
F 3 "~" H 10374 4317 50  0001 C CNN
F 4 "CRCW06031K27FKEA" V 10374 4317 50  0001 C CNN "Manufacter N"
	1    10374 4317
	1    0    0    -1  
$EndComp
Wire Wire Line
	8774 3767 9274 3767
Wire Wire Line
	9274 3767 9274 3917
Wire Wire Line
	9274 3917 10374 3917
Wire Wire Line
	10374 3917 10374 4217
Wire Wire Line
	5624 5217 7674 5217
Connection ~ 5624 5217
Wire Wire Line
	7674 5217 10374 5217
Connection ~ 7674 5217
Wire Wire Line
	7674 4067 7674 5217
Wire Wire Line
	10374 4417 10374 5217
Wire Wire Line
	7174 3867 7174 4717
Wire Wire Line
	7174 4717 10974 4717
$Comp
L Device:R_Small_US R53
U 1 1 66515F3C
P 11874 5067
F 0 "R53" V 11669 5067 50  0000 C CNN
F 1 "0" V 11760 5067 50  0000 C CNN
F 2 "Resistor_SMD:R_0603_1608Metric_Pad1.05x0.95mm_HandSolder" H 11874 5067 50  0001 C CNN
F 3 "~" H 11874 5067 50  0001 C CNN
F 4 "CRCW06030000Z0EA" V 11874 5067 50  0001 C CNN "Manufacter N"
	1    11874 5067
	0    1    1    0   
$EndComp
Wire Wire Line
	7024 5067 7024 3667
Wire Wire Line
	7024 3667 7674 3667
Wire Wire Line
	12074 1667 12074 1617
Wire Wire Line
	8874 1617 8874 1667
Connection ~ 8874 1667
Wire Wire Line
	12074 1967 12074 2117
Wire Wire Line
	12074 2117 12274 2117
Wire Wire Line
	12274 2667 13324 2667
Wire Wire Line
	12724 2267 13324 2267
Connection ~ 13324 2267
Wire Wire Line
	13324 2267 14374 2267
Wire Wire Line
	7024 5067 11774 5067
Wire Wire Line
	12724 3267 12724 2267
$Comp
L Device:R_Small_US R56
U 1 1 6841956E
P 12724 5517
F 0 "R56" V 12519 5517 50  0000 C CNN
F 1 "0.56" V 12610 5517 50  0000 C CNN
F 2 "Resistor_SMD:R_1206_3216Metric_Pad1.42x1.75mm_HandSolder" H 12724 5517 50  0001 C CNN
F 3 "~" H 12724 5517 50  0001 C CNN
F 4 "ERJ-8RQFR56V" V 12724 5517 50  0001 C CNN "Manufacter N"
	1    12724 5517
	1    0    0    -1  
$EndComp
Wire Wire Line
	12724 5067 12724 5417
$Comp
L Device:C C69
U 1 1 68C8CF12
P 13624 4767
F 0 "C69" H 13739 4813 50  0000 L CNN
F 1 "330pF" H 13739 4722 50  0000 L CNN
F 2 "Capacitors_SMD:C_1206_3216Metric_Pad1.42x1.75mm_HandSolder" H 13662 4617 50  0001 C CNN
F 3 "~" H 13624 4767 50  0001 C CNN
F 4 "GRM31A5C2J331JW01D" H 13624 4767 50  0001 C CNN "Manufacter N"
	1    13624 4767
	1    0    0    -1  
$EndComp
Wire Wire Line
	13624 4917 13624 6117
Wire Wire Line
	13624 6117 13324 6117
Wire Wire Line
	12724 6117 12724 5617
Wire Wire Line
	13324 6117 13324 6367
Connection ~ 13324 6117
Wire Wire Line
	13324 6117 12724 6117
$Comp
L Device:R_Small_US R36
U 1 1 6929FE85
P 7224 5817
F 0 "R36" V 7019 5817 50  0000 C CNN
F 1 "499" V 7110 5817 50  0000 C CNN
F 2 "Resistor_SMD:R_0603_1608Metric_Pad1.05x0.95mm_HandSolder" H 7224 5817 50  0001 C CNN
F 3 "~" H 7224 5817 50  0001 C CNN
F 4 "CRCW0603499RFKEA" V 7224 5817 50  0001 C CNN "Manufacter N"
	1    7224 5817
	1    0    0    -1  
$EndComp
$Comp
L Device:R_Small_US R37
U 1 1 698BDA00
P 7424 5817
F 0 "R37" V 7219 5817 50  0000 C CNN
F 1 "2k" V 7310 5817 50  0000 C CNN
F 2 "Resistor_SMD:R_0603_1608Metric_Pad1.05x0.95mm_HandSolder" H 7424 5817 50  0001 C CNN
F 3 "~" H 7424 5817 50  0001 C CNN
F 4 "CRCW06032K00JNEAC " V 7424 5817 50  0001 C CNN "Manufacter N"
	1    7424 5817
	1    0    0    -1  
$EndComp
$Comp
L Device:C C41
U 1 1 699F7323
P 7224 6167
F 0 "C41" H 7339 6213 50  0000 L CNN
F 1 "0.022uF" H 7339 6122 50  0000 L CNN
F 2 "Capacitors_SMD:C_0603_1608Metric_Pad1.05x0.95mm_HandSolder" H 7262 6017 50  0001 C CNN
F 3 "~" H 7224 6167 50  0001 C CNN
F 4 "C1608X7R1H223K" H 7224 6167 50  0001 C CNN "Manufacter N"
	1    7224 6167
	1    0    0    -1  
$EndComp
Wire Wire Line
	7224 5917 7224 6017
Wire Wire Line
	7424 5717 7324 5717
Wire Wire Line
	6224 5567 6224 3567
Wire Wire Line
	6224 3567 6474 3567
Connection ~ 6474 3567
Wire Wire Line
	6924 6767 7224 6767
Wire Wire Line
	6924 3467 6924 6767
Wire Wire Line
	7424 5917 7424 6317
Wire Wire Line
	7424 6317 7224 6317
Wire Wire Line
	7224 6317 7224 6767
Connection ~ 7224 6317
Wire Wire Line
	7224 6767 7272 6767
Wire Wire Line
	6224 5567 7324 5567
Wire Wire Line
	7324 5567 7324 5717
Connection ~ 7324 5717
Wire Wire Line
	7324 5717 7224 5717
Wire Wire Line
	7251 7213 7250 7213
$Comp
L Device:R_Small_US R39
U 1 1 6B054870
P 9176 6517
F 0 "R39" V 8971 6517 50  0000 C CNN
F 1 "10k" V 9062 6517 50  0000 C CNN
F 2 "Resistor_SMD:R_0603_1608Metric_Pad1.05x0.95mm_HandSolder" H 9176 6517 50  0001 C CNN
F 3 "~" H 9176 6517 50  0001 C CNN
F 4 "RC0603JR-0710KL" V 9176 6517 50  0001 C CNN "Manufacter N"
	1    9176 6517
	1    0    0    -1  
$EndComp
$Comp
L Device:R_Small_US R42
U 1 1 6B2D342F
P 10146 8097
F 0 "R42" V 9941 8097 50  0000 C CNN
F 1 "19.1k" V 10032 8097 50  0000 C CNN
F 2 "Resistor_SMD:R_0603_1608Metric_Pad1.05x0.95mm_HandSolder" H 10146 8097 50  0001 C CNN
F 3 "~" H 10146 8097 50  0001 C CNN
F 4 "CRCW060319K1FKTA" V 10146 8097 50  0001 C CNN "Manufacter N"
	1    10146 8097
	0    -1   -1   0   
$EndComp
$Comp
L Device:C C49
U 1 1 6B413CF9
P 10646 8097
F 0 "C49" H 10761 8143 50  0000 L CNN
F 1 "8200pF" H 10761 8052 50  0000 L CNN
F 2 "Capacitors_SMD:C_0603_1608Metric_Pad1.05x0.95mm_HandSolder" H 10684 7947 50  0001 C CNN
F 3 "~" H 10646 8097 50  0001 C CNN
F 4 "GCD188R71H822KA01D" H 10646 8097 50  0001 C CNN "Manufacter N"
	1    10646 8097
	0    -1   -1   0   
$EndComp
$Comp
L Device:C C48
U 1 1 6B7D5FCD
P 10346 7747
F 0 "C48" H 10461 7793 50  0000 L CNN
F 1 "100pF" H 10461 7702 50  0000 L CNN
F 2 "Capacitors_SMD:C_0603_1608Metric_Pad1.05x0.95mm_HandSolder" H 10384 7597 50  0001 C CNN
F 3 "~" H 10346 7747 50  0001 C CNN
F 4 "06035A101JAT2A" H 10346 7747 50  0001 C CNN "Manufacter N"
	1    10346 7747
	0    -1   -1   0   
$EndComp
$Comp
L Device:C C46
U 1 1 6B915FA4
P 9176 7717
F 0 "C46" H 9291 7763 50  0000 L CNN
F 1 "1uF" H 9291 7672 50  0000 L CNN
F 2 "Capacitors_SMD:C_0805_2012Metric_Pad1.15x1.40mm_HandSolder" H 9214 7567 50  0001 C CNN
F 3 "~" H 9176 7717 50  0001 C CNN
F 4 "C2012X7R1C105K" H 9176 7717 50  0001 C CNN "Manufacter N"
	1    9176 7717
	-1   0    0    1   
$EndComp
Wire Wire Line
	10196 7747 10046 7747
Wire Wire Line
	10496 8097 10246 8097
Wire Wire Line
	10496 7747 10766 7747
Wire Wire Line
	10796 7747 10796 8097
Wire Wire Line
	9176 7867 9176 7967
$Comp
L Device:R_Small_US R45
U 1 1 6D7BEE72
P 10796 8987
F 0 "R45" V 10591 8987 50  0000 C CNN
F 1 "13.3k" V 10682 8987 50  0000 C CNN
F 2 "Resistor_SMD:R_0603_1608Metric_Pad1.05x0.95mm_HandSolder" H 10796 8987 50  0001 C CNN
F 3 "~" H 10796 8987 50  0001 C CNN
F 4 "CRCW060313K3FKEA" V 10796 8987 50  0001 C CNN "Manufacter N"
	1    10796 8987
	1    0    0    -1  
$EndComp
$Comp
L PoEPowerBoard-rescue:BAV99,215-BAV99_215 D2
U 1 1 6C1EAA25
P 8090 7569
F 0 "D2" V 9694 7697 50  0000 L CNN
F 1 "BAV99,215" V 9785 7697 50  0000 L CNN
F 2 "BAV99_215:SOT95P230X110-3N" H 11240 7669 50  0001 L CNN
F 3 "http://www.nxp.com/documents/data_sheet/BAV99_SER.pdf" H 11240 7569 50  0001 L CNN
F 4 "Diodes - General Purpose, Power, Switching SW DBL 75V 215MA HS" H 11240 7469 50  0001 L CNN "Description"
F 5 "1.1" H 11240 7369 50  0001 L CNN "Height"
F 6 "Nexperia" H 11240 7269 50  0001 L CNN "Manufacturer_Name"
F 7 "BAV99,215" H 11240 7169 50  0001 L CNN "Manufacter N"
F 8 "BAV99,215" H 11240 7069 50  0001 L CNN "Arrow Part Number"
F 9 "https://www.arrow.com/en/products/bav99215/nexperia" H 11240 6969 50  0001 L CNN "Arrow Price/Stock"
F 10 "771-BAV99-T/R" H 11240 6869 50  0001 L CNN "Mouser Part Number"
F 11 "https://www.mouser.co.uk/ProductDetail/Nexperia/BAV99215?qs=me8TqzrmIYWbN0bCKV3n5w%3D%3D" H 11240 6769 50  0001 L CNN "Mouser Price/Stock"
	1    8090 7569
	1    0    0    -1  
$EndComp
Wire Wire Line
	9176 5917 9176 6417
Wire Wire Line
	9176 6617 9176 7057
Wire Wire Line
	9616 6657 9616 6660
Wire Wire Line
	9616 7057 9176 7057
Connection ~ 9616 6660
Wire Wire Line
	9616 6660 9616 7057
Connection ~ 9176 7057
Wire Wire Line
	9176 7057 9176 7567
Wire Wire Line
	10001 8707 10006 8707
Wire Wire Line
	10796 8707 10796 8097
Connection ~ 10796 8097
$Comp
L PoEPowerBoard-rescue:TLV431ACDBZR-TLV431ACDBZR IC8
U 1 1 71244D20
P 10336 9257
F 0 "IC8" H 11075 9803 50  0000 L CNN
F 1 "TLV431ACDBZR" H 11075 9712 50  0000 L CNN
F 2 "TLV431ACDBZR:SOT95P237X112-3N" H 11216 9817 50  0001 L CNN
F 3 "http://www.ti.com/lit/gpn/tlv431a" H 11216 9717 50  0001 L CNN
F 4 "1% Accuracy Low-Voltage Adjustable Precision Shunt Regulator" H 11486 9157 50  0001 L CNN "Description"
F 5 "Texas Instruments" H 11486 8957 50  0001 L CNN "Manufacturer_Name"
F 6 "TLV431ACDBZR" H 11486 8857 50  0001 L CNN "Manufacter N"
F 7 "TLV431ACDBZR" H 11486 8757 50  0001 L CNN "Arrow Part Number"
F 8 "https://www.arrow.com/en/products/tlv431acdbzr/texas-instruments" H 11486 8657 50  0001 L CNN "Arrow Price/Stock"
F 9 "595-TLV431ACDBZR" H 11486 8557 50  0001 L CNN "Mouser Part Number"
F 10 "https://www.mouser.co.uk/ProductDetail/Texas-Instruments/TLV431ACDBZR?qs=m96fseALk3UFqurlruAFnw%3D%3D" H 11486 8457 50  0001 L CNN "Mouser Price/Stock"
	1    10336 9257
	-1   0    0    -1  
$EndComp
Connection ~ 10006 8707
Wire Wire Line
	10006 8707 10796 8707
Wire Wire Line
	9806 8522 9806 8517
Wire Wire Line
	9821 7752 10046 7752
Wire Wire Line
	10046 7747 10046 7752
Wire Wire Line
	9806 8517 9821 8517
Wire Wire Line
	9821 8517 9821 7752
Connection ~ 9806 8517
Wire Wire Line
	9806 8897 9806 8967
Wire Wire Line
	9806 8967 9436 8967
Wire Wire Line
	9436 7967 9176 7967
Wire Wire Line
	10796 8887 10796 8707
Wire Wire Line
	10796 8707 10786 8707
Connection ~ 10796 8707
Wire Wire Line
	10796 9087 10796 9267
Wire Wire Line
	9436 7967 9436 8967
Connection ~ 9436 8967
Wire Wire Line
	9436 8967 9436 9267
Wire Wire Line
	10796 9267 9436 9267
$Comp
L Device:R_Small_US R44
U 1 1 72353D25
P 10766 7237
F 0 "R44" V 10561 7237 50  0000 C CNN
F 1 "41.2k" V 10652 7237 50  0000 C CNN
F 2 "Resistor_SMD:R_0603_1608Metric_Pad1.05x0.95mm_HandSolder" H 10766 7237 50  0001 C CNN
F 3 "~" H 10766 7237 50  0001 C CNN
F 4 "CRCW060341K2FKEA" V 10766 7237 50  0001 C CNN "Manufacter N"
	1    10766 7237
	1    0    0    -1  
$EndComp
Wire Wire Line
	10766 7337 10766 7747
Connection ~ 10766 7747
Wire Wire Line
	10766 7747 10796 7747
Wire Wire Line
	10766 5917 10766 7137
Wire Wire Line
	9824 6337 9824 6336
Wire Wire Line
	9176 5917 9824 5917
Connection ~ 9824 5917
Wire Wire Line
	9824 5917 10766 5917
Connection ~ 9824 6336
Wire Wire Line
	9824 6336 9824 5917
Wire Wire Line
	9821 7051 9821 7752
Wire Wire Line
	9821 7752 9822 7752
Connection ~ 9821 7752
$Comp
L PoEPowerBoard-rescue:FOD817AS_FOD817AS-Project0-cache-Project0-rescue Q1
U 1 1 72E06EB5
P 8324 7655
F 0 "Q1" H 8974 8520 50  0000 C CNN
F 1 "FOD817AS_FOD817AS" H 8974 8429 50  0000 C CNN
F 2 "Project0:SOP254P1016X385-4N" H 9674 7755 50  0001 L CNN
F 3 "https://www.onsemi.com/pub/Collateral/FOD814-D.PDF" H 9674 7655 50  0001 L CNN
F 4 "Fairchild FOD817AS DC Input Phototransistor Output Optocoupler, Surface Mount, 4-Pin MDIP" H 9674 7555 50  0001 L CNN "Description"
F 5 "3.85" H 9674 7455 50  0001 L CNN "Height"
F 6 "ON Semiconductor" H 9674 7355 50  0001 L CNN "Manufacturer_Name"
F 7 "FOD817AS" H 9674 7255 50  0001 L CNN "Manufacter N"
F 8 "FOD817AS" H 9674 7155 50  0001 L CNN "Arrow Part Number"
F 9 "https://www.arrow.com/en/products/fod817as/on-semiconductor" H 9674 7055 50  0001 L CNN "Arrow Price/Stock"
F 10 "512-FOD817AS" H 9674 6955 50  0001 L CNN "Mouser Part Number"
F 11 "https://www.mouser.co.uk/ProductDetail/ON-Semiconductor-Fairchild/FOD817AS?qs=KmQzudrvw%2FeCISHrOSU62w%3D%3D" H 9674 6855 50  0001 L CNN "Mouser Price/Stock"
	1    8324 7655
	-1   0    0    -1  
$EndComp
Wire Wire Line
	7374 7215 7250 7215
Wire Wire Line
	7250 7215 7250 7213
Wire Wire Line
	7374 7015 7272 7015
Wire Wire Line
	7272 7015 7272 6767
Connection ~ 7272 6767
Wire Wire Line
	7272 6767 7274 6767
Connection ~ 10046 7752
Wire Wire Line
	10046 7752 10046 8097
Wire Wire Line
	9822 7749 9822 7759
Wire Wire Line
	9602 7753 9822 7753
Wire Wire Line
	8776 7017 8774 7017
Wire Wire Line
	7974 7017 7974 7015
Wire Wire Line
	7974 7215 9602 7215
Wire Wire Line
	9602 7215 9602 7753
$Comp
L Device:R_Small_US R62
U 1 1 747ED177
P 16038 4649
F 0 "R62" V 15833 4649 50  0000 C CNN
F 1 "0" V 15924 4649 50  0000 C CNN
F 2 "Resistor_SMD:R_0603_1608Metric_Pad1.05x0.95mm_HandSolder" H 16038 4649 50  0001 C CNN
F 3 "~" H 16038 4649 50  0001 C CNN
F 4 "CRCW06030000Z0EA" V 16038 4649 50  0001 C CNN "Manufacter N"
	1    16038 4649
	1    0    0    -1  
$EndComp
Wire Wire Line
	10766 5917 12104 5917
Wire Wire Line
	12104 5917 12104 6781
Wire Wire Line
	12104 6781 16038 6781
Wire Wire Line
	16038 6781 16038 4749
Connection ~ 10766 5917
Wire Wire Line
	14376 2367 14374 2367
Wire Wire Line
	13522 2367 13522 1617
Wire Wire Line
	13522 1617 12074 1617
Connection ~ 14374 2367
Connection ~ 12074 1617
Wire Wire Line
	15664 2267 15674 2267
Wire Wire Line
	15764 2267 15764 2367
Wire Wire Line
	15764 2367 15674 2367
Wire Wire Line
	15674 2467 15844 2467
Wire Wire Line
	15844 2467 15844 2567
Wire Wire Line
	15844 2567 15674 2567
Wire Wire Line
	15674 2267 15764 2267
Connection ~ 15674 2267
Wire Wire Line
	15764 2267 15914 2267
Wire Wire Line
	15914 2267 15914 2293
Connection ~ 15764 2267
$Comp
L Device:R_Small_US R63
U 1 1 75470CC6
P 16324 1987
F 0 "R63" V 16119 1987 50  0000 C CNN
F 1 "20k" V 16210 1987 50  0000 C CNN
F 2 "Resistor_SMD:R_1206_3216Metric_Pad1.42x1.75mm_HandSolder" H 16324 1987 50  0001 C CNN
F 3 "~" H 16324 1987 50  0001 C CNN
F 4 "CRCW120620R0FKEA" V 16324 1987 50  0001 C CNN "Manufacter N"
	1    16324 1987
	0    1    1    0   
$EndComp
$Comp
L PoEPowerBoard-rescue:MBRS540T3G-MBRS540T3G D9
U 1 1 7573CBF7
P 16734 2567
F 0 "D9" H 17034 2302 50  0000 C CNN
F 1 "MBRS540T3G" H 17034 2393 50  0000 C CNN
F 2 "MBRS540T3G:DIOM7958X256N" H 17184 2567 50  0001 L CNN
F 3 "http://www.onsemi.com/pub/Collateral/MBRS540T3-D.PDF" H 17184 2467 50  0001 L CNN
F 4 "Diode Schottky 40V 5A SMC ON Semiconductor MBRS540T3G Schottky Diode, 5A, 40V, 2-Pin SMC" H 17184 2367 50  0001 L CNN "Description"
F 5 "2.56" H 17184 2267 50  0001 L CNN "Height"
F 6 "ON Semiconductor" H 17184 2167 50  0001 L CNN "Manufacturer_Name"
F 7 "MBRS540T3G" H 17184 2067 50  0001 L CNN "Manufacter N"
F 8 "MBRS540T3G" H 17184 1967 50  0001 L CNN "Arrow Part Number"
F 9 "https://www.arrow.com/en/products/mbrs540t3g/on-semiconductor" H 17184 1867 50  0001 L CNN "Arrow Price/Stock"
F 10 "863-MBRS540T3G" H 17184 1767 50  0001 L CNN "Mouser Part Number"
F 11 "https://www.mouser.co.uk/ProductDetail/ON-Semiconductor/MBRS540T3G?qs=3JMERSakebo5%2FaZU4XA2uw%3D%3D" H 17184 1667 50  0001 L CNN "Mouser Price/Stock"
	1    16734 2567
	-1   0    0    1   
$EndComp
Wire Wire Line
	16134 2567 16114 2567
Connection ~ 15844 2567
Connection ~ 16114 2567
Wire Wire Line
	16114 2567 15844 2567
$Comp
L Device:C C79
U 1 1 763E1782
P 17594 2467
F 0 "C79" H 17709 2513 50  0000 L CNN
F 1 "47uF" H 17709 2422 50  0000 L CNN
F 2 "Capacitors_SMD:C_1210_3225Metric_Pad1.42x2.65mm_HandSolder" H 17632 2317 50  0001 C CNN
F 3 "~" H 17594 2467 50  0001 C CNN
F 4 "GRM32ER61A476KE20L" H 17594 2467 50  0001 C CNN "Manufacter N"
	1    17594 2467
	-1   0    0    1   
$EndComp
$Comp
L Device:C C91
U 1 1 765495C5
P 17914 2467
F 0 "C91" H 18029 2513 50  0000 L CNN
F 1 "47uF" H 18029 2422 50  0000 L CNN
F 2 "Capacitors_SMD:C_1210_3225Metric_Pad1.42x2.65mm_HandSolder" H 17952 2317 50  0001 C CNN
F 3 "~" H 17914 2467 50  0001 C CNN
F 4 "GRM32ER61A476KE20L" H 17914 2467 50  0001 C CNN "Manufacter N"
	1    17914 2467
	-1   0    0    1   
$EndComp
Wire Wire Line
	17594 2322 17594 2317
Connection ~ 17594 2317
Wire Wire Line
	17914 2857 17914 2617
Wire Wire Line
	17594 2617 17594 2852
Wire Wire Line
	17594 2852 17589 2852
Wire Wire Line
	17589 2852 17589 2857
Connection ~ 17589 2857
Wire Wire Line
	17589 2857 17914 2857
$Comp
L power:VCC #PWR017
U 1 1 7739C20A
P 18099 1282
F 0 "#PWR017" H 18099 1132 50  0001 C CNN
F 1 "VCC" H 18116 1455 50  0000 C CNN
F 2 "" H 18099 1282 50  0001 C CNN
F 3 "" H 18099 1282 50  0001 C CNN
	1    18099 1282
	1    0    0    -1  
$EndComp
Text Notes 18219 1352 0    50   ~ 0
5V Raspberry Power Supply
$Comp
L PoEPowerBoard-rescue:HMTSW-102-07-G-S-230-HMTSW-102-07-G-S-230 J4
U 1 1 77ADB212
P 18709 1482
F 0 "J4" V 18955 1610 50  0000 L CNN
F 1 "HMTSW-102-07-G-S-230" V 19046 1610 50  0000 L CNN
F 2 "Project0:HDRV2W64P0X254_1X2_508X248X864P" H 19359 1582 50  0001 L CNN
F 3 "http://suddendocs.samtec.com/catalog_english/mtsw.pdf" H 19359 1482 50  0001 L CNN
F 4 "Board to Board & Mezzanine Connectors .100\" High-Temp Variable Post Height Terminal Strip" H 19359 1382 50  0001 L CNN "Description"
F 5 "8.64" H 19359 1282 50  0001 L CNN "Height"
F 6 "SAMTEC" H 19359 1182 50  0001 L CNN "Manufacturer_Name"
F 7 "HMTSW-102-07-G-S-230" H 19359 1082 50  0001 L CNN "Manufacturer_Part_Number"
F 8 "HMTSW-102-07-G-S-230" H 19359 982 50  0001 L CNN "Arrow Part Number"
F 9 "" H 19359 882 50  0001 L CNN "Arrow Price/Stock"
F 10 "200-HMTSW10207GS230" H 19359 782 50  0001 L CNN "Mouser Part Number"
F 11 "https://www.mouser.co.uk/ProductDetail/Samtec/HMTSW-102-07-G-S-230?qs=Cqqh%252BS766wnc6NC0aw7pGg%3D%3D" H 19359 682 50  0001 L CNN "Mouser Price/Stock"
	1    18709 1482
	0    1    1    0   
$EndComp
Wire Wire Line
	18099 1282 18099 1404
Wire Wire Line
	18609 1487 18609 1482
Text Notes 3294 2074 2    67   ~ 0
Raspberry  PoE Connector\nVIN=37-57V PoE 
Text Label 4314 3067 0    50   ~ 0
POE_NET04
Text Label 4144 5217 0    50   ~ 0
POE_NET15
Wire Wire Line
	3624 3067 4724 3067
Wire Wire Line
	3624 5217 4724 5217
Wire Wire Line
	2924 3917 2924 3067
Connection ~ 2924 3067
Wire Wire Line
	2924 3067 2374 3067
Wire Wire Line
	2924 4217 2924 5217
Connection ~ 2924 5217
Wire Wire Line
	2924 5217 2524 5217
Wire Wire Line
	7174 3867 7674 3867
Connection ~ 7674 3867
Wire Wire Line
	7674 3867 7724 3867
$Comp
L PoEPowerBoard-rescue:ERJ12ZYJ820U-ERJ12ZYJ820U R61
U 1 1 5F5B785E
P 13624 3717
F 0 "R61" V 13928 3805 50  0000 L CNN
F 1 "82" V 14019 3805 50  0000 L CNN
F 2 "Project0:RESC5025X70N" H 14174 3767 50  0001 L CNN
F 3 "http://industrial.panasonic.com/cdbs/www-data/pdf/RDA0000/AOA0000C86.pdf" H 14174 3667 50  0001 L CNN
F 4 "PANASONIC ELECTRONIC COMPONENTS - ERJ12ZYJ820U - RES, THICK FILM, 82R, 5%, 0.75W, 2010" H 14174 3567 50  0001 L CNN "Description"
F 5 "0.7" H 14174 3467 50  0001 L CNN "Height"
F 6 "Panasonic" H 14174 3367 50  0001 L CNN "Manufacturer_Name"
F 7 "ERJ12ZYJ820U" H 14174 3267 50  0001 L CNN "Manufacter N"
F 8 "ERJ12ZYJ820U" H 14174 3167 50  0001 L CNN "Arrow Part Number"
F 9 "" H 14174 3067 50  0001 L CNN "Arrow Price/Stock"
F 10 "" H 14174 2967 50  0001 L CNN "Mouser Part Number"
F 11 "" H 14174 2867 50  0001 L CNN "Mouser Price/Stock"
	1    13624 3717
	0    1    1    0   
$EndComp
Wire Wire Line
	13624 3717 13624 3267
Wire Wire Line
	13624 4417 13624 4617
$Comp
L PoEPowerBoard-rescue:EEE1CA100AR-EEE1CA100AR C56
U 1 1 5F73B0B1
P 11874 2667
F 0 "C56" V 12078 2797 50  0000 L CNN
F 1 "10uF /16V" V 12169 2797 50  0000 L CNN
F 2 "EEE1CA100AR:EEE1CA100AR" H 12224 2717 50  0001 L CNN
F 3 "https://industrial.panasonic.com/cdbs/www-data/pdf/RDE0000/DME0000COL48.pdf" H 12224 2617 50  0001 L CNN
F 4 "Panasonic Aluminium Electrolytic Capacitor 10uF 16V dc 4mm B S(V) Series, Surface Mount Electrolytic, +/-20%" H 12224 2517 50  0001 L CNN "Description"
F 5 "5" H 12224 2417 50  0001 L CNN "Height"
F 6 "Panasonic" H 12224 2317 50  0001 L CNN "Manufacturer_Name"
F 7 "EEE-1CA100SA" H 12224 2217 50  0001 L CNN "Manufacter N"
F 8 "EEE1CA100AR" H 12224 2117 50  0001 L CNN "Arrow Part Number"
F 9 "" H 12224 2017 50  0001 L CNN "Arrow Price/Stock"
F 10 "" H 12224 1917 50  0001 L CNN "Mouser Part Number"
F 11 "" H 12224 1817 50  0001 L CNN "Mouser Price/Stock"
	1    11874 2667
	0    1    1    0   
$EndComp
Connection ~ 11874 2667
Wire Wire Line
	11324 2667 11874 2667
Wire Wire Line
	11324 2967 11324 3367
Wire Wire Line
	11874 3167 11874 3367
$Comp
L PoEPowerBoard-rescue:DO1608C-472MLB-DO1608C-472MLB L3
U 1 1 5FFFEFDF
P 7574 1667
F 0 "L3" H 7974 1892 50  0000 C CNN
F 1 "DO1608C-472MLB" H 7974 1801 50  0000 C CNN
F 2 "Project0:DO1608C" H 8224 1717 50  0001 L CNN
F 3 "https://www.coilcraft.com/pdfs/do1608c.pdf" H 8224 1617 50  0001 L CNN
F 4 "COILCRAFT - DO1608C-472MLB - INDUCTOR, PWR, 4.7UH, 1.9A,20%,50MHZ" H 8224 1517 50  0001 L CNN "Description"
F 5 "" H 8224 1417 50  0001 L CNN "Height"
F 6 "COILCRAFT" H 8224 1317 50  0001 L CNN "Manufacturer_Name"
F 7 "DO1608C-472MLB" H 8224 1217 50  0001 L CNN "Manufacter N"
F 8 "DO1608C-472MLB" H 8224 1117 50  0001 L CNN "Arrow Part Number"
F 9 "" H 8224 1017 50  0001 L CNN "Arrow Price/Stock"
F 10 "994-DO1608C-472MLB" H 8224 917 50  0001 L CNN "Mouser Part Number"
F 11 "https://www.mouser.co.uk/ProductDetail/Coilcraft/DO1608C-472MLB?qs=zCSbvcPd3pbOChGshX%2F%2FXg%3D%3D" H 8224 817 50  0001 L CNN "Mouser Price/Stock"
	1    7574 1667
	1    0    0    -1  
$EndComp
Wire Wire Line
	8374 1667 8524 1667
$Comp
L PoEPowerBoard-rescue:EEEFK1J220P-EEEFK1J220P C40
U 1 1 60176D73
P 7124 1667
F 0 "C40" V 7328 1797 50  0000 L CNN
F 1 "22uF" V 7419 1797 50  0000 L CNN
F 2 "EEEFK1J220P:CAPAE800X650N" H 7474 1717 50  0001 L CNN
F 3 "https://industrial.panasonic.com/cdbs/www-data/pdf/RDE0000/ABA0000C1181.pdf" H 7474 1617 50  0001 L CNN
F 4 "Panasonic Aluminium Electrolytic Capacitor 22uF 63V dc 8mm E FK SMD Series, Surface Mount Electrolytic, +/-20%" H 7474 1517 50  0001 L CNN "Description"
F 5 "6.5" H 7474 1417 50  0001 L CNN "Height"
F 6 "Panasonic" H 7474 1317 50  0001 L CNN "Manufacturer_Name"
F 7 "EEEFK1J220P" H 7474 1217 50  0001 L CNN "Manufacturer_Part_Number"
F 8 "EEEFK1J220P" H 7474 1117 50  0001 L CNN "Arrow Part Number"
F 9 "https://www.arrow.com/en/products/eeefk1j220p/panasonic" H 7474 1017 50  0001 L CNN "Arrow Price/Stock"
F 10 "" H 7474 917 50  0001 L CNN "Mouser Part Number"
F 11 "" H 7474 817 50  0001 L CNN "Mouser Price/Stock"
	1    7124 1667
	0    1    1    0   
$EndComp
Connection ~ 7124 1667
Wire Wire Line
	7124 1667 7574 1667
Wire Wire Line
	7124 2167 7124 2417
Wire Wire Line
	8724 2417 8724 2117
Connection ~ 8724 2117
Wire Wire Line
	8724 2117 8524 2117
Wire Wire Line
	16724 2567 16734 2567
Connection ~ 16734 2567
Wire Wire Line
	16734 2567 16924 2567
Wire Wire Line
	16038 4549 16038 3217
Wire Wire Line
	16038 3217 17913 3217
$Comp
L Device:R_Small_US R38
U 1 1 618F7BAE
P 8774 6467
F 0 "R38" H 8842 6513 50  0000 L CNN
F 1 "665" H 8842 6422 50  0000 L CNN
F 2 "Resistor_SMD:R_0603_1608Metric_Pad1.05x0.95mm_HandSolder" H 8774 6467 50  0001 C CNN
F 3 "~" H 8774 6467 50  0001 C CNN
F 4 "CRCW0603665RFKEA" H 8774 6467 50  0001 C CNN "Manufacter N"
	1    8774 6467
	1    0    0    -1  
$EndComp
Wire Wire Line
	8774 7017 8774 6567
Connection ~ 8774 7017
Wire Wire Line
	8774 7017 7974 7017
Connection ~ 7224 6767
Text Notes 9774 1367 0    197  ~ 0
TI-based 5V 1A POE
Wire Notes Line
	21774 967  874  967 
Wire Notes Line
	21774 967  21774 3017
Wire Notes Line
	21774 3017 18024 3017
Wire Notes Line
	18024 3017 18024 9367
Wire Notes Line
	18024 9367 874  9367
Wire Notes Line
	874  967  874  9367
$Comp
L power:GNDPWR #PWR04
U 1 1 63EB0537
P 7074 7517
F 0 "#PWR04" H 7074 7317 50  0001 C CNN
F 1 "GNDPWR" H 7078 7363 50  0000 C CNN
F 2 "" H 7074 7467 50  0001 C CNN
F 3 "" H 7074 7467 50  0001 C CNN
	1    7074 7517
	1    0    0    -1  
$EndComp
Wire Wire Line
	7074 7217 7074 7219
Wire Wire Line
	7074 7219 7250 7219
Wire Wire Line
	7250 7219 7250 7215
Connection ~ 7074 7219
Wire Wire Line
	7074 7219 7074 7517
Connection ~ 7250 7215
$Comp
L power:GNDPWR #PWR03
U 1 1 648E7FF0
P 6474 4067
F 0 "#PWR03" H 6474 3867 50  0001 C CNN
F 1 "GNDPWR" H 6478 3913 50  0000 C CNN
F 2 "" H 6474 4017 50  0001 C CNN
F 3 "" H 6474 4017 50  0001 C CNN
	1    6474 4067
	1    0    0    -1  
$EndComp
$Comp
L power:GNDPWR #PWR05
U 1 1 64B2E42B
P 7424 4345
F 0 "#PWR05" H 7424 4145 50  0001 C CNN
F 1 "GNDPWR" H 7428 4191 50  0000 C CNN
F 2 "" H 7424 4295 50  0001 C CNN
F 3 "" H 7424 4295 50  0001 C CNN
	1    7424 4345
	1    0    0    -1  
$EndComp
Wire Wire Line
	7674 3967 7424 3967
Wire Wire Line
	7424 3967 7424 4345
Connection ~ 7424 4345
Wire Wire Line
	7424 4345 7424 4347
$Comp
L power:GNDPWR #PWR09
U 1 1 6544CE6A
P 10224 3613
F 0 "#PWR09" H 10224 3413 50  0001 C CNN
F 1 "GNDPWR" H 10228 3459 50  0000 C CNN
F 2 "" H 10224 3563 50  0001 C CNN
F 3 "" H 10224 3563 50  0001 C CNN
	1    10224 3613
	1    0    0    -1  
$EndComp
Connection ~ 10224 3613
Wire Wire Line
	10224 3613 10224 3617
Wire Wire Line
	11324 3367 11636 3367
$Comp
L power:GNDPWR #PWR012
U 1 1 657B9130
P 11636 3415
F 0 "#PWR012" H 11636 3215 50  0001 C CNN
F 1 "GNDPWR" H 11640 3261 50  0000 C CNN
F 2 "" H 11636 3365 50  0001 C CNN
F 3 "" H 11636 3365 50  0001 C CNN
	1    11636 3415
	1    0    0    -1  
$EndComp
Wire Wire Line
	11636 3421 11636 3415
Connection ~ 11636 3367
Wire Wire Line
	11636 3367 11874 3367
Connection ~ 11636 3415
Wire Wire Line
	11636 3415 11636 3367
$Comp
L power:GNDPWR #PWR013
U 1 1 65E946CC
P 13324 6367
F 0 "#PWR013" H 13324 6167 50  0001 C CNN
F 1 "GNDPWR" H 13328 6213 50  0000 C CNN
F 2 "" H 13324 6317 50  0001 C CNN
F 3 "" H 13324 6317 50  0001 C CNN
	1    13324 6367
	1    0    0    -1  
$EndComp
$Comp
L power:GND #PWR08
U 1 1 6620E9AA
P 9176 8281
F 0 "#PWR08" H 9176 8031 50  0001 C CNN
F 1 "GND" H 9181 8108 50  0000 C CNN
F 2 "" H 9176 8281 50  0001 C CNN
F 3 "" H 9176 8281 50  0001 C CNN
	1    9176 8281
	1    0    0    -1  
$EndComp
Wire Wire Line
	9176 8281 9176 7967
Connection ~ 9176 7967
$Comp
L power:GND #PWR016
U 1 1 6645E5EE
P 17346 2887
F 0 "#PWR016" H 17346 2637 50  0001 C CNN
F 1 "GND" H 17351 2714 50  0000 C CNN
F 2 "" H 17346 2887 50  0001 C CNN
F 3 "" H 17346 2887 50  0001 C CNN
	1    17346 2887
	1    0    0    -1  
$EndComp
Wire Wire Line
	17346 2889 17346 2887
Wire Wire Line
	17346 2857 17589 2857
Connection ~ 17346 2887
$Comp
L power:GNDPWR #PWR014
U 1 1 668F9B9B
P 14274 2817
F 0 "#PWR014" H 14274 2617 50  0001 C CNN
F 1 "GNDPWR" H 14278 2663 50  0000 C CNN
F 2 "" H 14274 2767 50  0001 C CNN
F 3 "" H 14274 2767 50  0001 C CNN
	1    14274 2817
	1    0    0    -1  
$EndComp
$Comp
L power:GNDPWR #PWR06
U 1 1 66A22D86
P 7608 2417
F 0 "#PWR06" H 7608 2217 50  0001 C CNN
F 1 "GNDPWR" H 7612 2263 50  0000 C CNN
F 2 "" H 7608 2367 50  0001 C CNN
F 3 "" H 7608 2367 50  0001 C CNN
	1    7608 2417
	1    0    0    -1  
$EndComp
Wire Wire Line
	7124 2417 7608 2417
Connection ~ 7608 2417
Wire Wire Line
	7608 2417 8724 2417
$Comp
L power:GND #PWR015
U 1 1 66FF0F12
P 15914 2293
F 0 "#PWR015" H 15914 2043 50  0001 C CNN
F 1 "GND" H 15919 2120 50  0000 C CNN
F 2 "" H 15914 2293 50  0001 C CNN
F 3 "" H 15914 2293 50  0001 C CNN
	1    15914 2293
	1    0    0    -1  
$EndComp
Connection ~ 15914 2293
Wire Wire Line
	15914 2293 15914 2297
Wire Wire Line
	18099 1487 18609 1487
Wire Wire Line
	18709 1482 19096 1482
Wire Wire Line
	19096 1482 19096 2165
$Comp
L Device:C C92
U 1 1 5EFAEE16
P 14686 1709
F 0 "C92" V 14434 1709 50  0000 C CNN
F 1 "2200pf" V 14525 1709 50  0000 C CNN
F 2 "Capacitors_SMD:C_1812_4532Metric_Pad1.30x3.40mm_HandSolder" H 14724 1559 50  0001 C CNN
F 3 "~" H 14686 1709 50  0001 C CNN
F 4 "C4532X7R3D222K" V 14686 1709 50  0001 C CNN "Manufacter N"
	1    14686 1709
	0    1    1    0   
$EndComp
Wire Wire Line
	14836 1709 14924 1709
Wire Wire Line
	14924 1709 14924 1282
Connection ~ 14924 1282
Wire Wire Line
	14924 1282 15084 1282
Wire Wire Line
	14536 1709 14250 1709
Wire Wire Line
	8774 6367 8774 5917
Wire Wire Line
	8774 5917 9176 5917
Connection ~ 9176 5917
Wire Wire Line
	8874 1617 12074 1617
$Comp
L PoEPowerBoard-rescue:FDT86246-FDT86246 IC11
U 1 1 5F99DBCF
P 12374 4127
F 0 "IC11" H 12874 4392 50  0000 C CNN
F 1 "FDT86246" H 12874 4301 50  0000 C CNN
F 2 "SOT230P700X180-4N" H 13224 4227 50  0001 L CNN
F 3 "http://docs-emea.rs-online.com/webdocs/10c9/0900766b810c97c1.pdf" H 13224 4127 50  0001 L CNN
F 4 "FDT86246, N-channel MOSFET Transistor, 2 A 150 V, 4-Pin SOT-223" H 13224 4027 50  0001 L CNN "Description"
F 5 "1.8" H 13224 3927 50  0001 L CNN "Height"
F 6 "ON Semiconductor" H 13224 3827 50  0001 L CNN "Manufacturer_Name"
F 7 "FDT86246" H 13224 3727 50  0001 L CNN "Manufacturer_Part_Number"
F 8 "FDT86246" H 13224 3627 50  0001 L CNN "Arrow Part Number"
F 9 "https://www.arrow.com/en/products/fdt86246/on-semiconductor" H 13224 3527 50  0001 L CNN "Arrow Price/Stock"
F 10 "512-FDT86246" H 13224 3427 50  0001 L CNN "Mouser Part Number"
F 11 "https://www.mouser.co.uk/ProductDetail/ON-Semiconductor-Fairchild/FDT86246?qs=dIxESgyDOrilPjmdr96wRQ%3D%3D" H 13224 3327 50  0001 L CNN "Mouser Price/Stock"
	1    12374 4127
	1    0    0    -1  
$EndComp
Wire Wire Line
	12374 4127 12011 4127
$Comp
L Device:R_Small_US R47
U 1 1 6605BD65
P 11774 4215
F 0 "R47" V 11569 4215 50  0000 C CNN
F 1 "49.9" V 11660 4215 50  0000 C CNN
F 2 "Resistor_SMD:R_0603_1608Metric_Pad1.05x0.95mm_HandSolder" H 11774 4215 50  0001 C CNN
F 3 "~" H 11774 4215 50  0001 C CNN
F 4 "CRCW060349R9FKEAC" V 11774 4215 50  0001 C CNN "Manufacter N"
	1    11774 4215
	0    1    1    0   
$EndComp
Wire Wire Line
	12011 4215 12011 4127
Wire Wire Line
	11848 4215 11874 4215
Connection ~ 11874 4215
Wire Wire Line
	11874 4215 12011 4215
Wire Wire Line
	11690 4215 11674 4215
Wire Wire Line
	10974 4215 10974 4717
Connection ~ 11674 4215
Wire Wire Line
	11674 4215 10974 4215
Wire Wire Line
	12374 4227 12324 4227
Wire Wire Line
	12324 4227 12324 3267
Wire Wire Line
	12324 3267 12724 3267
Connection ~ 12724 3267
Wire Wire Line
	12724 3267 13374 3267
Wire Wire Line
	13374 4127 13374 3267
Connection ~ 13374 3267
Wire Wire Line
	13374 3267 13624 3267
Wire Wire Line
	12374 4327 12374 5067
Wire Wire Line
	11974 5067 12374 5067
Connection ~ 12374 5067
Wire Wire Line
	12374 5067 12724 5067
Wire Wire Line
	17914 2279 18108 2279
Wire Wire Line
	18108 2279 18108 2166
Wire Wire Line
	17914 2279 17914 2317
Connection ~ 17914 2317
Wire Wire Line
	17914 2317 17914 2327
Wire Wire Line
	18108 2165 18316 2165
Wire Wire Line
	18108 2166 17594 2166
Connection ~ 18108 2166
Wire Wire Line
	18108 2166 18108 2165
Wire Wire Line
	17913 3217 17913 2949
Wire Wire Line
	17913 2949 18316 2949
Wire Wire Line
	18316 2949 18316 2165
Connection ~ 17913 3217
Wire Wire Line
	17913 3217 17914 3217
Connection ~ 18316 2165
Wire Wire Line
	18316 2165 19096 2165
Wire Wire Line
	17594 2166 17594 2317
$Comp
L PoEPowerBoard-rescue:EEEFK0J470R-EEEFK0J470R C78
U 1 1 60A35E98
P 17309 2283
F 0 "C78" V 17513 2413 50  0000 L CNN
F 1 "EEEFK0J470R" V 17604 2413 50  0000 L CNN
F 2 "Project0:CAPAE530X610N" H 17659 2333 50  0001 L CNN
F 3 "https://industrial.panasonic.com/cdbs/www-data/pdf/RDE0000/ABA0000C1181.pdf" H 17659 2233 50  0001 L CNN
F 4 "PANASONIC - EEE-FK0J470R - ALUMINUM ELECTROLYTIC CAPACITOR, 47UF, 20%, 6.3V, SMD, FULL REEL" H 17659 2133 50  0001 L CNN "Description"
F 5 "6.1" H 17659 2033 50  0001 L CNN "Height"
F 6 "Panasonic" H 17659 1933 50  0001 L CNN "Manufacturer_Name"
F 7 "EEEFK0J470R" H 17659 1833 50  0001 L CNN "Manufacter N"
F 8 "EEEFK0J470R" H 17659 1733 50  0001 L CNN "Arrow Part Number"
F 9 "" H 17659 1633 50  0001 L CNN "Arrow Price/Stock"
F 10 "" H 17659 1533 50  0001 L CNN "Mouser Part Number"
F 11 "" H 17659 1433 50  0001 L CNN "Mouser Price/Stock"
	1    17309 2283
	0    1    1    0   
$EndComp
$Comp
L Device:C C75
U 1 1 75FA5BD4
P 16700 2036
F 0 "C75" H 16815 2082 50  0000 L CNN
F 1 "680pF" H 16815 1991 50  0000 L CNN
F 2 "Capacitors_SMD:C_0603_1608Metric_Pad1.05x0.95mm_HandSolder" H 16738 1886 50  0001 C CNN
F 3 "~" H 16700 2036 50  0001 C CNN
F 4 "C0603C681K5RACTU" H 16700 2036 50  0001 C CNN "Manufacter N"
	1    16700 2036
	0    -1   -1   0   
$EndComp
Wire Wire Line
	16224 1987 16114 1987
Wire Wire Line
	16114 1987 16114 2567
Wire Wire Line
	16420 1987 16424 1987
Wire Wire Line
	16549 1987 16549 2036
Wire Wire Line
	16549 2036 16550 2036
Connection ~ 16424 1987
Wire Wire Line
	16424 1987 16549 1987
Wire Wire Line
	16846 2036 16850 2036
Wire Wire Line
	16924 2036 16924 2567
Connection ~ 16850 2036
Wire Wire Line
	16850 2036 16924 2036
Wire Wire Line
	17309 2284 17309 2283
Connection ~ 17309 2283
Wire Wire Line
	17309 2283 17309 2166
Connection ~ 17594 2166
Wire Wire Line
	17309 2779 17309 2783
Wire Wire Line
	17309 2839 17346 2839
Wire Wire Line
	17346 2839 17346 2857
Connection ~ 17309 2783
Wire Wire Line
	17309 2783 17309 2839
Connection ~ 17346 2857
Wire Wire Line
	17346 2857 17346 2887
Wire Wire Line
	16923 2566 17177 2566
Wire Wire Line
	17177 2566 17177 2166
Wire Wire Line
	17177 2166 17309 2166
Connection ~ 17309 2166
Wire Wire Line
	17309 2166 17594 2166
Wire Wire Line
	13884 1282 14534 1282
Wire Wire Line
	13884 1282 13884 2367
Wire Wire Line
	13522 2367 13884 2367
Connection ~ 13884 2367
Wire Wire Line
	13884 2367 14374 2367
$Comp
L Device:R_Small_US R1
U 1 1 5F70BA46
P 17700 1600
F 0 "R1" H 17768 1646 50  0000 L CNN
F 1 "1k" H 17768 1555 50  0000 L CNN
F 2 "Resistors_SMD:R_0603_1608Metric_Pad1.05x0.95mm_HandSolder" H 17700 1600 50  0001 C CNN
F 3 "~" H 17700 1600 50  0001 C CNN
F 4 "MCT0603MD1001BP500" H 17700 1600 50  0001 C CNN "Manufacter N"
	1    17700 1600
	1    0    0    -1  
$EndComp
$Comp
L Device:LED D5
U 1 1 5F70C06D
P 17850 1850
F 0 "D5" H 17843 1595 50  0000 C CNN
F 1 "LED_GREEN_5V" H 17843 1686 50  0000 C CNN
F 2 "Project0:LED_1206_3216Metric_Pad1.42x1.75mm_HandSolder" H 17850 1850 50  0001 C CNN
F 3 "~" H 17850 1850 50  0001 C CNN
F 4 "AP3216CGCK" H 17850 1850 50  0001 C CNN "Manufacter N"
	1    17850 1850
	-1   0    0    1   
$EndComp
Wire Wire Line
	17700 1700 17700 1850
$Comp
L power:GND #PWR0101
U 1 1 5F724C28
P 18150 1950
F 0 "#PWR0101" H 18150 1700 50  0001 C CNN
F 1 "GND" H 18155 1777 50  0000 C CNN
F 2 "" H 18150 1950 50  0001 C CNN
F 3 "" H 18150 1950 50  0001 C CNN
	1    18150 1950
	1    0    0    -1  
$EndComp
Wire Wire Line
	17700 1501 17700 1500
Wire Wire Line
	17700 1404 18099 1404
Connection ~ 17700 1500
Wire Wire Line
	17700 1500 17700 1404
Connection ~ 18099 1404
Wire Wire Line
	18099 1404 18099 1487
Wire Wire Line
	18000 1850 18150 1850
Wire Wire Line
	18150 1850 18150 1950
Text GLabel 3400 1450 2    50   Input ~ 0
TR2
Text GLabel 3400 1550 2    50   Input ~ 0
TR3
$Comp
L power:VCC #PWR02
U 1 1 60A09AC7
P 2350 1300
F 0 "#PWR02" H 2350 1150 50  0001 C CNN
F 1 "VCC" H 2365 1473 50  0000 C CNN
F 2 "" H 2350 1300 50  0001 C CNN
F 3 "" H 2350 1300 50  0001 C CNN
	1    2350 1300
	1    0    0    -1  
$EndComp
Wire Wire Line
	2350 1300 2350 1550
$Comp
L power:GND #PWR01
U 1 1 60A3B9C8
P 3450 1650
F 0 "#PWR01" H 3450 1400 50  0001 C CNN
F 1 "GND" H 3455 1477 50  0000 C CNN
F 2 "" H 3450 1650 50  0001 C CNN
F 3 "" H 3450 1650 50  0001 C CNN
	1    3450 1650
	1    0    0    -1  
$EndComp
$Comp
L PoEPowerBoard-rescue:M20-9970346-M20-9970346 J3
U 1 1 609AC511
P 2500 1450
F 0 "J3" H 2900 1715 50  0000 C CNN
F 1 "M20-9970346" H 2900 1624 50  0000 C CNN
F 2 "HDRV6W64P254_2X3_1524X508X1104P" H 3150 1550 50  0001 L CNN
F 3 "https://cdn.harwin.com/pdfs/M20-997.pdf" H 3150 1450 50  0001 L CNN
F 4 "HARWIN Pin Header M20, 6 Way, 2.54mm Pitch, 2 Row, Straight, Through Hole" H 3150 1350 50  0001 L CNN "Description"
F 5 "11.04" H 3150 1250 50  0001 L CNN "Height"
F 6 "Harwin" H 3150 1150 50  0001 L CNN "Manufacturer_Name"
F 7 "M20-9970346" H 3150 1050 50  0001 L CNN "Manufacturer_Part_Number"
F 8 "M20-9970346" H 3150 950 50  0001 L CNN "Arrow Part Number"
F 9 "" H 3150 850 50  0001 L CNN "Arrow Price/Stock"
F 10 "855-M20-9970346" H 3150 750 50  0001 L CNN "Mouser Part Number"
F 11 "https://www.mouser.com/Search/Refine.aspx?Keyword=855-M20-9970346" H 3150 650 50  0001 L CNN "Mouser Price/Stock"
	1    2500 1450
	1    0    0    -1  
$EndComp
Wire Wire Line
	2350 1550 2500 1550
Wire Wire Line
	3300 1450 3400 1450
Wire Wire Line
	3400 1550 3300 1550
Wire Wire Line
	3450 1650 3350 1650
Wire Wire Line
	2500 1650 2500 1850
Wire Wire Line
	2500 1850 3350 1850
Wire Wire Line
	3350 1850 3350 1650
Connection ~ 3350 1650
Wire Wire Line
	3350 1650 3300 1650
Text Notes 2200 5100 0    50   ~ 0
PoE (-)
Text Notes 2250 3300 0    50   ~ 0
PoE (+)
$EndSCHEMATC
