  0
SECTION
  2
HEADER
  9
$ANGBASE
  50
0.0
  9
$ANGDIR
  70
1
  9
$MEASUREMENT
  70
1
  0
ENDSEC
  0
SECTION
  2
TABLES
  0
TABLE
  2
LTYPE
  70
4
  0
LTYPE
  5
40F
  2
CONTINUOUS
  70
0
  3
Solid line
  72
65
  73
0
  40
0.0
  0
LTYPE
  5
410
  2
DASHDOT
 70
0
  3
Dash Dot ____ _ ____ _
 72
65
 73
4
 40
2.0
 49
1.25
 49
-0.25
 49
0.25
 49
-0.25
  0
LTYPE
  5
411
  2
DASHED
 70
0
  3
Dashed __ __ __ __ __
 72
65
 73
2
 40
0.75
 49
0.5
 49
-0.25
  0
LTYPE
  5
43B
  2
DOTTED
 70
0
  3
Dotted .  .  .  .
 72
65
 73
2
 40
0.2
 49
0.0
 49
-0.2
  0
ENDTAB
  0
TABLE
  2
STYLE
  70
4
  0
STYLE
  2
KICAD
  70
0
  40
0
  41
1
  42
1
  50
0
  71
0
  3
isocp.shx
  0
STYLE
  2
KICADB
  70
0
  40
0
  41
1
  42
1
  50
0
  71
0
  3
isocp.shx
  0
STYLE
  2
KICADI
  70
0
  40
0
  41
1
  42
1
  50
15
  71
0
  3
isocp.shx
  0
STYLE
  2
KICADBI
  70
0
  40
0
  41
1
  42
1
  50
15
  71
0
  3
isocp.shx
  0
ENDTAB
  0
TABLE
  2
LAYER
  70
1
  0
LAYER
  2
BLACK
  70
0
  62
7
  6
CONTINUOUS
  0
ENDTAB
  0
ENDSEC
  0
SECTION
  2
ENTITIES
0
LINE
8
BLACK
6
CONTINUOUS
10
30.6316
20
-14.486
11
66.1605
21
-14.49
0
LINE
8
BLACK
6
CONTINUOUS
10
66.1605
20
-14.49
11
66.185
21
-14.4876
0
LINE
8
BLACK
6
CONTINUOUS
10
66.185
20
-14.4876
11
66.2096
21
-14.49
0
LINE
8
BLACK
6
CONTINUOUS
10
66.2096
20
-14.49
11
66.2096
21
-14.49
0
LINE
8
BLACK
6
CONTINUOUS
10
66.2096
20
-14.49
11
66.2297
21
-14.492
0
LINE
8
BLACK
6
CONTINUOUS
10
66.2297
20
-14.492
11
66.283
21
-14.4972
0
LINE
8
BLACK
6
CONTINUOUS
10
66.283
20
-14.4972
11
66.283
21
-14.4972
0
LINE
8
BLACK
6
CONTINUOUS
10
66.283
20
-14.4972
11
66.2831
21
-14.4972
0
LINE
8
BLACK
6
CONTINUOUS
10
66.2831
20
-14.4972
11
66.325
21
-14.51
0
LINE
8
BLACK
6
CONTINUOUS
10
66.325
20
-14.51
11
66.3773
21
-14.5258
0
LINE
8
BLACK
6
CONTINUOUS
10
66.3773
20
-14.5258
11
66.3773
21
-14.5258
0
LINE
8
BLACK
6
CONTINUOUS
10
66.3773
20
-14.5258
11
66.3773
21
-14.5258
0
LINE
8
BLACK
6
CONTINUOUS
10
66.3773
20
-14.5258
11
66.4154
21
-14.5462
0
LINE
8
BLACK
6
CONTINUOUS
10
66.4154
20
-14.5462
11
66.4641
21
-14.5723
0
LINE
8
BLACK
6
CONTINUOUS
10
66.4641
20
-14.5723
11
66.4642
21
-14.5723
0
LINE
8
BLACK
6
CONTINUOUS
10
66.4642
20
-14.5723
11
66.4642
21
-14.5723
0
LINE
8
BLACK
6
CONTINUOUS
10
66.4642
20
-14.5723
11
66.496
21
-14.5984
0
LINE
8
BLACK
6
CONTINUOUS
10
66.496
20
-14.5984
11
66.5403
21
-14.6347
0
LINE
8
BLACK
6
CONTINUOUS
10
66.5403
20
-14.6347
11
66.5403
21
-14.6348
0
LINE
8
BLACK
6
CONTINUOUS
10
66.5403
20
-14.6348
11
66.5403
21
-14.6348
0
LINE
8
BLACK
6
CONTINUOUS
10
66.5403
20
-14.6348
11
66.5684
21
-14.669
0
LINE
8
BLACK
6
CONTINUOUS
10
66.5684
20
-14.669
11
66.6027
21
-14.7109
0
LINE
8
BLACK
6
CONTINUOUS
10
66.6027
20
-14.7109
11
66.6028
21
-14.7109
0
LINE
8
BLACK
6
CONTINUOUS
10
66.6028
20
-14.7109
11
66.6028
21
-14.7109
0
LINE
8
BLACK
6
CONTINUOUS
10
66.6028
20
-14.7109
11
66.6234
21
-14.7496
0
LINE
8
BLACK
6
CONTINUOUS
10
66.6234
20
-14.7496
11
66.6492
21
-14.7977
0
LINE
8
BLACK
6
CONTINUOUS
10
66.6492
20
-14.7977
11
66.6492
21
-14.7978
0
LINE
8
BLACK
6
CONTINUOUS
10
66.6492
20
-14.7978
11
66.6492
21
-14.7978
0
LINE
8
BLACK
6
CONTINUOUS
10
66.6492
20
-14.7978
11
66.661
21
-14.8367
0
LINE
8
BLACK
6
CONTINUOUS
10
66.661
20
-14.8367
11
66.6778
21
-14.892
0
LINE
8
BLACK
6
CONTINUOUS
10
66.6778
20
-14.892
11
66.6778
21
-14.892
0
LINE
8
BLACK
6
CONTINUOUS
10
66.6778
20
-14.892
11
66.6778
21
-14.892
0
LINE
8
BLACK
6
CONTINUOUS
10
66.6778
20
-14.892
11
66.6817
21
-14.932
0
LINE
8
BLACK
6
CONTINUOUS
10
66.6817
20
-14.932
11
66.685
21
-14.9654
0
LINE
8
BLACK
6
CONTINUOUS
10
66.685
20
-14.9654
11
66.685
21
-14.9655
0
LINE
8
BLACK
6
CONTINUOUS
10
66.685
20
-14.9655
11
66.6874
21
-14.9901
0
LINE
8
BLACK
6
CONTINUOUS
10
66.6874
20
-14.9901
11
66.685
21
-15.0146
0
LINE
8
BLACK
6
CONTINUOUS
10
66.685
20
-15.0146
11
66.685
21
-27.89
0
LINE
8
BLACK
6
CONTINUOUS
10
66.685
20
-27.89
11
78.9604
21
-27.89
0
LINE
8
BLACK
6
CONTINUOUS
10
78.9604
20
-27.89
11
78.985
21
-27.8876
0
LINE
8
BLACK
6
CONTINUOUS
10
78.985
20
-27.8876
11
79.0096
21
-27.89
0
LINE
8
BLACK
6
CONTINUOUS
10
79.0096
20
-27.89
11
79.083
21
-27.8972
0
LINE
8
BLACK
6
CONTINUOUS
10
79.083
20
-27.8972
11
79.1773
21
-27.9258
0
LINE
8
BLACK
6
CONTINUOUS
10
79.1773
20
-27.9258
11
79.2641
21
-27.9723
0
LINE
8
BLACK
6
CONTINUOUS
10
79.2641
20
-27.9723
11
79.3403
21
-28.0347
0
LINE
8
BLACK
6
CONTINUOUS
10
79.3403
20
-28.0347
11
79.4027
21
-28.1109
0
LINE
8
BLACK
6
CONTINUOUS
10
79.4027
20
-28.1109
11
79.4492
21
-28.1977
0
LINE
8
BLACK
6
CONTINUOUS
10
79.4492
20
-28.1977
11
79.4778
21
-28.292
0
LINE
8
BLACK
6
CONTINUOUS
10
79.4778
20
-28.292
11
79.4874
21
-28.39
0
LINE
8
BLACK
6
CONTINUOUS
10
79.4874
20
-28.39
11
79.485
21
-28.4146
0
LINE
8
BLACK
6
CONTINUOUS
10
79.485
20
-28.4146
11
79.485
21
-55.0889
0
LINE
8
BLACK
6
CONTINUOUS
10
79.485
20
-55.0889
11
125.21
21
-54.9901
0
LINE
8
BLACK
6
CONTINUOUS
10
125.21
20
-54.9901
11
125.236
21
-54.9876
0
LINE
8
BLACK
6
CONTINUOUS
10
125.236
20
-54.9876
11
125.284
21
-54.9924
0
LINE
8
BLACK
6
CONTINUOUS
10
125.284
20
-54.9924
11
125.332
21
-54.997
0
LINE
8
BLACK
6
CONTINUOUS
10
125.332
20
-54.997
11
125.333
21
-54.9973
0
LINE
8
BLACK
6
CONTINUOUS
10
125.333
20
-54.9973
11
125.334
21
-54.9974
0
LINE
8
BLACK
6
CONTINUOUS
10
125.334
20
-54.9974
11
125.38
21
-55.0115
0
LINE
8
BLACK
6
CONTINUOUS
10
125.38
20
-55.0115
11
125.426
21
-55.0254
0
LINE
8
BLACK
6
CONTINUOUS
10
125.426
20
-55.0254
11
125.427
21
-55.0259
0
LINE
8
BLACK
6
CONTINUOUS
10
125.427
20
-55.0259
11
125.428
21
-55.0262
0
LINE
8
BLACK
6
CONTINUOUS
10
125.428
20
-55.0262
11
125.471
21
-55.049
0
LINE
8
BLACK
6
CONTINUOUS
10
125.471
20
-55.049
11
125.513
21
-55.0717
0
LINE
8
BLACK
6
CONTINUOUS
10
125.513
20
-55.0717
11
125.514
21
-55.0723
0
LINE
8
BLACK
6
CONTINUOUS
10
125.514
20
-55.0723
11
125.515
21
-55.0728
0
LINE
8
BLACK
6
CONTINUOUS
10
125.515
20
-55.0728
11
125.552
21
-55.1035
0
LINE
8
BLACK
6
CONTINUOUS
10
125.552
20
-55.1035
11
125.589
21
-55.134
0
LINE
8
BLACK
6
CONTINUOUS
10
125.589
20
-55.134
11
125.59
21
-55.1348
0
LINE
8
BLACK
6
CONTINUOUS
10
125.59
20
-55.1348
11
125.591
21
-55.1354
0
LINE
8
BLACK
6
CONTINUOUS
10
125.591
20
-55.1354
11
125.622
21
-55.1728
0
LINE
8
BLACK
6
CONTINUOUS
10
125.622
20
-55.1728
11
125.652
21
-55.21
0
LINE
8
BLACK
6
CONTINUOUS
10
125.652
20
-55.21
11
125.653
21
-55.2109
0
LINE
8
BLACK
6
CONTINUOUS
10
125.653
20
-55.2109
11
125.653
21
-55.2117
0
LINE
8
BLACK
6
CONTINUOUS
10
125.653
20
-55.2117
11
125.676
21
-55.2542
0
LINE
8
BLACK
6
CONTINUOUS
10
125.676
20
-55.2542
11
125.699
21
-55.2967
0
LINE
8
BLACK
6
CONTINUOUS
10
125.699
20
-55.2967
11
125.699
21
-55.2977
0
LINE
8
BLACK
6
CONTINUOUS
10
125.699
20
-55.2977
11
125.7
21
-55.2987
0
LINE
8
BLACK
6
CONTINUOUS
10
125.7
20
-55.2987
11
125.713
21
-55.3448
0
LINE
8
BLACK
6
CONTINUOUS
10
125.713
20
-55.3448
11
125.728
21
-55.3909
0
LINE
8
BLACK
6
CONTINUOUS
10
125.728
20
-55.3909
11
125.728
21
-55.392
0
LINE
8
BLACK
6
CONTINUOUS
10
125.728
20
-55.392
11
125.728
21
-55.393
0
LINE
8
BLACK
6
CONTINUOUS
10
125.728
20
-55.393
11
125.733
21
-55.4411
0
LINE
8
BLACK
6
CONTINUOUS
10
125.733
20
-55.4411
11
125.737
21
-55.4889
0
LINE
8
BLACK
6
CONTINUOUS
10
125.737
20
-55.4889
11
125.735
21
-55.5145
0
LINE
8
BLACK
6
CONTINUOUS
10
125.735
20
-55.5145
11
125.722
21
-61.9519
0
LINE
8
BLACK
6
CONTINUOUS
10
125.722
20
-61.9519
11
125.724
21
-61.976
0
LINE
8
BLACK
6
CONTINUOUS
10
125.724
20
-61.976
11
125.722
21
-62.0011
0
LINE
8
BLACK
6
CONTINUOUS
10
125.722
20
-62.0011
11
125.722
21
-62.0016
0
LINE
8
BLACK
6
CONTINUOUS
10
125.722
20
-62.0016
11
125.72
21
-62.0251
0
LINE
8
BLACK
6
CONTINUOUS
10
125.72
20
-62.0251
11
125.715
21
-62.074
0
LINE
8
BLACK
6
CONTINUOUS
10
125.715
20
-62.074
11
125.715
21
-62.0745
0
LINE
8
BLACK
6
CONTINUOUS
10
125.715
20
-62.0745
11
125.715
21
-62.075
0
LINE
8
BLACK
6
CONTINUOUS
10
125.715
20
-62.075
11
125.7
21
-62.1212
0
LINE
8
BLACK
6
CONTINUOUS
10
125.7
20
-62.1212
11
125.686
21
-62.1683
0
LINE
8
BLACK
6
CONTINUOUS
10
125.686
20
-62.1683
11
125.686
21
-62.1687
0
LINE
8
BLACK
6
CONTINUOUS
10
125.686
20
-62.1687
11
125.686
21
-62.1692
0
LINE
8
BLACK
6
CONTINUOUS
10
125.686
20
-62.1692
11
125.663
21
-62.2117
0
LINE
8
BLACK
6
CONTINUOUS
10
125.663
20
-62.2117
11
125.64
21
-62.2551
0
LINE
8
BLACK
6
CONTINUOUS
10
125.64
20
-62.2551
11
125.639
21
-62.2555
0
LINE
8
BLACK
6
CONTINUOUS
10
125.639
20
-62.2555
11
125.639
21
-62.256
0
LINE
8
BLACK
6
CONTINUOUS
10
125.639
20
-62.256
11
125.608
21
-62.2933
0
LINE
8
BLACK
6
CONTINUOUS
10
125.608
20
-62.2933
11
125.577
21
-62.3313
0
LINE
8
BLACK
6
CONTINUOUS
10
125.577
20
-62.3313
11
125.577
21
-62.3316
0
LINE
8
BLACK
6
CONTINUOUS
10
125.577
20
-62.3316
11
125.577
21
-62.332
0
LINE
8
BLACK
6
CONTINUOUS
10
125.577
20
-62.332
11
125.539
21
-62.3627
0
LINE
8
BLACK
6
CONTINUOUS
10
125.539
20
-62.3627
11
125.501
21
-62.3937
0
LINE
8
BLACK
6
CONTINUOUS
10
125.501
20
-62.3937
11
125.501
21
-62.394
0
LINE
8
BLACK
6
CONTINUOUS
10
125.501
20
-62.394
11
125.5
21
-62.3943
0
LINE
8
BLACK
6
CONTINUOUS
10
125.5
20
-62.3943
11
125.458
21
-62.4171
0
LINE
8
BLACK
6
CONTINUOUS
10
125.458
20
-62.4171
11
125.414
21
-62.4402
0
LINE
8
BLACK
6
CONTINUOUS
10
125.414
20
-62.4402
11
125.414
21
-62.4403
0
LINE
8
BLACK
6
CONTINUOUS
10
125.414
20
-62.4403
11
125.413
21
-62.4406
0
LINE
8
BLACK
6
CONTINUOUS
10
125.413
20
-62.4406
11
125.367
21
-62.4545
0
LINE
8
BLACK
6
CONTINUOUS
10
125.367
20
-62.4545
11
125.32
21
-62.4688
0
LINE
8
BLACK
6
CONTINUOUS
10
125.32
20
-62.4688
11
125.32
21
-62.4688
0
LINE
8
BLACK
6
CONTINUOUS
10
125.32
20
-62.4688
11
125.319
21
-62.469
0
LINE
8
BLACK
6
CONTINUOUS
10
125.319
20
-62.469
11
125.271
21
-62.4736
0
LINE
8
BLACK
6
CONTINUOUS
10
125.271
20
-62.4736
11
125.247
21
-62.476
0
LINE
8
BLACK
6
CONTINUOUS
10
125.247
20
-62.476
11
125.246
21
-62.476
0
LINE
8
BLACK
6
CONTINUOUS
10
125.246
20
-62.476
11
125.221
21
-62.4784
0
LINE
8
BLACK
6
CONTINUOUS
10
125.221
20
-62.4784
11
125.197
21
-62.476
0
LINE
8
BLACK
6
CONTINUOUS
10
125.197
20
-62.476
11
30.6316
21
-62.476
0
LINE
8
BLACK
6
CONTINUOUS
10
30.6316
20
-62.476
11
30.607
21
-62.4784
0
LINE
8
BLACK
6
CONTINUOUS
10
30.607
20
-62.4784
11
30.509
21
-62.4688
0
LINE
8
BLACK
6
CONTINUOUS
10
30.509
20
-62.4688
11
30.4147
21
-62.4402
0
LINE
8
BLACK
6
CONTINUOUS
10
30.4147
20
-62.4402
11
30.3279
21
-62.3937
0
LINE
8
BLACK
6
CONTINUOUS
10
30.3279
20
-62.3937
11
30.2517
21
-62.3313
0
LINE
8
BLACK
6
CONTINUOUS
10
30.2517
20
-62.3313
11
30.1893
21
-62.2551
0
LINE
8
BLACK
6
CONTINUOUS
10
30.1893
20
-62.2551
11
30.1433
21
-62.1692
0
LINE
8
BLACK
6
CONTINUOUS
10
30.1433
20
-62.1692
11
30.1428
21
-62.1683
0
LINE
8
BLACK
6
CONTINUOUS
10
30.1428
20
-62.1683
11
30.1142
21
-62.074
0
LINE
8
BLACK
6
CONTINUOUS
10
30.1142
20
-62.074
11
30.1046
21
-61.976
0
LINE
8
BLACK
6
CONTINUOUS
10
30.1046
20
-61.976
11
30.107
21
-61.9514
0
LINE
8
BLACK
6
CONTINUOUS
10
30.107
20
-61.9514
11
30.107
21
-15.0105
0
LINE
8
BLACK
6
CONTINUOUS
10
30.107
20
-15.0105
11
30.1046
21
-14.9859
0
LINE
8
BLACK
6
CONTINUOUS
10
30.1046
20
-14.9859
11
30.1094
21
-14.9372
0
LINE
8
BLACK
6
CONTINUOUS
10
30.1094
20
-14.9372
11
30.1142
21
-14.888
0
LINE
8
BLACK
6
CONTINUOUS
10
30.1142
20
-14.888
11
30.1142
21
-14.888
0
LINE
8
BLACK
6
CONTINUOUS
10
30.1142
20
-14.888
11
30.1142
21
-14.8879
0
LINE
8
BLACK
6
CONTINUOUS
10
30.1142
20
-14.8879
11
30.1291
21
-14.8388
0
LINE
8
BLACK
6
CONTINUOUS
10
30.1291
20
-14.8388
11
30.1428
21
-14.7937
0
LINE
8
BLACK
6
CONTINUOUS
10
30.1428
20
-14.7937
11
30.1428
21
-14.7937
0
LINE
8
BLACK
6
CONTINUOUS
10
30.1428
20
-14.7937
11
30.1428
21
-14.7937
0
LINE
8
BLACK
6
CONTINUOUS
10
30.1428
20
-14.7937
11
30.1667
21
-14.749
0
LINE
8
BLACK
6
CONTINUOUS
10
30.1667
20
-14.749
11
30.1893
21
-14.7069
0
LINE
8
BLACK
6
CONTINUOUS
10
30.1893
20
-14.7069
11
30.1893
21
-14.7068
0
LINE
8
BLACK
6
CONTINUOUS
10
30.1893
20
-14.7068
11
30.1893
21
-14.7068
0
LINE
8
BLACK
6
CONTINUOUS
10
30.1893
20
-14.7068
11
30.22
21
-14.6694
0
LINE
8
BLACK
6
CONTINUOUS
10
30.22
20
-14.6694
11
30.2517
21
-14.6307
0
LINE
8
BLACK
6
CONTINUOUS
10
30.2517
20
-14.6307
11
30.2518
21
-14.6307
0
LINE
8
BLACK
6
CONTINUOUS
10
30.2518
20
-14.6307
11
30.2518
21
-14.6307
0
LINE
8
BLACK
6
CONTINUOUS
10
30.2518
20
-14.6307
11
30.2905
21
-14.5989
0
LINE
8
BLACK
6
CONTINUOUS
10
30.2905
20
-14.5989
11
30.3279
21
-14.5683
0
LINE
8
BLACK
6
CONTINUOUS
10
30.3279
20
-14.5683
11
30.3279
21
-14.5682
0
LINE
8
BLACK
6
CONTINUOUS
10
30.3279
20
-14.5682
11
30.3279
21
-14.5682
0
LINE
8
BLACK
6
CONTINUOUS
10
30.3279
20
-14.5682
11
30.3701
21
-14.5457
0
LINE
8
BLACK
6
CONTINUOUS
10
30.3701
20
-14.5457
11
30.4147
21
-14.5218
0
LINE
8
BLACK
6
CONTINUOUS
10
30.4147
20
-14.5218
11
30.4148
21
-14.5218
0
LINE
8
BLACK
6
CONTINUOUS
10
30.4148
20
-14.5218
11
30.4148
21
-14.5218
0
LINE
8
BLACK
6
CONTINUOUS
10
30.4148
20
-14.5218
11
30.4599
21
-14.5081
0
LINE
8
BLACK
6
CONTINUOUS
10
30.4599
20
-14.5081
11
30.509
21
-14.4932
0
LINE
8
BLACK
6
CONTINUOUS
10
30.509
20
-14.4932
11
30.509
21
-14.4932
0
LINE
8
BLACK
6
CONTINUOUS
10
30.509
20
-14.4932
11
30.509
21
-14.4932
0
LINE
8
BLACK
6
CONTINUOUS
10
30.509
20
-14.4932
11
30.5537
21
-14.4888
0
LINE
8
BLACK
6
CONTINUOUS
10
30.5537
20
-14.4888
11
30.607
21
-14.4836
0
LINE
8
BLACK
6
CONTINUOUS
10
30.607
20
-14.4836
11
30.6316
21
-14.486
0
LINE
8
BLACK
6
CONTINUOUS
10
31.107
20
-61.476
11
124.723
21
-61.476
0
LINE
8
BLACK
6
CONTINUOUS
10
124.723
20
-61.476
11
124.734
21
-55.9911
0
LINE
8
BLACK
6
CONTINUOUS
10
124.734
20
-55.9911
11
79.0101
21
-56.0899
0
LINE
8
BLACK
6
CONTINUOUS
10
79.0101
20
-56.0899
11
78.985
21
-56.0924
0
LINE
8
BLACK
6
CONTINUOUS
10
78.985
20
-56.0924
11
78.9361
21
-56.0876
0
LINE
8
BLACK
6
CONTINUOUS
10
78.9361
20
-56.0876
11
78.888
21
-56.083
0
LINE
8
BLACK
6
CONTINUOUS
10
78.888
20
-56.083
11
78.8875
21
-56.0828
0
LINE
8
BLACK
6
CONTINUOUS
10
78.8875
20
-56.0828
11
78.887
21
-56.0828
0
LINE
8
BLACK
6
CONTINUOUS
10
78.887
20
-56.0828
11
78.8401
21
-56.0686
0
LINE
8
BLACK
6
CONTINUOUS
10
78.8401
20
-56.0686
11
78.7937
21
-56.0546
0
LINE
8
BLACK
6
CONTINUOUS
10
78.7937
20
-56.0546
11
78.7933
21
-56.0543
0
LINE
8
BLACK
6
CONTINUOUS
10
78.7933
20
-56.0543
11
78.7927
21
-56.0542
0
LINE
8
BLACK
6
CONTINUOUS
10
78.7927
20
-56.0542
11
78.7497
21
-56.0312
0
LINE
8
BLACK
6
CONTINUOUS
10
78.7497
20
-56.0312
11
78.7068
21
-56.0083
0
LINE
8
BLACK
6
CONTINUOUS
10
78.7068
20
-56.0083
11
78.7064
21
-56.008
0
LINE
8
BLACK
6
CONTINUOUS
10
78.7064
20
-56.008
11
78.7059
21
-56.0077
0
LINE
8
BLACK
6
CONTINUOUS
10
78.7059
20
-56.0077
11
78.6683
21
-55.9769
0
LINE
8
BLACK
6
CONTINUOUS
10
78.6683
20
-55.9769
11
78.6305
21
-55.946
0
LINE
8
BLACK
6
CONTINUOUS
10
78.6305
20
-55.946
11
78.6302
21
-55.9456
0
LINE
8
BLACK
6
CONTINUOUS
10
78.6302
20
-55.9456
11
78.6297
21
-55.9453
0
LINE
8
BLACK
6
CONTINUOUS
10
78.6297
20
-55.9453
11
78.5989
21
-55.9077
0
LINE
8
BLACK
6
CONTINUOUS
10
78.5989
20
-55.9077
11
78.5679
21
-55.87
0
LINE
8
BLACK
6
CONTINUOUS
10
78.5679
20
-55.87
11
78.5676
21
-55.8695
0
LINE
8
BLACK
6
CONTINUOUS
10
78.5676
20
-55.8695
11
78.5673
21
-55.8691
0
LINE
8
BLACK
6
CONTINUOUS
10
78.5673
20
-55.8691
11
78.5444
21
-55.8263
0
LINE
8
BLACK
6
CONTINUOUS
10
78.5444
20
-55.8263
11
78.5212
21
-55.7833
0
LINE
8
BLACK
6
CONTINUOUS
10
78.5212
20
-55.7833
11
78.5211
21
-55.7827
0
LINE
8
BLACK
6
CONTINUOUS
10
78.5211
20
-55.7827
11
78.5208
21
-55.7823
0
LINE
8
BLACK
6
CONTINUOUS
10
78.5208
20
-55.7823
11
78.5067
21
-55.7358
0
LINE
8
BLACK
6
CONTINUOUS
10
78.5067
20
-55.7358
11
78.4924
21
-55.6891
0
LINE
8
BLACK
6
CONTINUOUS
10
78.4924
20
-55.6891
11
78.4924
21
-55.6885
0
LINE
8
BLACK
6
CONTINUOUS
10
78.4924
20
-55.6885
11
78.4922
21
-55.688
0
LINE
8
BLACK
6
CONTINUOUS
10
78.4922
20
-55.688
11
78.4875
21
-55.6396
0
LINE
8
BLACK
6
CONTINUOUS
10
78.4875
20
-55.6396
11
78.4826
21
-55.5911
0
LINE
8
BLACK
6
CONTINUOUS
10
78.4826
20
-55.5911
11
78.485
21
-55.566
0
LINE
8
BLACK
6
CONTINUOUS
10
78.485
20
-55.566
11
78.485
21
-28.89
0
LINE
8
BLACK
6
CONTINUOUS
10
78.485
20
-28.89
11
66.2096
21
-28.89
0
LINE
8
BLACK
6
CONTINUOUS
10
66.2096
20
-28.89
11
66.185
21
-28.8924
0
LINE
8
BLACK
6
CONTINUOUS
10
66.185
20
-28.8924
11
66.1604
21
-28.89
0
LINE
8
BLACK
6
CONTINUOUS
10
66.1604
20
-28.89
11
66.087
21
-28.8828
0
LINE
8
BLACK
6
CONTINUOUS
10
66.087
20
-28.8828
11
65.9927
21
-28.8542
0
LINE
8
BLACK
6
CONTINUOUS
10
65.9927
20
-28.8542
11
65.9059
21
-28.8077
0
LINE
8
BLACK
6
CONTINUOUS
10
65.9059
20
-28.8077
11
65.8297
21
-28.7453
0
LINE
8
BLACK
6
CONTINUOUS
10
65.8297
20
-28.7453
11
65.7673
21
-28.6691
0
LINE
8
BLACK
6
CONTINUOUS
10
65.7673
20
-28.6691
11
65.7208
21
-28.5823
0
LINE
8
BLACK
6
CONTINUOUS
10
65.7208
20
-28.5823
11
65.6922
21
-28.488
0
LINE
8
BLACK
6
CONTINUOUS
10
65.6922
20
-28.488
11
65.6826
21
-28.39
0
LINE
8
BLACK
6
CONTINUOUS
10
65.6826
20
-28.39
11
65.685
21
-28.3654
0
LINE
8
BLACK
6
CONTINUOUS
10
65.685
20
-28.3654
11
65.685
21
-15.4899
0
LINE
8
BLACK
6
CONTINUOUS
10
65.685
20
-15.4899
11
31.107
21
-15.4861
0
LINE
8
BLACK
6
CONTINUOUS
10
31.107
20
-15.4861
11
31.107
21
-61.476
  0
ENDSEC
  0
EOF
