Drill report for /home/kuizi/loracapixaba/Diagramas Esquemáticos/PoEPowerBoard/PoEPowerBoard.kicad_pcb
Created on sex 24 jul 2020 15:07:51

Copper Layer Stackup:
    =============================================================
    L1 :  F.Cu                      front
    L2 :  B.Cu                      back


Drill file 'PoEPowerBoard-PTH.drl' contains
    plated through holes:
    =============================================================
    T1  0,40mm  0,016"  (35 holes)
    T2  1,10mm  0,043"  (8 holes)

    Total plated holes count 43


Drill file 'PoEPowerBoard-NPTH.drl' contains
    unplated through holes:
    =============================================================
    T1  2,70mm  0,106"  (1 hole)

    Total unplated holes count 1
