(export (version D)
  (design
    (source "/home/kuizi/loracapixaba/Diagramas Esquemáticos/PoEPowerBoard/PoEPowerBoard.sch")
    (date "qua 24 jun 2020 11:18:05 -03")
    (tool "Eeschema 5.1.6-c6e7f7d~86~ubuntu18.04.1")
    (sheet (number 1) (name /) (tstamps /)
      (title_block
        (title)
        (company)
        (rev)
        (date)
        (source PoEPowerBoard.sch)
        (comment (number 1) (value ""))
        (comment (number 2) (value ""))
        (comment (number 3) (value ""))
        (comment (number 4) (value "")))))
  (components
    (comp (ref C70)
      (value 2200pf)
      (footprint Capacitors_SMD:C_1812_4532Metric_Pad1.30x3.40mm_HandSolder)
      (datasheet ~)
      (fields
        (field (name "Manufacter N") C4532X7R3D222K))
      (libsource (lib Device) (part C) (description "Unpolarized capacitor"))
      (sheetpath (names /) (tstamps /))
      (tstamp 5FA4EC8B))
    (comp (ref J2)
      (value Conn_02x20_Odd_Even)
      (footprint Modules:Raspberry_Socketed_THT_FaceDown_MountingHoles)
      (datasheet ~)
      (libsource (lib Connector_Generic) (part Conn_02x20_Odd_Even) (description "Generic connector, double row, 02x20, odd/even pin numbering scheme (row 1 odd numbers, row 2 even numbers), script generated (kicad-library-utils/schlib/autogen/connector/)"))
      (sheetpath (names /) (tstamps /))
      (tstamp 5E422A86))
    (comp (ref IC7)
      (value TPS23753APWR)
      (footprint TPS23753APWR:SOP65P640X120-14N)
      (datasheet http://www.ti.com/lit/gpn/tps23753a)
      (fields
        (field (name "Arrow Part Number") TPS23753APWR)
        (field (name "Arrow Price/Stock") https://www.arrow.com/en/products/tps23753apwr/texas-instruments)
        (field (name Description) "IEEE 802.3-2005 PoE Interface and Isolated Converter Controller with Enhanced ESD Ride-Through")
        (field (name Height) 1.2)
        (field (name Manufacturer_Name) "Texas Instruments")
        (field (name Manufacturer_Part_Number) TPS23753APWR)
        (field (name "Mouser Part Number") 595-TPS23753APWR)
        (field (name "Mouser Price/Stock") https://www.mouser.co.uk/ProductDetail/Texas-Instruments/TPS23753APWR?qs=i6VRxKQL%2FYzzeXAQVxAzsw%3D%3D))
      (libsource (lib TPS23753APWR) (part TPS23753APWR) (description "IEEE 802.3-2005 PoE Interface and Isolated Converter Controller with Enhanced ESD Ride-Through"))
      (sheetpath (names /) (tstamps /))
      (tstamp 5EF4C620))
    (comp (ref D1)
      (value SMAJ58A-13-F)
      (footprint SMAJ58A-13-F:DIOM5226X230N)
      (datasheet https://componentsearchengine.com/Datasheets/1/SMAJ58A-13-F.pdf)
      (fields
        (field (name "Allied Price/Stock") https://www.alliedelec.com/diodes-inc-smaj58a-13-f/70438548/)
        (field (name Allied_Number) 70438548)
        (field (name Description) "Diodes Inc SMAJ58A-13-F, Uni-Directional TVS Diode, 400W, 2-Pin DO-214AC")
        (field (name Height) 2.3)
        (field (name "Manufacter N") SMAJ58A-13-F)
        (field (name Manufacturer_Name) "Diodes Inc.")
        (field (name "Mouser Part Number") 621-SMAJ58A-13-F)
        (field (name "Mouser Price/Stock") https://www.mouser.com/Search/Refine.aspx?Keyword=621-SMAJ58A-13-F)
        (field (name "RS Part Number") 7515010P)
        (field (name "RS Price/Stock") http://uk.rs-online.com/web/p/products/7515010P))
      (libsource (lib Project0-rescue) (part SMAJ58A-13-F-SMAJ58A-13-F) (description ""))
      (sheetpath (names /) (tstamps /))
      (tstamp 5F9ACF45))
    (comp (ref FB8)
      (value "30 Ohm")
      (footprint 08051C104KAT2A:CAPC2012X140N)
      (datasheet ~)
      (fields
        (field (name "Manufacter N") 810-MMZ2012R300AT000))
      (libsource (lib Device) (part Ferrite_Bead) (description "Ferrite bead"))
      (sheetpath (names /) (tstamps /))
      (tstamp 5FBA189C))
    (comp (ref FB9)
      (value "30 Ohm")
      (footprint 08051C104KAT2A:CAPC2012X140N)
      (datasheet ~)
      (fields
        (field (name "Manufacter N") "810-MMZ2012R300AT000 "))
      (libsource (lib Device) (part Ferrite_Bead) (description "Ferrite bead"))
      (sheetpath (names /) (tstamps /))
      (tstamp 5FC9DD29))
    (comp (ref R40)
      (value 59.0K)
      (footprint Resistor_SMD:R_0603_1608Metric_Pad1.05x0.95mm_HandSolder)
      (datasheet ~)
      (fields
        (field (name "Manufacter N") CRCW060359K0FKEA))
      (libsource (lib Device) (part R_Small_US) (description "Resistor, small US symbol"))
      (sheetpath (names /) (tstamps /))
      (tstamp 6069FC04))
    (comp (ref R41)
      (value 80.6K)
      (footprint Resistor_SMD:R_0603_1608Metric_Pad1.05x0.95mm_HandSolder)
      (datasheet ~)
      (fields
        (field (name "Manufacter N") CRCW060380K6FKEA))
      (libsource (lib Device) (part R_Small_US) (description "Resistor, small US symbol"))
      (sheetpath (names /) (tstamps /))
      (tstamp 606A10CA))
    (comp (ref C35)
      (value 0.1uF)
      (footprint 08051C104KAT2A:CAPC2012X140N)
      (datasheet ~)
      (fields
        (field (name "Manufacter N") C0805C104K1RACTU))
      (libsource (lib Device) (part C) (description "Unpolarized capacitor"))
      (sheetpath (names /) (tstamps /))
      (tstamp 617382A8))
    (comp (ref C37)
      (value 0.1uF)
      (footprint Capacitors_SMD:C_0603_1608Metric_Pad1.05x0.95mm_HandSolder)
      (datasheet ~)
      (fields
        (field (name "Manufacter N") C1608X7R1H104K))
      (libsource (lib Device) (part C) (description "Unpolarized capacitor"))
      (sheetpath (names /) (tstamps /))
      (tstamp 61844736))
    (comp (ref C54)
      (value 0.22uF)
      (footprint Capacitors_SMD:C_0805_2012Metric_Pad1.15x1.40mm_HandSolder)
      (datasheet ~)
      (fields
        (field (name "Manufacter N") 08053C224KAT2A))
      (libsource (lib Device) (part C) (description "Unpolarized capacitor"))
      (sheetpath (names /) (tstamps /))
      (tstamp 6194F66D))
    (comp (ref C31)
      (value 1000pF)
      (footprint 08051C104KAT2A:CAPC2012X140N)
      (datasheet ~)
      (fields
        (field (name "Manufacter N") 08051C102KAT2A))
      (libsource (lib Device) (part C) (description "Unpolarized capacitor"))
      (sheetpath (names /) (tstamps /))
      (tstamp 61739C6B))
    (comp (ref D3)
      (value FastSwitchDiode)
      (footprint Diodes_SMD:D_SOT-23_ANK)
      (datasheet ~)
      (fields
        (field (name "Manufacter N") BAS16-7-F))
      (libsource (lib Device) (part D_Small_ALT) (description "Diode, small symbol, filled shape"))
      (sheetpath (names /) (tstamps /))
      (tstamp 62F507BE))
    (comp (ref R57)
      (value 49.9k)
      (footprint Resistor_SMD:R_0603_1608Metric_Pad1.05x0.95mm_HandSolder)
      (datasheet ~)
      (fields
        (field (name "Manufacter N") CRCW060349R9FKEA))
      (libsource (lib Device) (part R_Small_US) (description "Resistor, small US symbol"))
      (sheetpath (names /) (tstamps /))
      (tstamp 6306578D))
    (comp (ref T1)
      (value POE13P-50LD)
      (footprint Project0:POE13P50LD)
      (datasheet https://www.coilcraft.com/pdfs/poe_ep.pdf)
      (fields
        (field (name "Arrow Part Number") POE13P-50LD)
        (field (name Description) "Audio Transformers / Signal Transformers POE13P Flyback PoE 127uH 5.0 V 2.6 A")
        (field (name Height) 12.7)
        (field (name "Manufacter N") POE13P-50LD)
        (field (name Manufacturer_Name) COILCRAFT)
        (field (name "Mouser Part Number") 994-POE13P-50LD)
        (field (name "Mouser Price/Stock") https://www.mouser.co.uk/ProductDetail/Coilcraft/POE13P-50LD?qs=ZYnrCdKdyeddNNNVe24YVA%3D%3D))
      (libsource (lib POE13P-50LD) (part POE13P-50LD) (description "Audio Transformers / Signal Transformers POE13P Flyback PoE 127uH 5.0 V 2.6 A"))
      (sheetpath (names /) (tstamps /))
      (tstamp 634AFF9E))
    (comp (ref D4)
      (value MURA120T3G)
      (footprint MURA120T3G:DIOM5226X220N)
      (datasheet http://www.onsemi.com/pub/Collateral/MURA115T3-D.PDF)
      (fields
        (field (name "Arrow Part Number") MURA120T3G)
        (field (name "Arrow Price/Stock") https://www.arrow.com/en/products/mura120t3g/on-semiconductor)
        (field (name Height) 2.2)
        (field (name "Manufacter N") MURA120T3G)
        (field (name Manufacturer_Name) "ON Semiconductor")
        (field (name "Mouser Part Number") 863-MURA120T3G)
        (field (name "Mouser Price/Stock") https://www.mouser.co.uk/ProductDetail/ON-Semiconductor/MURA120T3G?qs=Gev%252BmEvV0iYrsyIrWcjJxg%3D%3D))
      (libsource (lib MURA120T3G) (part MURA120T3G) (description ""))
      (sheetpath (names /) (tstamps /))
      (tstamp 6390F490))
    (comp (ref C59)
      (value 0,01uF)
      (footprint Capacitors_SMD:C_0805_2012Metric_Pad1.15x1.40mm_HandSolder)
      (datasheet ~)
      (fields
        (field (name "Manufacter N") GRM21BR72A103KA01L))
      (libsource (lib Device) (part C) (description "Unpolarized capacitor"))
      (sheetpath (names /) (tstamps /))
      (tstamp 63A27B8E))
    (comp (ref C45)
      (value 1uF)
      (footprint Capacitors_SMD:C_1210_3225Metric_Pad1.42x2.65mm_HandSolder)
      (datasheet ~)
      (fields
        (field (name "Manufacter N") C3225X7R2A105K200AA))
      (libsource (lib Device) (part C) (description "Unpolarized capacitor"))
      (sheetpath (names /) (tstamps /))
      (tstamp 642E66C3))
    (comp (ref C42)
      (value 1uF)
      (footprint Capacitors_SMD:C_1210_3225Metric_Pad1.42x2.65mm_HandSolder)
      (datasheet ~)
      (fields
        (field (name "Manufacter N") C3225X7R2A105K200AA))
      (libsource (lib Device) (part C) (description "Unpolarized capacitor"))
      (sheetpath (names /) (tstamps /))
      (tstamp 643FE02D))
    (comp (ref R34)
      (value "29.4 k")
      (footprint Resistor_SMD:R_0603_1608Metric_Pad1.05x0.95mm_HandSolder)
      (datasheet ~)
      (fields
        (field (name "Manufacter N") CRCW060324K9FKEA))
      (libsource (lib Device) (part R_Small_US) (description "Resistor, small US symbol"))
      (sheetpath (names /) (tstamps /))
      (tstamp 64CDECB9))
    (comp (ref R43)
      (value 1.27k)
      (footprint Resistor_SMD:R_0603_1608Metric_Pad1.05x0.95mm_HandSolder)
      (datasheet ~)
      (fields
        (field (name "Manufacter N") CRCW06031K27FKEA))
      (libsource (lib Device) (part R_Small_US) (description "Resistor, small US symbol"))
      (sheetpath (names /) (tstamps /))
      (tstamp 6570C50A))
    (comp (ref R53)
      (value 0)
      (footprint Resistor_SMD:R_0603_1608Metric_Pad1.05x0.95mm_HandSolder)
      (datasheet ~)
      (fields
        (field (name "Manufacter N") CRCW06030000Z0EA))
      (libsource (lib Device) (part R_Small_US) (description "Resistor, small US symbol"))
      (sheetpath (names /) (tstamps /))
      (tstamp 66515F3C))
    (comp (ref R56)
      (value 0.56)
      (footprint Resistor_SMD:R_1206_3216Metric_Pad1.42x1.75mm_HandSolder)
      (datasheet ~)
      (fields
        (field (name "Manufacter N") ERJ-8RQFR56V))
      (libsource (lib Device) (part R_Small_US) (description "Resistor, small US symbol"))
      (sheetpath (names /) (tstamps /))
      (tstamp 6841956E))
    (comp (ref C69)
      (value 330pF)
      (footprint Capacitors_SMD:C_1206_3216Metric_Pad1.42x1.75mm_HandSolder)
      (datasheet ~)
      (fields
        (field (name "Manufacter N") GRM31A5C2J331JW01D))
      (libsource (lib Device) (part C) (description "Unpolarized capacitor"))
      (sheetpath (names /) (tstamps /))
      (tstamp 68C8CF12))
    (comp (ref R36)
      (value 499)
      (footprint Resistor_SMD:R_0603_1608Metric_Pad1.05x0.95mm_HandSolder)
      (datasheet ~)
      (fields
        (field (name "Manufacter N") CRCW0603499RFKEA))
      (libsource (lib Device) (part R_Small_US) (description "Resistor, small US symbol"))
      (sheetpath (names /) (tstamps /))
      (tstamp 6929FE85))
    (comp (ref R37)
      (value 2k)
      (footprint Resistor_SMD:R_0603_1608Metric_Pad1.05x0.95mm_HandSolder)
      (datasheet ~)
      (fields
        (field (name "Manufacter N") "CRCW06032K00JNEAC "))
      (libsource (lib Device) (part R_Small_US) (description "Resistor, small US symbol"))
      (sheetpath (names /) (tstamps /))
      (tstamp 698BDA00))
    (comp (ref C41)
      (value 0.022uF)
      (footprint Capacitors_SMD:C_0603_1608Metric_Pad1.05x0.95mm_HandSolder)
      (datasheet ~)
      (fields
        (field (name "Manufacter N") C1608X7R1H223K))
      (libsource (lib Device) (part C) (description "Unpolarized capacitor"))
      (sheetpath (names /) (tstamps /))
      (tstamp 699F7323))
    (comp (ref R39)
      (value 10k)
      (footprint Resistor_SMD:R_0603_1608Metric_Pad1.05x0.95mm_HandSolder)
      (datasheet ~)
      (fields
        (field (name "Manufacter N") RC0603JR-0710KL))
      (libsource (lib Device) (part R_Small_US) (description "Resistor, small US symbol"))
      (sheetpath (names /) (tstamps /))
      (tstamp 6B054870))
    (comp (ref R42)
      (value 19.1k)
      (footprint Resistor_SMD:R_0603_1608Metric_Pad1.05x0.95mm_HandSolder)
      (datasheet ~)
      (fields
        (field (name "Manufacter N") CRCW060319K1FKTA))
      (libsource (lib Device) (part R_Small_US) (description "Resistor, small US symbol"))
      (sheetpath (names /) (tstamps /))
      (tstamp 6B2D342F))
    (comp (ref C49)
      (value 8200pF)
      (footprint Capacitors_SMD:C_0603_1608Metric_Pad1.05x0.95mm_HandSolder)
      (datasheet ~)
      (fields
        (field (name "Manufacter N") GCD188R71H822KA01D))
      (libsource (lib Device) (part C) (description "Unpolarized capacitor"))
      (sheetpath (names /) (tstamps /))
      (tstamp 6B413CF9))
    (comp (ref C48)
      (value 100pF)
      (footprint Capacitors_SMD:C_0603_1608Metric_Pad1.05x0.95mm_HandSolder)
      (datasheet ~)
      (fields
        (field (name "Manufacter N") 06035A101JAT2A))
      (libsource (lib Device) (part C) (description "Unpolarized capacitor"))
      (sheetpath (names /) (tstamps /))
      (tstamp 6B7D5FCD))
    (comp (ref C46)
      (value 1uF)
      (footprint Capacitors_SMD:C_0805_2012Metric_Pad1.15x1.40mm_HandSolder)
      (datasheet ~)
      (fields
        (field (name "Manufacter N") C2012X7R1C105K))
      (libsource (lib Device) (part C) (description "Unpolarized capacitor"))
      (sheetpath (names /) (tstamps /))
      (tstamp 6B915FA4))
    (comp (ref R45)
      (value 13.3k)
      (footprint Resistor_SMD:R_0603_1608Metric_Pad1.05x0.95mm_HandSolder)
      (datasheet ~)
      (fields
        (field (name "Manufacter N") CRCW060313K3FKEA))
      (libsource (lib Device) (part R_Small_US) (description "Resistor, small US symbol"))
      (sheetpath (names /) (tstamps /))
      (tstamp 6D7BEE72))
    (comp (ref D2)
      (value BAV99,215)
      (footprint BAV99_215:SOT95P230X110-3N)
      (datasheet http://www.nxp.com/documents/data_sheet/BAV99_SER.pdf)
      (fields
        (field (name "Arrow Part Number") BAV99,215)
        (field (name "Arrow Price/Stock") https://www.arrow.com/en/products/bav99215/nexperia)
        (field (name Description) "Diodes - General Purpose, Power, Switching SW DBL 75V 215MA HS")
        (field (name Height) 1.1)
        (field (name "Manufacter N") BAV99,215)
        (field (name Manufacturer_Name) Nexperia)
        (field (name "Mouser Part Number") 771-BAV99-T/R)
        (field (name "Mouser Price/Stock") https://www.mouser.co.uk/ProductDetail/Nexperia/BAV99215?qs=me8TqzrmIYWbN0bCKV3n5w%3D%3D))
      (libsource (lib BAV99_215) (part BAV99,215) (description "Diodes - General Purpose, Power, Switching SW DBL 75V 215MA HS"))
      (sheetpath (names /) (tstamps /))
      (tstamp 6C1EAA25))
    (comp (ref IC8)
      (value TLV431ACDBZR)
      (footprint TLV431ACDBZR:SOT95P237X112-3N)
      (datasheet http://www.ti.com/lit/gpn/tlv431a)
      (fields
        (field (name "Arrow Part Number") TLV431ACDBZR)
        (field (name "Arrow Price/Stock") https://www.arrow.com/en/products/tlv431acdbzr/texas-instruments)
        (field (name Description) "1% Accuracy Low-Voltage Adjustable Precision Shunt Regulator")
        (field (name "Manufacter N") TLV431ACDBZR)
        (field (name Manufacturer_Name) "Texas Instruments")
        (field (name "Mouser Part Number") 595-TLV431ACDBZR)
        (field (name "Mouser Price/Stock") https://www.mouser.co.uk/ProductDetail/Texas-Instruments/TLV431ACDBZR?qs=m96fseALk3UFqurlruAFnw%3D%3D))
      (libsource (lib TLV431ACDBZR) (part TLV431ACDBZR) (description "1% Accuracy Low-Voltage Adjustable Precision Shunt Regulator"))
      (sheetpath (names /) (tstamps /))
      (tstamp 71244D20))
    (comp (ref R44)
      (value 41.2k)
      (footprint Resistor_SMD:R_0603_1608Metric_Pad1.05x0.95mm_HandSolder)
      (datasheet ~)
      (fields
        (field (name "Manufacter N") CRCW060341K2FKEA))
      (libsource (lib Device) (part R_Small_US) (description "Resistor, small US symbol"))
      (sheetpath (names /) (tstamps /))
      (tstamp 72353D25))
    (comp (ref Q1)
      (value FOD817AS_FOD817AS)
      (footprint Project0:SOP254P1016X385-4N)
      (datasheet https://www.onsemi.com/pub/Collateral/FOD814-D.PDF)
      (fields
        (field (name "Arrow Part Number") FOD817AS)
        (field (name "Arrow Price/Stock") https://www.arrow.com/en/products/fod817as/on-semiconductor)
        (field (name Description) "Fairchild FOD817AS DC Input Phototransistor Output Optocoupler, Surface Mount, 4-Pin MDIP")
        (field (name Height) 3.85)
        (field (name "Manufacter N") FOD817AS)
        (field (name Manufacturer_Name) "ON Semiconductor")
        (field (name "Mouser Part Number") 512-FOD817AS)
        (field (name "Mouser Price/Stock") https://www.mouser.co.uk/ProductDetail/ON-Semiconductor-Fairchild/FOD817AS?qs=KmQzudrvw%2FeCISHrOSU62w%3D%3D))
      (libsource (lib Project0-rescue) (part FOD817AS_FOD817AS-Project0-cache) (description ""))
      (sheetpath (names /) (tstamps /))
      (tstamp 72E06EB5))
    (comp (ref R62)
      (value 0)
      (footprint Resistor_SMD:R_0603_1608Metric_Pad1.05x0.95mm_HandSolder)
      (datasheet ~)
      (fields
        (field (name "Manufacter N") CRCW06030000Z0EA))
      (libsource (lib Device) (part R_Small_US) (description "Resistor, small US symbol"))
      (sheetpath (names /) (tstamps /))
      (tstamp 747ED177))
    (comp (ref R63)
      (value 20k)
      (footprint Resistor_SMD:R_1206_3216Metric_Pad1.42x1.75mm_HandSolder)
      (datasheet ~)
      (fields
        (field (name "Manufacter N") CRCW120620R0FKEA))
      (libsource (lib Device) (part R_Small_US) (description "Resistor, small US symbol"))
      (sheetpath (names /) (tstamps /))
      (tstamp 75470CC6))
    (comp (ref D9)
      (value MBRS540T3G)
      (footprint MBRS540T3G:DIOM7958X256N)
      (datasheet http://www.onsemi.com/pub/Collateral/MBRS540T3-D.PDF)
      (fields
        (field (name "Arrow Part Number") MBRS540T3G)
        (field (name "Arrow Price/Stock") https://www.arrow.com/en/products/mbrs540t3g/on-semiconductor)
        (field (name Description) "Diode Schottky 40V 5A SMC ON Semiconductor MBRS540T3G Schottky Diode, 5A, 40V, 2-Pin SMC")
        (field (name Height) 2.56)
        (field (name "Manufacter N") MBRS540T3G)
        (field (name Manufacturer_Name) "ON Semiconductor")
        (field (name "Mouser Part Number") 863-MBRS540T3G)
        (field (name "Mouser Price/Stock") https://www.mouser.co.uk/ProductDetail/ON-Semiconductor/MBRS540T3G?qs=3JMERSakebo5%2FaZU4XA2uw%3D%3D))
      (libsource (lib MBRS540T3G) (part MBRS540T3G) (description "Diode Schottky 40V 5A SMC ON Semiconductor MBRS540T3G Schottky Diode, 5A, 40V, 2-Pin SMC"))
      (sheetpath (names /) (tstamps /))
      (tstamp 7573CBF7))
    (comp (ref C79)
      (value 47uF)
      (footprint Capacitors_SMD:C_1210_3225Metric_Pad1.42x2.65mm_HandSolder)
      (datasheet ~)
      (fields
        (field (name "Manufacter N") GRM32ER61A476KE20L))
      (libsource (lib Device) (part C) (description "Unpolarized capacitor"))
      (sheetpath (names /) (tstamps /))
      (tstamp 763E1782))
    (comp (ref C91)
      (value 47uF)
      (footprint Capacitors_SMD:C_1210_3225Metric_Pad1.42x2.65mm_HandSolder)
      (datasheet ~)
      (fields
        (field (name "Manufacter N") GRM32ER61A476KE20L))
      (libsource (lib Device) (part C) (description "Unpolarized capacitor"))
      (sheetpath (names /) (tstamps /))
      (tstamp 765495C5))
    (comp (ref J4)
      (value HMTSW-102-07-G-S-230)
      (footprint Project0:HDRV2W64P0X254_1X2_508X248X864P)
      (datasheet http://suddendocs.samtec.com/catalog_english/mtsw.pdf)
      (fields
        (field (name "Arrow Part Number") HMTSW-102-07-G-S-230)
        (field (name Description) "Board to Board & Mezzanine Connectors .100\" High-Temp Variable Post Height Terminal Strip")
        (field (name Height) 8.64)
        (field (name Manufacturer_Name) SAMTEC)
        (field (name Manufacturer_Part_Number) HMTSW-102-07-G-S-230)
        (field (name "Mouser Part Number") 200-HMTSW10207GS230)
        (field (name "Mouser Price/Stock") https://www.mouser.co.uk/ProductDetail/Samtec/HMTSW-102-07-G-S-230?qs=Cqqh%252BS766wnc6NC0aw7pGg%3D%3D))
      (libsource (lib HMTSW-102-07-G-S-230) (part HMTSW-102-07-G-S-230) (description "Board to Board & Mezzanine Connectors .100\" High-Temp Variable Post Height Terminal Strip"))
      (sheetpath (names /) (tstamps /))
      (tstamp 77ADB212))
    (comp (ref J1)
      (value Conn_01x04_Female)
      (footprint Project0:PinHeader_2x02_P2.54mm_Vertical)
      (datasheet ~)
      (libsource (lib Connector) (part Conn_01x04_Female) (description "Generic connector, single row, 01x04, script generated (kicad-library-utils/schlib/autogen/connector/)"))
      (sheetpath (names /) (tstamps /))
      (tstamp 780CFC88))
    (comp (ref R61)
      (value 82)
      (footprint Project0:RESC5025X70N)
      (datasheet http://industrial.panasonic.com/cdbs/www-data/pdf/RDA0000/AOA0000C86.pdf)
      (fields
        (field (name "Arrow Part Number") ERJ12ZYJ820U)
        (field (name Description) "PANASONIC ELECTRONIC COMPONENTS - ERJ12ZYJ820U - RES, THICK FILM, 82R, 5%, 0.75W, 2010")
        (field (name Height) 0.7)
        (field (name "Manufacter N") ERJ12ZYJ820U)
        (field (name Manufacturer_Name) Panasonic))
      (libsource (lib ERJ12ZYJ820U) (part ERJ12ZYJ820U) (description "PANASONIC ELECTRONIC COMPONENTS - ERJ12ZYJ820U - RES, THICK FILM, 82R, 5%, 0.75W, 2010"))
      (sheetpath (names /) (tstamps /))
      (tstamp 5F5B785E))
    (comp (ref C56)
      (value "10uF /16V")
      (footprint EEE1CA100AR:EEE1CA100AR)
      (datasheet https://industrial.panasonic.com/cdbs/www-data/pdf/RDE0000/DME0000COL48.pdf)
      (fields
        (field (name "Arrow Part Number") EEE1CA100AR)
        (field (name Description) "Panasonic Aluminium Electrolytic Capacitor 10uF 16V dc 4mm B S(V) Series, Surface Mount Electrolytic, +/-20%")
        (field (name Height) 5)
        (field (name "Manufacter N") EEE-1CA100SA)
        (field (name Manufacturer_Name) Panasonic))
      (libsource (lib EEE1CA100AR) (part EEE1CA100AR) (description "Panasonic Aluminium Electrolytic Capacitor 10uF 16V dc 4mm B S(V) Series, Surface Mount Electrolytic, +/-20%"))
      (sheetpath (names /) (tstamps /))
      (tstamp 5F73B0B1))
    (comp (ref L3)
      (value DO1608C-472MLB)
      (footprint Project0:DO1608C)
      (datasheet https://www.coilcraft.com/pdfs/do1608c.pdf)
      (fields
        (field (name "Arrow Part Number") DO1608C-472MLB)
        (field (name Description) "COILCRAFT - DO1608C-472MLB - INDUCTOR, PWR, 4.7UH, 1.9A,20%,50MHZ")
        (field (name "Manufacter N") DO1608C-472MLB)
        (field (name Manufacturer_Name) COILCRAFT)
        (field (name "Mouser Part Number") 994-DO1608C-472MLB)
        (field (name "Mouser Price/Stock") https://www.mouser.co.uk/ProductDetail/Coilcraft/DO1608C-472MLB?qs=zCSbvcPd3pbOChGshX%2F%2FXg%3D%3D))
      (libsource (lib DO1608C-472MLB) (part DO1608C-472MLB) (description "COILCRAFT - DO1608C-472MLB - INDUCTOR, PWR, 4.7UH, 1.9A,20%,50MHZ"))
      (sheetpath (names /) (tstamps /))
      (tstamp 5FFFEFDF))
    (comp (ref C40)
      (value 22uF)
      (footprint EEEFK1J220P:CAPAE800X650N)
      (datasheet https://industrial.panasonic.com/cdbs/www-data/pdf/RDE0000/ABA0000C1181.pdf)
      (fields
        (field (name "Arrow Part Number") EEEFK1J220P)
        (field (name "Arrow Price/Stock") https://www.arrow.com/en/products/eeefk1j220p/panasonic)
        (field (name Description) "Panasonic Aluminium Electrolytic Capacitor 22uF 63V dc 8mm E FK SMD Series, Surface Mount Electrolytic, +/-20%")
        (field (name Height) 6.5)
        (field (name Manufacturer_Name) Panasonic)
        (field (name Manufacturer_Part_Number) EEEFK1J220P))
      (libsource (lib EEEFK1J220P) (part EEEFK1J220P) (description "Panasonic Aluminium Electrolytic Capacitor 22uF 63V dc 8mm E FK SMD Series, Surface Mount Electrolytic, +/-20%"))
      (sheetpath (names /) (tstamps /))
      (tstamp 60176D73))
    (comp (ref R38)
      (value 665)
      (footprint Resistor_SMD:R_0603_1608Metric_Pad1.05x0.95mm_HandSolder)
      (datasheet ~)
      (fields
        (field (name "Manufacter N") CRCW0603665RFKEA))
      (libsource (lib Device) (part R_Small_US) (description "Resistor, small US symbol"))
      (sheetpath (names /) (tstamps /))
      (tstamp 618F7BAE))
    (comp (ref C92)
      (value 2200pf)
      (footprint Capacitors_SMD:C_1812_4532Metric_Pad1.30x3.40mm_HandSolder)
      (datasheet ~)
      (fields
        (field (name "Manufacter N") C4532X7R3D222K))
      (libsource (lib Device) (part C) (description "Unpolarized capacitor"))
      (sheetpath (names /) (tstamps /))
      (tstamp 5EFAEE16))
    (comp (ref IC11)
      (value FDT86246)
      (footprint SOT230P700X180-4N)
      (datasheet http://docs-emea.rs-online.com/webdocs/10c9/0900766b810c97c1.pdf)
      (fields
        (field (name "Arrow Part Number") FDT86246)
        (field (name "Arrow Price/Stock") https://www.arrow.com/en/products/fdt86246/on-semiconductor)
        (field (name Description) "FDT86246, N-channel MOSFET Transistor, 2 A 150 V, 4-Pin SOT-223")
        (field (name Height) 1.8)
        (field (name Manufacturer_Name) "ON Semiconductor")
        (field (name Manufacturer_Part_Number) FDT86246)
        (field (name "Mouser Part Number") 512-FDT86246)
        (field (name "Mouser Price/Stock") https://www.mouser.co.uk/ProductDetail/ON-Semiconductor-Fairchild/FDT86246?qs=dIxESgyDOrilPjmdr96wRQ%3D%3D))
      (libsource (lib FDT86246) (part FDT86246) (description "FDT86246, N-channel MOSFET Transistor, 2 A 150 V, 4-Pin SOT-223"))
      (sheetpath (names /) (tstamps /))
      (tstamp 5F99DBCF))
    (comp (ref R47)
      (value 49.9)
      (footprint Resistor_SMD:R_0603_1608Metric_Pad1.05x0.95mm_HandSolder)
      (datasheet ~)
      (fields
        (field (name "Manufacter N") CRCW060349R9FKEAC))
      (libsource (lib Device) (part R_Small_US) (description "Resistor, small US symbol"))
      (sheetpath (names /) (tstamps /))
      (tstamp 6605BD65))
    (comp (ref C78)
      (value EEEFK0J470R)
      (footprint Project0:CAPAE530X610N)
      (datasheet https://industrial.panasonic.com/cdbs/www-data/pdf/RDE0000/ABA0000C1181.pdf)
      (fields
        (field (name "Arrow Part Number") EEEFK0J470R)
        (field (name Description) "PANASONIC - EEE-FK0J470R - ALUMINUM ELECTROLYTIC CAPACITOR, 47UF, 20%, 6.3V, SMD, FULL REEL")
        (field (name Height) 6.1)
        (field (name "Manufacter N") EEEFK0J470R)
        (field (name Manufacturer_Name) Panasonic))
      (libsource (lib EEEFK0J470R) (part EEEFK0J470R) (description "PANASONIC - EEE-FK0J470R - ALUMINUM ELECTROLYTIC CAPACITOR, 47UF, 20%, 6.3V, SMD, FULL REEL"))
      (sheetpath (names /) (tstamps /))
      (tstamp 60A35E98))
    (comp (ref C75)
      (value 680pF)
      (footprint Capacitors_SMD:C_0603_1608Metric_Pad1.05x0.95mm_HandSolder)
      (datasheet ~)
      (fields
        (field (name "Manufacter N") C0603C681K5RACTU))
      (libsource (lib Device) (part C) (description "Unpolarized capacitor"))
      (sheetpath (names /) (tstamps /))
      (tstamp 75FA5BD4))
    (comp (ref R1)
      (value 1k)
      (footprint Resistors_SMD:R_0603_1608Metric_Pad1.05x0.95mm_HandSolder)
      (datasheet ~)
      (fields
        (field (name "Manufacter N") MCT0603MD1001BP500))
      (libsource (lib Device) (part R_Small_US) (description "Resistor, small US symbol"))
      (sheetpath (names /) (tstamps /))
      (tstamp 5F70BA46))
    (comp (ref D5)
      (value LED_GREEN_5V)
      (footprint Project0:LED_1206_3216Metric_Pad1.42x1.75mm_HandSolder)
      (datasheet ~)
      (fields
        (field (name "Manufacter N") AP3216CGCK))
      (libsource (lib Device) (part LED) (description "Light emitting diode"))
      (sheetpath (names /) (tstamps /))
      (tstamp 5F70C06D))
    (comp (ref J3)
      (value M20-9970346)
      (footprint HDRV6W64P254_2X3_1524X508X1104P)
      (datasheet https://cdn.harwin.com/pdfs/M20-997.pdf)
      (fields
        (field (name "Arrow Part Number") M20-9970346)
        (field (name Description) "HARWIN Pin Header M20, 6 Way, 2.54mm Pitch, 2 Row, Straight, Through Hole")
        (field (name Height) 11.04)
        (field (name Manufacturer_Name) Harwin)
        (field (name Manufacturer_Part_Number) M20-9970346)
        (field (name "Mouser Part Number") 855-M20-9970346)
        (field (name "Mouser Price/Stock") https://www.mouser.com/Search/Refine.aspx?Keyword=855-M20-9970346))
      (libsource (lib M20-9970346) (part M20-9970346) (description "HARWIN Pin Header M20, 6 Way, 2.54mm Pitch, 2 Row, Straight, Through Hole"))
      (sheetpath (names /) (tstamps /))
      (tstamp 609AC511)))
  (libparts
    (libpart (lib BAV99_215) (part BAV99,215)
      (description "Diodes - General Purpose, Power, Switching SW DBL 75V 215MA HS")
      (docs http://www.nxp.com/documents/data_sheet/BAV99_SER.pdf)
      (fields
        (field (name Reference) D)
        (field (name Value) BAV99,215)
        (field (name Footprint) SOT95P230X110-3N)
        (field (name Datasheet) http://www.nxp.com/documents/data_sheet/BAV99_SER.pdf)
        (field (name Description) "Diodes - General Purpose, Power, Switching SW DBL 75V 215MA HS")
        (field (name Height) 1.1)
        (field (name Manufacturer_Name) Nexperia)
        (field (name Manufacturer_Part_Number) BAV99,215)
        (field (name "Arrow Part Number") BAV99,215)
        (field (name "Arrow Price/Stock") https://www.arrow.com/en/products/bav99215/nexperia)
        (field (name "Mouser Part Number") 771-BAV99-T/R)
        (field (name "Mouser Price/Stock") https://www.mouser.co.uk/ProductDetail/Nexperia/BAV99215?qs=me8TqzrmIYWbN0bCKV3n5w%3D%3D))
      (pins
        (pin (num 1) (name K) (type BiDi))
        (pin (num 2) (name ~) (type BiDi))
        (pin (num 3) (name ~) (type BiDi))))
    (libpart (lib Connector) (part Conn_01x04_Female)
      (description "Generic connector, single row, 01x04, script generated (kicad-library-utils/schlib/autogen/connector/)")
      (docs ~)
      (footprints
        (fp Connector*:*_1x??_*))
      (fields
        (field (name Reference) J)
        (field (name Value) Conn_01x04_Female))
      (pins
        (pin (num 1) (name Pin_1) (type passive))
        (pin (num 2) (name Pin_2) (type passive))
        (pin (num 3) (name Pin_3) (type passive))
        (pin (num 4) (name Pin_4) (type passive))))
    (libpart (lib Connector_Generic) (part Conn_02x20_Odd_Even)
      (description "Generic connector, double row, 02x20, odd/even pin numbering scheme (row 1 odd numbers, row 2 even numbers), script generated (kicad-library-utils/schlib/autogen/connector/)")
      (docs ~)
      (footprints
        (fp Connector*:*_2x??_*))
      (fields
        (field (name Reference) J)
        (field (name Value) Conn_02x20_Odd_Even))
      (pins
        (pin (num 1) (name Pin_1) (type passive))
        (pin (num 2) (name Pin_2) (type passive))
        (pin (num 3) (name Pin_3) (type passive))
        (pin (num 4) (name Pin_4) (type passive))
        (pin (num 5) (name Pin_5) (type passive))
        (pin (num 6) (name Pin_6) (type passive))
        (pin (num 7) (name Pin_7) (type passive))
        (pin (num 8) (name Pin_8) (type passive))
        (pin (num 9) (name Pin_9) (type passive))
        (pin (num 10) (name Pin_10) (type passive))
        (pin (num 11) (name Pin_11) (type passive))
        (pin (num 12) (name Pin_12) (type passive))
        (pin (num 13) (name Pin_13) (type passive))
        (pin (num 14) (name Pin_14) (type passive))
        (pin (num 15) (name Pin_15) (type passive))
        (pin (num 16) (name Pin_16) (type passive))
        (pin (num 17) (name Pin_17) (type passive))
        (pin (num 18) (name Pin_18) (type passive))
        (pin (num 19) (name Pin_19) (type passive))
        (pin (num 20) (name Pin_20) (type passive))
        (pin (num 21) (name Pin_21) (type passive))
        (pin (num 22) (name Pin_22) (type passive))
        (pin (num 23) (name Pin_23) (type passive))
        (pin (num 24) (name Pin_24) (type passive))
        (pin (num 25) (name Pin_25) (type passive))
        (pin (num 26) (name Pin_26) (type passive))
        (pin (num 27) (name Pin_27) (type passive))
        (pin (num 28) (name Pin_28) (type passive))
        (pin (num 29) (name Pin_29) (type passive))
        (pin (num 30) (name Pin_30) (type passive))
        (pin (num 31) (name Pin_31) (type passive))
        (pin (num 32) (name Pin_32) (type passive))
        (pin (num 33) (name Pin_33) (type passive))
        (pin (num 34) (name Pin_34) (type passive))
        (pin (num 35) (name Pin_35) (type passive))
        (pin (num 36) (name Pin_36) (type passive))
        (pin (num 37) (name Pin_37) (type passive))
        (pin (num 38) (name Pin_38) (type passive))
        (pin (num 39) (name Pin_39) (type passive))
        (pin (num 40) (name Pin_40) (type passive))))
    (libpart (lib DO1608C-472MLB) (part DO1608C-472MLB)
      (description "COILCRAFT - DO1608C-472MLB - INDUCTOR, PWR, 4.7UH, 1.9A,20%,50MHZ")
      (docs https://www.coilcraft.com/pdfs/do1608c.pdf)
      (fields
        (field (name Reference) L)
        (field (name Value) DO1608C-472MLB)
        (field (name Footprint) DO1608C)
        (field (name Datasheet) https://www.coilcraft.com/pdfs/do1608c.pdf)
        (field (name Description) "COILCRAFT - DO1608C-472MLB - INDUCTOR, PWR, 4.7UH, 1.9A,20%,50MHZ")
        (field (name Manufacturer_Name) COILCRAFT)
        (field (name Manufacturer_Part_Number) DO1608C-472MLB)
        (field (name "Arrow Part Number") DO1608C-472MLB)
        (field (name "Mouser Part Number") 994-DO1608C-472MLB)
        (field (name "Mouser Price/Stock") https://www.mouser.co.uk/ProductDetail/Coilcraft/DO1608C-472MLB?qs=zCSbvcPd3pbOChGshX%2F%2FXg%3D%3D))
      (pins
        (pin (num 1) (name ~) (type passive))
        (pin (num 2) (name ~) (type passive))))
    (libpart (lib Device) (part C)
      (description "Unpolarized capacitor")
      (docs ~)
      (footprints
        (fp C_*))
      (fields
        (field (name Reference) C)
        (field (name Value) C))
      (pins
        (pin (num 1) (name ~) (type passive))
        (pin (num 2) (name ~) (type passive))))
    (libpart (lib Device) (part D_Small_ALT)
      (description "Diode, small symbol, filled shape")
      (docs ~)
      (footprints
        (fp TO-???*)
        (fp *_Diode_*)
        (fp *SingleDiode*)
        (fp D_*))
      (fields
        (field (name Reference) D)
        (field (name Value) D_Small_ALT))
      (pins
        (pin (num 1) (name K) (type passive))
        (pin (num 2) (name A) (type passive))))
    (libpart (lib Device) (part Ferrite_Bead)
      (description "Ferrite bead")
      (docs ~)
      (footprints
        (fp Inductor_*)
        (fp L_*)
        (fp *Ferrite*))
      (fields
        (field (name Reference) FB)
        (field (name Value) Ferrite_Bead))
      (pins
        (pin (num 1) (name ~) (type passive))
        (pin (num 2) (name ~) (type passive))))
    (libpart (lib Device) (part LED)
      (description "Light emitting diode")
      (docs ~)
      (footprints
        (fp LED*)
        (fp LED_SMD:*)
        (fp LED_THT:*))
      (fields
        (field (name Reference) D)
        (field (name Value) LED))
      (pins
        (pin (num 1) (name K) (type passive))
        (pin (num 2) (name A) (type passive))))
    (libpart (lib Device) (part R_Small_US)
      (description "Resistor, small US symbol")
      (docs ~)
      (footprints
        (fp R_*))
      (fields
        (field (name Reference) R)
        (field (name Value) R_Small_US))
      (pins
        (pin (num 1) (name ~) (type passive))
        (pin (num 2) (name ~) (type passive))))
    (libpart (lib EEE1CA100AR) (part EEE1CA100AR)
      (description "Panasonic Aluminium Electrolytic Capacitor 10uF 16V dc 4mm B S(V) Series, Surface Mount Electrolytic, +/-20%")
      (docs https://industrial.panasonic.com/cdbs/www-data/pdf/RDE0000/DME0000COL48.pdf)
      (fields
        (field (name Reference) C)
        (field (name Value) EEE1CA100AR)
        (field (name Footprint) EEE1CA100AR)
        (field (name Datasheet) https://industrial.panasonic.com/cdbs/www-data/pdf/RDE0000/DME0000COL48.pdf)
        (field (name Description) "Panasonic Aluminium Electrolytic Capacitor 10uF 16V dc 4mm B S(V) Series, Surface Mount Electrolytic, +/-20%")
        (field (name Height) 5)
        (field (name Manufacturer_Name) Panasonic)
        (field (name Manufacturer_Part_Number) EEE1CA100AR)
        (field (name "Arrow Part Number") EEE1CA100AR))
      (pins
        (pin (num 1) (name ~) (type passive))
        (pin (num 2) (name ~) (type passive))))
    (libpart (lib EEEFK0J470R) (part EEEFK0J470R)
      (description "PANASONIC - EEE-FK0J470R - ALUMINUM ELECTROLYTIC CAPACITOR, 47UF, 20%, 6.3V, SMD, FULL REEL")
      (docs https://industrial.panasonic.com/cdbs/www-data/pdf/RDE0000/ABA0000C1181.pdf)
      (fields
        (field (name Reference) C)
        (field (name Value) EEEFK0J470R)
        (field (name Footprint) CAPAE530X610N)
        (field (name Datasheet) https://industrial.panasonic.com/cdbs/www-data/pdf/RDE0000/ABA0000C1181.pdf)
        (field (name Description) "PANASONIC - EEE-FK0J470R - ALUMINUM ELECTROLYTIC CAPACITOR, 47UF, 20%, 6.3V, SMD, FULL REEL")
        (field (name Height) 6.1)
        (field (name Manufacturer_Name) Panasonic)
        (field (name Manufacturer_Part_Number) EEEFK0J470R)
        (field (name "Arrow Part Number") EEEFK0J470R))
      (pins
        (pin (num 1) (name ~) (type passive))
        (pin (num 2) (name ~) (type passive))))
    (libpart (lib EEEFK1J220P) (part EEEFK1J220P)
      (description "Panasonic Aluminium Electrolytic Capacitor 22uF 63V dc 8mm E FK SMD Series, Surface Mount Electrolytic, +/-20%")
      (docs https://industrial.panasonic.com/cdbs/www-data/pdf/RDE0000/ABA0000C1181.pdf)
      (fields
        (field (name Reference) C)
        (field (name Value) EEEFK1J220P)
        (field (name Footprint) CAPAE800X650N)
        (field (name Datasheet) https://industrial.panasonic.com/cdbs/www-data/pdf/RDE0000/ABA0000C1181.pdf)
        (field (name Description) "Panasonic Aluminium Electrolytic Capacitor 22uF 63V dc 8mm E FK SMD Series, Surface Mount Electrolytic, +/-20%")
        (field (name Height) 6.5)
        (field (name Manufacturer_Name) Panasonic)
        (field (name Manufacturer_Part_Number) EEEFK1J220P)
        (field (name "Arrow Part Number") EEEFK1J220P)
        (field (name "Arrow Price/Stock") https://www.arrow.com/en/products/eeefk1j220p/panasonic))
      (pins
        (pin (num 1) (name ~) (type passive))
        (pin (num 2) (name ~) (type passive))))
    (libpart (lib ERJ12ZYJ820U) (part ERJ12ZYJ820U)
      (description "PANASONIC ELECTRONIC COMPONENTS - ERJ12ZYJ820U - RES, THICK FILM, 82R, 5%, 0.75W, 2010")
      (docs http://industrial.panasonic.com/cdbs/www-data/pdf/RDA0000/AOA0000C86.pdf)
      (fields
        (field (name Reference) R)
        (field (name Value) ERJ12ZYJ820U)
        (field (name Footprint) RESC5025X70N)
        (field (name Datasheet) http://industrial.panasonic.com/cdbs/www-data/pdf/RDA0000/AOA0000C86.pdf)
        (field (name Description) "PANASONIC ELECTRONIC COMPONENTS - ERJ12ZYJ820U - RES, THICK FILM, 82R, 5%, 0.75W, 2010")
        (field (name Height) 0.7)
        (field (name Manufacturer_Name) Panasonic)
        (field (name Manufacturer_Part_Number) ERJ12ZYJ820U)
        (field (name "Arrow Part Number") ERJ12ZYJ820U))
      (pins
        (pin (num 1) (name ~) (type passive))
        (pin (num 2) (name ~) (type passive))))
    (libpart (lib FDT86246) (part FDT86246)
      (description "FDT86246, N-channel MOSFET Transistor, 2 A 150 V, 4-Pin SOT-223")
      (docs http://docs-emea.rs-online.com/webdocs/10c9/0900766b810c97c1.pdf)
      (fields
        (field (name Reference) IC)
        (field (name Value) FDT86246)
        (field (name Footprint) SOT230P700X180-4N)
        (field (name Datasheet) http://docs-emea.rs-online.com/webdocs/10c9/0900766b810c97c1.pdf)
        (field (name Description) "FDT86246, N-channel MOSFET Transistor, 2 A 150 V, 4-Pin SOT-223")
        (field (name Height) 1.8)
        (field (name Manufacturer_Name) "ON Semiconductor")
        (field (name Manufacturer_Part_Number) FDT86246)
        (field (name "Arrow Part Number") FDT86246)
        (field (name "Arrow Price/Stock") https://www.arrow.com/en/products/fdt86246/on-semiconductor)
        (field (name "Mouser Part Number") 512-FDT86246)
        (field (name "Mouser Price/Stock") https://www.mouser.co.uk/ProductDetail/ON-Semiconductor-Fairchild/FDT86246?qs=dIxESgyDOrilPjmdr96wRQ%3D%3D))
      (pins
        (pin (num 1) (name G) (type passive))
        (pin (num 2) (name D_1) (type passive))
        (pin (num 3) (name S) (type passive))
        (pin (num 4) (name D_2) (type passive))))
    (libpart (lib HMTSW-102-07-G-S-230) (part HMTSW-102-07-G-S-230)
      (description "Board to Board & Mezzanine Connectors .100\" High-Temp Variable Post Height Terminal Strip")
      (docs http://suddendocs.samtec.com/catalog_english/mtsw.pdf)
      (fields
        (field (name Reference) J)
        (field (name Value) HMTSW-102-07-G-S-230)
        (field (name Footprint) HDRV2W64P0X254_1X2_508X248X864P)
        (field (name Datasheet) http://suddendocs.samtec.com/catalog_english/mtsw.pdf)
        (field (name Description) "Board to Board & Mezzanine Connectors .100\" High-Temp Variable Post Height Terminal Strip")
        (field (name Height) 8.64)
        (field (name Manufacturer_Name) SAMTEC)
        (field (name Manufacturer_Part_Number) HMTSW-102-07-G-S-230)
        (field (name "Arrow Part Number") HMTSW-102-07-G-S-230)
        (field (name "Mouser Part Number") 200-HMTSW10207GS230)
        (field (name "Mouser Price/Stock") https://www.mouser.co.uk/ProductDetail/Samtec/HMTSW-102-07-G-S-230?qs=Cqqh%252BS766wnc6NC0aw7pGg%3D%3D))
      (pins
        (pin (num 1) (name 1) (type passive))
        (pin (num 2) (name 2) (type passive))))
    (libpart (lib M20-9970346) (part M20-9970346)
      (description "HARWIN Pin Header M20, 6 Way, 2.54mm Pitch, 2 Row, Straight, Through Hole")
      (docs https://cdn.harwin.com/pdfs/M20-997.pdf)
      (fields
        (field (name Reference) J)
        (field (name Value) M20-9970346)
        (field (name Footprint) HDRV6W64P254_2X3_1524X508X1104P)
        (field (name Datasheet) https://cdn.harwin.com/pdfs/M20-997.pdf)
        (field (name Description) "HARWIN Pin Header M20, 6 Way, 2.54mm Pitch, 2 Row, Straight, Through Hole")
        (field (name Height) 11.04)
        (field (name Manufacturer_Name) Harwin)
        (field (name Manufacturer_Part_Number) M20-9970346)
        (field (name "Arrow Part Number") M20-9970346)
        (field (name "Mouser Part Number") 855-M20-9970346)
        (field (name "Mouser Price/Stock") https://www.mouser.com/Search/Refine.aspx?Keyword=855-M20-9970346))
      (pins
        (pin (num 1) (name 1) (type passive))
        (pin (num 2) (name 2) (type passive))
        (pin (num 3) (name 3) (type passive))
        (pin (num 4) (name 4) (type passive))
        (pin (num 5) (name 5) (type passive))
        (pin (num 6) (name 6) (type passive))))
    (libpart (lib MBRS540T3G) (part MBRS540T3G)
      (description "Diode Schottky 40V 5A SMC ON Semiconductor MBRS540T3G Schottky Diode, 5A, 40V, 2-Pin SMC")
      (docs http://www.onsemi.com/pub/Collateral/MBRS540T3-D.PDF)
      (fields
        (field (name Reference) D)
        (field (name Value) MBRS540T3G)
        (field (name Footprint) DIOM7958X256N)
        (field (name Datasheet) http://www.onsemi.com/pub/Collateral/MBRS540T3-D.PDF)
        (field (name Description) "Diode Schottky 40V 5A SMC ON Semiconductor MBRS540T3G Schottky Diode, 5A, 40V, 2-Pin SMC")
        (field (name Height) 2.56)
        (field (name Manufacturer_Name) "ON Semiconductor")
        (field (name Manufacturer_Part_Number) MBRS540T3G)
        (field (name "Arrow Part Number") MBRS540T3G)
        (field (name "Arrow Price/Stock") https://www.arrow.com/en/products/mbrs540t3g/on-semiconductor)
        (field (name "Mouser Part Number") 863-MBRS540T3G)
        (field (name "Mouser Price/Stock") https://www.mouser.co.uk/ProductDetail/ON-Semiconductor/MBRS540T3G?qs=3JMERSakebo5%2FaZU4XA2uw%3D%3D))
      (pins
        (pin (num 1) (name ~) (type passive))
        (pin (num 2) (name ~) (type passive))))
    (libpart (lib MURA120T3G) (part MURA120T3G)
      (docs http://www.onsemi.com/pub/Collateral/MURA115T3-D.PDF)
      (fields
        (field (name Reference) D)
        (field (name Value) MURA120T3G)
        (field (name Footprint) DIOM5226X220N)
        (field (name Datasheet) http://www.onsemi.com/pub/Collateral/MURA115T3-D.PDF)
        (field (name Height) 2.2)
        (field (name Manufacturer_Name) "ON Semiconductor")
        (field (name Manufacturer_Part_Number) MURA120T3G)
        (field (name "Arrow Part Number") MURA120T3G)
        (field (name "Arrow Price/Stock") https://www.arrow.com/en/products/mura120t3g/on-semiconductor)
        (field (name "Mouser Part Number") 863-MURA120T3G)
        (field (name "Mouser Price/Stock") https://www.mouser.co.uk/ProductDetail/ON-Semiconductor/MURA120T3G?qs=Gev%252BmEvV0iYrsyIrWcjJxg%3D%3D))
      (pins
        (pin (num 1) (name ~) (type passive))
        (pin (num 2) (name ~) (type passive))))
    (libpart (lib POE13P-50LD) (part POE13P-50LD)
      (description "Audio Transformers / Signal Transformers POE13P Flyback PoE 127uH 5.0 V 2.6 A")
      (docs https://www.coilcraft.com/pdfs/poe_ep.pdf)
      (fields
        (field (name Reference) T)
        (field (name Value) POE13P-50LD)
        (field (name Footprint) POE13P50LD)
        (field (name Datasheet) https://www.coilcraft.com/pdfs/poe_ep.pdf)
        (field (name Description) "Audio Transformers / Signal Transformers POE13P Flyback PoE 127uH 5.0 V 2.6 A")
        (field (name Height) 12.7)
        (field (name Manufacturer_Name) COILCRAFT)
        (field (name Manufacturer_Part_Number) POE13P-50LD)
        (field (name "Arrow Part Number") POE13P-50LD)
        (field (name "Mouser Part Number") 994-POE13P-50LD)
        (field (name "Mouser Price/Stock") https://www.mouser.co.uk/ProductDetail/Coilcraft/POE13P-50LD?qs=ZYnrCdKdyeddNNNVe24YVA%3D%3D))
      (pins
        (pin (num 1) (name BIAS_1) (type passive))
        (pin (num 2) (name BIAS_2) (type passive))
        (pin (num 3) (name PRI_1) (type passive))
        (pin (num 4) (name PRI_2) (type passive))
        (pin (num 5) (name 5) (type passive))
        (pin (num 6) (name 6) (type passive))
        (pin (num 7) (name SEC_1) (type passive))
        (pin (num 8) (name SEC_2) (type passive))
        (pin (num 9) (name SEC_3) (type passive))
        (pin (num 10) (name SEC_4) (type passive))))
    (libpart (lib Project0-rescue) (part FOD817AS_FOD817AS-Project0-cache)
      (fields
        (field (name Reference) Q)
        (field (name Value) FOD817AS_FOD817AS-Project0-cache)
        (field (name Footprint) SOP254P1016X385-4N)
        (field (name Datasheet) https://www.onsemi.com/pub/Collateral/FOD814-D.PDF)
        (field (name Description) "Fairchild FOD817AS DC Input Phototransistor Output Optocoupler, Surface Mount, 4-Pin MDIP")
        (field (name Height) 3.85)
        (field (name Manufacturer_Name) "ON Semiconductor")
        (field (name Manufacturer_Part_Number) FOD817AS)
        (field (name "Arrow Part Number") FOD817AS)
        (field (name "Arrow Price/Stock") https://www.arrow.com/en/products/fod817as/on-semiconductor)
        (field (name "Mouser Part Number") 512-FOD817AS)
        (field (name "Mouser Price/Stock") https://www.mouser.co.uk/ProductDetail/ON-Semiconductor-Fairchild/FOD817AS?qs=KmQzudrvw%2FeCISHrOSU62w%3D%3D))
      (pins
        (pin (num 1) (name ~) (type passive))
        (pin (num 2) (name ~) (type passive))
        (pin (num 3) (name ~) (type passive))
        (pin (num 4) (name ~) (type passive))))
    (libpart (lib Project0-rescue) (part SMAJ58A-13-F-SMAJ58A-13-F)
      (fields
        (field (name Reference) D)
        (field (name Value) SMAJ58A-13-F-SMAJ58A-13-F)
        (field (name Footprint) DIOM5226X230N)
        (field (name Datasheet) https://componentsearchengine.com/Datasheets/1/SMAJ58A-13-F.pdf)
        (field (name Description) "Diodes Inc SMAJ58A-13-F, Uni-Directional TVS Diode, 400W, 2-Pin DO-214AC")
        (field (name Height) 2.3)
        (field (name Manufacturer_Name) "Diodes Inc.")
        (field (name Manufacturer_Part_Number) SMAJ58A-13-F)
        (field (name "Mouser Part Number") 621-SMAJ58A-13-F)
        (field (name "Mouser Price/Stock") https://www.mouser.com/Search/Refine.aspx?Keyword=621-SMAJ58A-13-F)
        (field (name "RS Part Number") 7515010P)
        (field (name "RS Price/Stock") http://uk.rs-online.com/web/p/products/7515010P)
        (field (name Allied_Number) 70438548)
        (field (name "Allied Price/Stock") https://www.alliedelec.com/diodes-inc-smaj58a-13-f/70438548/))
      (pins
        (pin (num 1) (name ~) (type unspc))
        (pin (num 2) (name ~) (type unspc))))
    (libpart (lib TLV431ACDBZR) (part TLV431ACDBZR)
      (description "1% Accuracy Low-Voltage Adjustable Precision Shunt Regulator")
      (docs http://www.ti.com/lit/gpn/tlv431a)
      (fields
        (field (name Reference) IC)
        (field (name Value) TLV431ACDBZR)
        (field (name Footprint) SOT95P237X112-3N)
        (field (name Datasheet) http://www.ti.com/lit/gpn/tlv431a)
        (field (name Description) "1% Accuracy Low-Voltage Adjustable Precision Shunt Regulator")
        (field (name Manufacturer_Name) "Texas Instruments")
        (field (name Manufacturer_Part_Number) TLV431ACDBZR)
        (field (name "Arrow Part Number") TLV431ACDBZR)
        (field (name "Arrow Price/Stock") https://www.arrow.com/en/products/tlv431acdbzr/texas-instruments)
        (field (name "Mouser Part Number") 595-TLV431ACDBZR)
        (field (name "Mouser Price/Stock") https://www.mouser.co.uk/ProductDetail/Texas-Instruments/TLV431ACDBZR?qs=m96fseALk3UFqurlruAFnw%3D%3D))
      (pins
        (pin (num 1) (name REF) (type passive))
        (pin (num 2) (name CATHODE) (type passive))
        (pin (num 3) (name ANODE) (type passive))))
    (libpart (lib TPS23753APWR) (part TPS23753APWR)
      (description "IEEE 802.3-2005 PoE Interface and Isolated Converter Controller with Enhanced ESD Ride-Through")
      (docs http://www.ti.com/lit/gpn/tps23753a)
      (fields
        (field (name Reference) IC)
        (field (name Value) TPS23753APWR)
        (field (name Footprint) SOP65P640X120-14N)
        (field (name Datasheet) http://www.ti.com/lit/gpn/tps23753a)
        (field (name Description) "IEEE 802.3-2005 PoE Interface and Isolated Converter Controller with Enhanced ESD Ride-Through")
        (field (name Height) 1.2)
        (field (name Manufacturer_Name) "Texas Instruments")
        (field (name Manufacturer_Part_Number) TPS23753APWR)
        (field (name "Arrow Part Number") TPS23753APWR)
        (field (name "Arrow Price/Stock") https://www.arrow.com/en/products/tps23753apwr/texas-instruments)
        (field (name "Mouser Part Number") 595-TPS23753APWR)
        (field (name "Mouser Price/Stock") https://www.mouser.co.uk/ProductDetail/Texas-Instruments/TPS23753APWR?qs=i6VRxKQL%2FYzzeXAQVxAzsw%3D%3D))
      (pins
        (pin (num 1) (name CTL) (type passive))
        (pin (num 2) (name VB) (type passive))
        (pin (num 3) (name CS) (type passive))
        (pin (num 4) (name VC) (type passive))
        (pin (num 5) (name GATE) (type passive))
        (pin (num 6) (name RTN) (type passive))
        (pin (num 7) (name VSS) (type passive))
        (pin (num 8) (name VDD1) (type passive))
        (pin (num 9) (name VDD) (type passive))
        (pin (num 10) (name DEN) (type passive))
        (pin (num 11) (name CLS) (type passive))
        (pin (num 12) (name APD) (type passive))
        (pin (num 13) (name BLNK) (type passive))
        (pin (num 14) (name FRS) (type passive)))))
  (libraries
    (library (logical BAV99_215)
      (uri "/home/kuizi/loracapixaba/Diagramas Esquemáticos/KicadLibrary/LIB_BAV99,215/BAV99,215/KiCad/BAV99_215.lib"))
    (library (logical Connector)
      (uri /usr/share/kicad/library/Connector.lib))
    (library (logical Connector_Generic)
      (uri /usr/share/kicad/library/Connector_Generic.lib))
    (library (logical DO1608C-472MLB)
      (uri "/home/kuizi/loracapixaba/Diagramas Esquemáticos/KicadLibrary/LIB_DO1608C-472MLB/DO1608C-472MLB/KiCad/DO1608C-472MLB.lib"))
    (library (logical Device)
      (uri /usr/share/kicad/library/Device.lib))
    (library (logical EEE1CA100AR)
      (uri "/home/kuizi/loracapixaba/Diagramas Esquemáticos/KicadLibrary/LIB_EEE1CA100AR/EEE1CA100AR/KiCad/EEE1CA100AR.lib"))
    (library (logical EEEFK0J470R)
      (uri "/home/kuizi/loracapixaba/Diagramas Esquemáticos/KicadLibrary/LIB_EEEFK0J470R/EEEFK0J470R/KiCad/EEEFK0J470R.lib"))
    (library (logical EEEFK1J220P)
      (uri "/home/kuizi/loracapixaba/Diagramas Esquemáticos/KicadLibrary/LIB_EEEFK1J220P/EEEFK1J220P/KiCad/EEEFK1J220P.lib"))
    (library (logical ERJ12ZYJ820U)
      (uri "/home/kuizi/loracapixaba/Diagramas Esquemáticos/KicadLibrary/LIB_ERJ12ZYJ820U/ERJ12ZYJ820U/KiCad/ERJ12ZYJ820U.lib"))
    (library (logical FDT86246)
      (uri "/home/kuizi/loracapixaba/Diagramas Esquemáticos/KicadLibrary/LIB_FDT86246/FDT86246/KiCad/FDT86246.lib"))
    (library (logical HMTSW-102-07-G-S-230)
      (uri "/home/kuizi/loracapixaba/Diagramas Esquemáticos/KicadLibrary/LIB_HMTSW-102-07-G-S-230/HMTSW-102-07-G-S-230/KiCad/HMTSW-102-07-G-S-230.lib"))
    (library (logical M20-9970346)
      (uri "/home/kuizi/loracapixaba/Diagramas Esquemáticos/KicadLibrary/LIB_M20-9970346/M20-9970346/KiCad/M20-9970346.lib"))
    (library (logical MBRS540T3G)
      (uri "/home/kuizi/loracapixaba/Diagramas Esquemáticos/KicadLibrary/LIB_MBRS540T3G/MBRS540T3G/KiCad/MBRS540T3G.lib"))
    (library (logical MURA120T3G)
      (uri "/home/kuizi/loracapixaba/Diagramas Esquemáticos/KicadLibrary/LIB_MURA120T3G/MURA120T3G/KiCad/MURA120T3G.lib"))
    (library (logical POE13P-50LD)
      (uri "/home/kuizi/loracapixaba/Diagramas Esquemáticos/KicadLibrary/LIB_POE13P-50LD/POE13P-50LD/KiCad/POE13P-50LD.lib"))
    (library (logical Project0-rescue)
      (uri "/home/kuizi/loracapixaba/Diagramas Esquemáticos/Project0/Project0-rescue.lib"))
    (library (logical TLV431ACDBZR)
      (uri "/home/kuizi/loracapixaba/Diagramas Esquemáticos/KicadLibrary/LIB_TLV431ACDBZR/TLV431ACDBZR/KiCad/TLV431ACDBZR.lib"))
    (library (logical TPS23753APWR)
      (uri "/home/kuizi/loracapixaba/Diagramas Esquemáticos/KicadLibrary/LIB_TPS23753APWR/TPS23753APWR/KiCad/TPS23753APWR.lib")))
  (nets
    (net (code 1) (name "Net-(C69-Pad1)")
      (node (ref C69) (pin 1))
      (node (ref R61) (pin 2)))
    (net (code 2) (name "Net-(IC7-Pad5)")
      (node (ref R47) (pin 2))
      (node (ref IC7) (pin 5)))
    (net (code 3) (name VCC)
      (node (ref R1) (pin 1))
      (node (ref J3) (pin 4))
      (node (ref J4) (pin 2))
      (node (ref J2) (pin 4))
      (node (ref J2) (pin 2)))
    (net (code 4) (name "Net-(C78-Pad1)")
      (node (ref C78) (pin 1))
      (node (ref C79) (pin 2))
      (node (ref C91) (pin 2))
      (node (ref R62) (pin 1))
      (node (ref J4) (pin 1)))
    (net (code 5) (name TR1)
      (node (ref J1) (pin 1)))
    (net (code 6) (name TR0)
      (node (ref J1) (pin 2)))
    (net (code 7) (name TR3)
      (node (ref C31) (pin 2))
      (node (ref FB9) (pin 2))
      (node (ref J3) (pin 1))
      (node (ref J1) (pin 3)))
    (net (code 8) (name TR2)
      (node (ref C31) (pin 1))
      (node (ref J1) (pin 4))
      (node (ref FB8) (pin 2))
      (node (ref J3) (pin 3)))
    (net (code 9) (name GNDPWR)
      (node (ref C92) (pin 2))
      (node (ref C40) (pin 2))
      (node (ref C37) (pin 2))
      (node (ref C54) (pin 2))
      (node (ref C56) (pin 2))
      (node (ref C45) (pin 2))
      (node (ref C42) (pin 2))
      (node (ref R56) (pin 2))
      (node (ref C69) (pin 2))
      (node (ref IC7) (pin 6))
      (node (ref R40) (pin 1))
      (node (ref R41) (pin 1))
      (node (ref Q1) (pin 3))
      (node (ref T1) (pin 2)))
    (net (code 10) (name "Net-(Q1-Pad1)")
      (node (ref R38) (pin 2))
      (node (ref Q1) (pin 1)))
    (net (code 12) (name "Net-(Q1-Pad2)")
      (node (ref Q1) (pin 2)))
    (net (code 13) (name "Net-(D9-Pad2)")
      (node (ref D9) (pin 2))
      (node (ref R63) (pin 2))
      (node (ref T1) (pin 9))
      (node (ref T1) (pin 10)))
    (net (code 14) (name "Net-(C75-Pad2)")
      (node (ref D9) (pin 1))
      (node (ref C75) (pin 2)))
    (net (code 15) (name "Net-(C75-Pad1)")
      (node (ref R63) (pin 1))
      (node (ref C75) (pin 1)))
    (net (code 16) (name GND)
      (node (ref C46) (pin 1))
      (node (ref C91) (pin 1))
      (node (ref IC8) (pin 3))
      (node (ref C79) (pin 1))
      (node (ref T1) (pin 8))
      (node (ref R45) (pin 2))
      (node (ref T1) (pin 7))
      (node (ref J2) (pin 25))
      (node (ref J2) (pin 30))
      (node (ref J2) (pin 34))
      (node (ref J2) (pin 39))
      (node (ref J2) (pin 14))
      (node (ref J2) (pin 9))
      (node (ref J2) (pin 6))
      (node (ref J2) (pin 20))
      (node (ref C78) (pin 2))
      (node (ref D5) (pin 1))
      (node (ref C70) (pin 1))
      (node (ref C92) (pin 1))
      (node (ref J3) (pin 6)))
    (net (code 17) (name "Net-(J3-Pad5)")
      (node (ref J3) (pin 5)))
    (net (code 18) (name "Net-(J3-Pad2)")
      (node (ref J3) (pin 2)))
    (net (code 19) (name "Net-(D5-Pad2)")
      (node (ref R1) (pin 2))
      (node (ref D5) (pin 2)))
    (net (code 20) (name "Net-(IC11-Pad1)")
      (node (ref IC11) (pin 1))
      (node (ref R47) (pin 1)))
    (net (code 21) (name /POE_NET15)
      (node (ref R43) (pin 2))
      (node (ref C35) (pin 2))
      (node (ref IC7) (pin 7))
      (node (ref FB9) (pin 1))
      (node (ref D1) (pin 2)))
    (net (code 22) (name "Net-(IC7-Pad13)")
      (node (ref IC7) (pin 13))
      (node (ref R41) (pin 2)))
    (net (code 24) (name "Net-(C54-Pad1)")
      (node (ref C56) (pin 1))
      (node (ref C54) (pin 1))
      (node (ref IC7) (pin 4))
      (node (ref D3) (pin 1)))
    (net (code 25) (name "Net-(IC7-Pad14)")
      (node (ref IC7) (pin 14))
      (node (ref R40) (pin 2)))
    (net (code 26) (name "Net-(IC7-Pad12)")
      (node (ref IC7) (pin 12)))
    (net (code 27) (name "Net-(IC7-Pad11)")
      (node (ref R43) (pin 1))
      (node (ref IC7) (pin 11)))
    (net (code 28) (name /POE_NET04)
      (node (ref IC7) (pin 9))
      (node (ref IC7) (pin 8))
      (node (ref L3) (pin 1))
      (node (ref R34) (pin 1))
      (node (ref C35) (pin 1))
      (node (ref D1) (pin 1))
      (node (ref C40) (pin 1))
      (node (ref FB8) (pin 1)))
    (net (code 29) (name "Net-(D3-Pad2)")
      (node (ref D3) (pin 2))
      (node (ref R57) (pin 2)))
    (net (code 30) (name "Net-(R57-Pad1)")
      (node (ref T1) (pin 1))
      (node (ref R57) (pin 1)))
    (net (code 31) (name "Net-(T1-Pad5)")
      (node (ref T1) (pin 5)))
    (net (code 32) (name "Net-(J2-Pad31)")
      (node (ref J2) (pin 31)))
    (net (code 33) (name "Net-(J2-Pad23)")
      (node (ref J2) (pin 23)))
    (net (code 34) (name "Net-(J2-Pad24)")
      (node (ref J2) (pin 24)))
    (net (code 35) (name "Net-(J2-Pad26)")
      (node (ref J2) (pin 26)))
    (net (code 36) (name "Net-(J2-Pad27)")
      (node (ref J2) (pin 27)))
    (net (code 37) (name "Net-(J2-Pad28)")
      (node (ref J2) (pin 28)))
    (net (code 38) (name "Net-(J2-Pad29)")
      (node (ref J2) (pin 29)))
    (net (code 39) (name "Net-(J2-Pad3)")
      (node (ref J2) (pin 3)))
    (net (code 40) (name "Net-(J2-Pad22)")
      (node (ref J2) (pin 22)))
    (net (code 41) (name "Net-(J2-Pad32)")
      (node (ref J2) (pin 32)))
    (net (code 42) (name "Net-(J2-Pad33)")
      (node (ref J2) (pin 33)))
    (net (code 43) (name "Net-(J2-Pad35)")
      (node (ref J2) (pin 35)))
    (net (code 44) (name "Net-(J2-Pad36)")
      (node (ref J2) (pin 36)))
    (net (code 45) (name "Net-(J2-Pad37)")
      (node (ref J2) (pin 37)))
    (net (code 46) (name "Net-(J2-Pad38)")
      (node (ref J2) (pin 38)))
    (net (code 47) (name "Net-(J2-Pad13)")
      (node (ref J2) (pin 13)))
    (net (code 48) (name "Net-(J2-Pad1)")
      (node (ref J2) (pin 1)))
    (net (code 49) (name "Net-(J2-Pad10)")
      (node (ref J2) (pin 10)))
    (net (code 50) (name "Net-(J2-Pad11)")
      (node (ref J2) (pin 11)))
    (net (code 51) (name "Net-(J2-Pad12)")
      (node (ref J2) (pin 12)))
    (net (code 52) (name "Net-(J2-Pad40)")
      (node (ref J2) (pin 40)))
    (net (code 53) (name "Net-(J2-Pad15)")
      (node (ref J2) (pin 15)))
    (net (code 54) (name "Net-(J2-Pad16)")
      (node (ref J2) (pin 16)))
    (net (code 55) (name "Net-(J2-Pad17)")
      (node (ref J2) (pin 17)))
    (net (code 56) (name "Net-(J2-Pad18)")
      (node (ref J2) (pin 18)))
    (net (code 57) (name "Net-(J2-Pad19)")
      (node (ref J2) (pin 19)))
    (net (code 58) (name "Net-(J2-Pad21)")
      (node (ref J2) (pin 21)))
    (net (code 59) (name "Net-(J2-Pad5)")
      (node (ref J2) (pin 5)))
    (net (code 60) (name "Net-(J2-Pad7)")
      (node (ref J2) (pin 7)))
    (net (code 61) (name "Net-(J2-Pad8)")
      (node (ref J2) (pin 8)))
    (net (code 62) (name "Net-(T1-Pad6)")
      (node (ref T1) (pin 6)))
    (net (code 63) (name "Net-(C46-Pad2)")
      (node (ref R39) (pin 2))
      (node (ref D2) (pin 3))
      (node (ref C46) (pin 2)))
    (net (code 64) (name "Net-(D2-Pad2)")
      (node (ref R39) (pin 1))
      (node (ref D2) (pin 2))
      (node (ref R38) (pin 1))
      (node (ref R44) (pin 1))
      (node (ref R62) (pin 2)))
    (net (code 65) (name "Net-(C49-Pad1)")
      (node (ref R42) (pin 2))
      (node (ref C49) (pin 1)))
    (net (code 66) (name "Net-(C41-Pad1)")
      (node (ref R36) (pin 2))
      (node (ref C41) (pin 1)))
    (net (code 67) (name "Net-(C37-Pad1)")
      (node (ref R36) (pin 1))
      (node (ref IC7) (pin 2))
      (node (ref C37) (pin 1))
      (node (ref R37) (pin 1)))
    (net (code 68) (name "Net-(C41-Pad2)")
      (node (ref IC7) (pin 1))
      (node (ref R37) (pin 2))
      (node (ref C41) (pin 2))
      (node (ref Q1) (pin 4)))
    (net (code 69) (name "Net-(C48-Pad2)")
      (node (ref R45) (pin 1))
      (node (ref R44) (pin 2))
      (node (ref IC8) (pin 1))
      (node (ref C48) (pin 2))
      (node (ref C49) (pin 2)))
    (net (code 70) (name "Net-(C48-Pad1)")
      (node (ref R42) (pin 1))
      (node (ref C48) (pin 1))
      (node (ref IC8) (pin 2))
      (node (ref D2) (pin 1)))
    (net (code 71) (name "Net-(IC7-Pad10)")
      (node (ref R34) (pin 2))
      (node (ref IC7) (pin 10)))
    (net (code 72) (name "Net-(D4-Pad2)")
      (node (ref D4) (pin 2))
      (node (ref R61) (pin 1))
      (node (ref IC11) (pin 2))
      (node (ref IC11) (pin 4))
      (node (ref T1) (pin 4)))
    (net (code 73) (name "Net-(C42-Pad1)")
      (node (ref L3) (pin 2))
      (node (ref C70) (pin 2))
      (node (ref T1) (pin 3))
      (node (ref C42) (pin 1))
      (node (ref C59) (pin 1))
      (node (ref C45) (pin 1)))
    (net (code 74) (name "Net-(C59-Pad2)")
      (node (ref D4) (pin 1))
      (node (ref C59) (pin 2)))
    (net (code 75) (name "Net-(IC7-Pad3)")
      (node (ref R53) (pin 2))
      (node (ref IC7) (pin 3)))
    (net (code 76) (name "Net-(IC11-Pad3)")
      (node (ref IC11) (pin 3))
      (node (ref R53) (pin 1))
      (node (ref R56) (pin 1)))))