PCBNEW-LibModule-V1  2020-06-13 19:46:13
# encoding utf-8
Units mm
$INDEX
RESC5025X70N
$EndINDEX
$MODULE RESC5025X70N
Po 0 0 0 15 5ee51ef5 00000000 ~~
Li RESC5025X70N
Cd ERJ12(S/Z)
Kw Resistor
Sc 0
At SMD
AR 
Op 0 0 0
T0 0 0 1.27 1.27 0 0.254 N V 21 N "R**"
T1 0 0 1.27 1.27 0 0.254 N I 21 N "RESC5025X70N"
DS -3.225 -1.6 3.225 -1.6 0.05 24
DS 3.225 -1.6 3.225 1.6 0.05 24
DS 3.225 1.6 -3.225 1.6 0.05 24
DS -3.225 1.6 -3.225 -1.6 0.05 24
DS -2.5 -1.25 2.5 -1.25 0.1 24
DS 2.5 -1.25 2.5 1.25 0.1 24
DS 2.5 1.25 -2.5 1.25 0.1 24
DS -2.5 1.25 -2.5 -1.25 0.1 24
DS 0 -1.15 0 1.15 0.2 21
$PAD
Po -2.35 0
Sh "1" R 1.25 2.7 0 0 0
At SMD N 00888000
Ne 0 ""
$EndPAD
$PAD
Po 2.35 0
Sh "2" R 1.25 2.7 0 0 0
At SMD N 00888000
Ne 0 ""
$EndPAD
$EndMODULE RESC5025X70N
$EndLIBRARY
