PCBNEW-LibModule-V1  2020-02-29 12:50:27
# encoding utf-8
Units mm
$INDEX
SOIC127P1032X265-16N
$EndINDEX
$MODULE SOIC127P1032X265-16N
Po 0 0 0 15 5e5a5e13 00000000 ~~
Li SOIC127P1032X265-16N
Cd so 16
Kw Integrated Circuit
Sc 0
At SMD
AR 
Op 0 0 0
T0 0 0 1.27 1.27 0 0.254 N V 21 N "IC**"
T1 0 0 1.27 1.27 0 0.254 N I 21 N "SOIC127P1032X265-16N"
DS -5.925 -5.5 5.925 -5.5 0.05 24
DS 5.925 -5.5 5.925 5.5 0.05 24
DS 5.925 5.5 -5.925 5.5 0.05 24
DS -5.925 5.5 -5.925 -5.5 0.05 24
DS -3.75 -5.15 3.75 -5.15 0.1 24
DS 3.75 -5.15 3.75 5.15 0.1 24
DS 3.75 5.15 -3.75 5.15 0.1 24
DS -3.75 5.15 -3.75 -5.15 0.1 24
DS -3.75 -3.88 -2.48 -5.15 0.1 24
DS -3.4 -5.15 3.4 -5.15 0.2 21
DS 3.4 -5.15 3.4 5.15 0.2 21
DS 3.4 5.15 -3.4 5.15 0.2 21
DS -3.4 5.15 -3.4 -5.15 0.2 21
DS -5.675 -5.12 -3.75 -5.12 0.2 21
$PAD
Po -4.712 -4.445
Sh "1" R 0.65 1.925 0 0 900
At SMD N 00888000
Ne 0 ""
$EndPAD
$PAD
Po -4.712 -3.175
Sh "2" R 0.65 1.925 0 0 900
At SMD N 00888000
Ne 0 ""
$EndPAD
$PAD
Po -4.712 -1.905
Sh "3" R 0.65 1.925 0 0 900
At SMD N 00888000
Ne 0 ""
$EndPAD
$PAD
Po -4.712 -0.635
Sh "4" R 0.65 1.925 0 0 900
At SMD N 00888000
Ne 0 ""
$EndPAD
$PAD
Po -4.712 0.635
Sh "5" R 0.65 1.925 0 0 900
At SMD N 00888000
Ne 0 ""
$EndPAD
$PAD
Po -4.712 1.905
Sh "6" R 0.65 1.925 0 0 900
At SMD N 00888000
Ne 0 ""
$EndPAD
$PAD
Po -4.712 3.175
Sh "7" R 0.65 1.925 0 0 900
At SMD N 00888000
Ne 0 ""
$EndPAD
$PAD
Po -4.712 4.445
Sh "8" R 0.65 1.925 0 0 900
At SMD N 00888000
Ne 0 ""
$EndPAD
$PAD
Po 4.712 4.445
Sh "9" R 0.65 1.925 0 0 900
At SMD N 00888000
Ne 0 ""
$EndPAD
$PAD
Po 4.712 3.175
Sh "10" R 0.65 1.925 0 0 900
At SMD N 00888000
Ne 0 ""
$EndPAD
$PAD
Po 4.712 1.905
Sh "11" R 0.65 1.925 0 0 900
At SMD N 00888000
Ne 0 ""
$EndPAD
$PAD
Po 4.712 0.635
Sh "12" R 0.65 1.925 0 0 900
At SMD N 00888000
Ne 0 ""
$EndPAD
$PAD
Po 4.712 -0.635
Sh "13" R 0.65 1.925 0 0 900
At SMD N 00888000
Ne 0 ""
$EndPAD
$PAD
Po 4.712 -1.905
Sh "14" R 0.65 1.925 0 0 900
At SMD N 00888000
Ne 0 ""
$EndPAD
$PAD
Po 4.712 -3.175
Sh "15" R 0.65 1.925 0 0 900
At SMD N 00888000
Ne 0 ""
$EndPAD
$PAD
Po 4.712 -4.445
Sh "16" R 0.65 1.925 0 0 900
At SMD N 00888000
Ne 0 ""
$EndPAD
$EndMODULE SOIC127P1032X265-16N
$EndLIBRARY
