PCBNEW-LibModule-V1  2020-06-12 20:08:04
# encoding utf-8
Units mm
$INDEX
SOT95P237X112-3N
$EndINDEX
$MODULE SOT95P237X112-3N
Po 0 0 0 15 5ee3d294 00000000 ~~
Li SOT95P237X112-3N
Cd SOT95P237X112-3N
Kw Integrated Circuit
Sc 0
At SMD
AR 
Op 0 0 0
T0 -3.4544 -2.54 1.27 1.27 0 0.254 N V 21 N "IC**"
T1 -3.4544 -2.54 1.27 1.27 0 0.254 N I 21 N "SOT95P237X112-3N"
DS 0.7112 -0.5842 0.7112 -1.524 0.1524 21
DS -0.2794 1.524 0.7112 1.524 0.1524 21
DS 0.7112 1.524 0.7112 0.5842 0.1524 21
DS 0.7112 -1.524 0.3048 -1.524 0.1524 21
DS 0.3048 -1.524 -0.2794 -1.524 0.1524 21
DS -0.7112 -0.3302 -0.7112 0.3302 0.1524 21
$PAD
Po -1.0922 -0.9398
Sh "1" R 0.5588 1.3208 0 0 900
At SMD N 00888000
Ne 0 ""
$EndPAD
$PAD
Po -1.0922 0.9398
Sh "2" R 0.5588 1.3208 0 0 900
At SMD N 00888000
Ne 0 ""
$EndPAD
$PAD
Po 1.0922 0
Sh "3" R 0.508 1.3208 0 0 900
At SMD N 00888000
Ne 0 ""
$EndPAD
$EndMODULE SOT95P237X112-3N
$EndLIBRARY
