PCBNEW-LibModule-V1  2020-06-16 13:41:32
# encoding utf-8
Units mm
$INDEX
HDRV40W63P254_2X20_5080X500X880P
$EndINDEX
$MODULE HDRV40W63P254_2X20_5080X500X880P
Po 0 0 0 15 5ee8bdfc 00000000 ~~
Li HDRV40W63P254_2X20_5080X500X880P
Cd 2-826925-0
Kw Connector
Sc 0
At STD
AR 
Op 0 0 0
T0 0 0 1.27 1.27 0 0.254 N V 21 N "J**"
T1 0 0 1.27 1.27 0 0.254 N I 21 N "HDRV40W63P254_2X20_5080X500X880P"
DS -1.77 1.58 -1.77 -4.12 0.05 24
DS -1.77 -4.12 50.03 -4.12 0.05 24
DS 50.03 -4.12 50.03 1.58 0.05 24
DS 50.03 1.58 -1.77 1.58 0.05 24
DS -1.52 1.33 -1.52 -3.87 0.1 24
DS -1.52 -3.87 49.78 -3.87 0.1 24
DS 49.78 -3.87 49.78 1.33 0.1 24
DS 49.78 1.33 -1.52 1.33 0.1 24
DS -1.52 0 -1.52 1.33 0.2 21
DS -1.52 1.33 49.78 1.33 0.2 21
DS 49.78 1.33 49.78 -3.87 0.2 21
DS 49.78 -3.87 0 -3.87 0.2 21
$PAD
Po 0 0
Sh "1" R 1.65 1.65 0 0 900
Dr 1.1 0 0
At STD N 00E0FFFF
Ne 0 ""
$EndPAD
$PAD
Po 0 -2.54
Sh "2" C 1.65 1.65 0 0 900
Dr 1.1 0 0
At STD N 00E0FFFF
Ne 0 ""
$EndPAD
$PAD
Po 2.54 0
Sh "3" C 1.65 1.65 0 0 900
Dr 1.1 0 0
At STD N 00E0FFFF
Ne 0 ""
$EndPAD
$PAD
Po 2.54 -2.54
Sh "4" C 1.65 1.65 0 0 900
Dr 1.1 0 0
At STD N 00E0FFFF
Ne 0 ""
$EndPAD
$PAD
Po 5.08 0
Sh "5" C 1.65 1.65 0 0 900
Dr 1.1 0 0
At STD N 00E0FFFF
Ne 0 ""
$EndPAD
$PAD
Po 5.08 -2.54
Sh "6" C 1.65 1.65 0 0 900
Dr 1.1 0 0
At STD N 00E0FFFF
Ne 0 ""
$EndPAD
$PAD
Po 7.62 0
Sh "7" C 1.65 1.65 0 0 900
Dr 1.1 0 0
At STD N 00E0FFFF
Ne 0 ""
$EndPAD
$PAD
Po 7.62 -2.54
Sh "8" C 1.65 1.65 0 0 900
Dr 1.1 0 0
At STD N 00E0FFFF
Ne 0 ""
$EndPAD
$PAD
Po 10.16 0
Sh "9" C 1.65 1.65 0 0 900
Dr 1.1 0 0
At STD N 00E0FFFF
Ne 0 ""
$EndPAD
$PAD
Po 10.16 -2.54
Sh "10" C 1.65 1.65 0 0 900
Dr 1.1 0 0
At STD N 00E0FFFF
Ne 0 ""
$EndPAD
$PAD
Po 12.7 0
Sh "11" C 1.65 1.65 0 0 900
Dr 1.1 0 0
At STD N 00E0FFFF
Ne 0 ""
$EndPAD
$PAD
Po 12.7 -2.54
Sh "12" C 1.65 1.65 0 0 900
Dr 1.1 0 0
At STD N 00E0FFFF
Ne 0 ""
$EndPAD
$PAD
Po 15.24 0
Sh "13" C 1.65 1.65 0 0 900
Dr 1.1 0 0
At STD N 00E0FFFF
Ne 0 ""
$EndPAD
$PAD
Po 15.24 -2.54
Sh "14" C 1.65 1.65 0 0 900
Dr 1.1 0 0
At STD N 00E0FFFF
Ne 0 ""
$EndPAD
$PAD
Po 17.78 0
Sh "15" C 1.65 1.65 0 0 900
Dr 1.1 0 0
At STD N 00E0FFFF
Ne 0 ""
$EndPAD
$PAD
Po 17.78 -2.54
Sh "16" C 1.65 1.65 0 0 900
Dr 1.1 0 0
At STD N 00E0FFFF
Ne 0 ""
$EndPAD
$PAD
Po 20.32 0
Sh "17" C 1.65 1.65 0 0 900
Dr 1.1 0 0
At STD N 00E0FFFF
Ne 0 ""
$EndPAD
$PAD
Po 20.32 -2.54
Sh "18" C 1.65 1.65 0 0 900
Dr 1.1 0 0
At STD N 00E0FFFF
Ne 0 ""
$EndPAD
$PAD
Po 22.86 0
Sh "19" C 1.65 1.65 0 0 900
Dr 1.1 0 0
At STD N 00E0FFFF
Ne 0 ""
$EndPAD
$PAD
Po 22.86 -2.54
Sh "20" C 1.65 1.65 0 0 900
Dr 1.1 0 0
At STD N 00E0FFFF
Ne 0 ""
$EndPAD
$PAD
Po 25.4 0
Sh "21" C 1.65 1.65 0 0 900
Dr 1.1 0 0
At STD N 00E0FFFF
Ne 0 ""
$EndPAD
$PAD
Po 25.4 -2.54
Sh "22" C 1.65 1.65 0 0 900
Dr 1.1 0 0
At STD N 00E0FFFF
Ne 0 ""
$EndPAD
$PAD
Po 27.94 0
Sh "23" C 1.65 1.65 0 0 900
Dr 1.1 0 0
At STD N 00E0FFFF
Ne 0 ""
$EndPAD
$PAD
Po 27.94 -2.54
Sh "24" C 1.65 1.65 0 0 900
Dr 1.1 0 0
At STD N 00E0FFFF
Ne 0 ""
$EndPAD
$PAD
Po 30.48 0
Sh "25" C 1.65 1.65 0 0 900
Dr 1.1 0 0
At STD N 00E0FFFF
Ne 0 ""
$EndPAD
$PAD
Po 30.48 -2.54
Sh "26" C 1.65 1.65 0 0 900
Dr 1.1 0 0
At STD N 00E0FFFF
Ne 0 ""
$EndPAD
$PAD
Po 33.02 0
Sh "27" C 1.65 1.65 0 0 900
Dr 1.1 0 0
At STD N 00E0FFFF
Ne 0 ""
$EndPAD
$PAD
Po 33.02 -2.54
Sh "28" C 1.65 1.65 0 0 900
Dr 1.1 0 0
At STD N 00E0FFFF
Ne 0 ""
$EndPAD
$PAD
Po 35.56 0
Sh "29" C 1.65 1.65 0 0 900
Dr 1.1 0 0
At STD N 00E0FFFF
Ne 0 ""
$EndPAD
$PAD
Po 35.56 -2.54
Sh "30" C 1.65 1.65 0 0 900
Dr 1.1 0 0
At STD N 00E0FFFF
Ne 0 ""
$EndPAD
$PAD
Po 38.1 0
Sh "31" C 1.65 1.65 0 0 900
Dr 1.1 0 0
At STD N 00E0FFFF
Ne 0 ""
$EndPAD
$PAD
Po 38.1 -2.54
Sh "32" C 1.65 1.65 0 0 900
Dr 1.1 0 0
At STD N 00E0FFFF
Ne 0 ""
$EndPAD
$PAD
Po 40.64 0
Sh "33" C 1.65 1.65 0 0 900
Dr 1.1 0 0
At STD N 00E0FFFF
Ne 0 ""
$EndPAD
$PAD
Po 40.64 -2.54
Sh "34" C 1.65 1.65 0 0 900
Dr 1.1 0 0
At STD N 00E0FFFF
Ne 0 ""
$EndPAD
$PAD
Po 43.18 0
Sh "35" C 1.65 1.65 0 0 900
Dr 1.1 0 0
At STD N 00E0FFFF
Ne 0 ""
$EndPAD
$PAD
Po 43.18 -2.54
Sh "36" C 1.65 1.65 0 0 900
Dr 1.1 0 0
At STD N 00E0FFFF
Ne 0 ""
$EndPAD
$PAD
Po 45.72 0
Sh "37" C 1.65 1.65 0 0 900
Dr 1.1 0 0
At STD N 00E0FFFF
Ne 0 ""
$EndPAD
$PAD
Po 45.72 -2.54
Sh "38" C 1.65 1.65 0 0 900
Dr 1.1 0 0
At STD N 00E0FFFF
Ne 0 ""
$EndPAD
$PAD
Po 48.26 0
Sh "39" C 1.65 1.65 0 0 900
Dr 1.1 0 0
At STD N 00E0FFFF
Ne 0 ""
$EndPAD
$PAD
Po 48.26 -2.54
Sh "40" C 1.65 1.65 0 0 900
Dr 1.1 0 0
At STD N 00E0FFFF
Ne 0 ""
$EndPAD
$EndMODULE HDRV40W63P254_2X20_5080X500X880P
$EndLIBRARY
