<?xml version="1.0" encoding="utf-8"?>
<!--/1117385/180600/2.45/25/4/Integrated Circuit/-->
<!DOCTYPE curve SYSTEM "eagle.dtd">
<eagle version="7.7.0">
<drawing>
<settings>
<setting alwaysvectorfont="no"/>
<setting verticaltext="up"/>
</settings>
<grid distance="0.1" unitdist="inch" unit="inch" style="lines" multiple="1" display="no" altdistance="0.01" altunitdist="inch" altunit="inch"/>
<layers>
<layer number="1" name="Top" color="4" fill="1" visible="yes" active="yes"/>
<layer number="16" name="Bottom" color="1" fill="1" visible="yes" active="yes"/>
<layer number="17" name="Pads" color="2" fill="1" visible="yes" active="yes"/>
<layer number="18" name="Vias" color="2" fill="1" visible="yes" active="yes"/>
<layer number="19" name="Unrouted" color="6" fill="1" visible="yes" active="yes"/>
<layer number="20" name="Dimension" color="15" fill="1" visible="yes" active="yes"/>
<layer number="21" name="tPlace" color="7" fill="1" visible="yes" active="yes"/>
<layer number="22" name="bPlace" color="7" fill="1" visible="yes" active="yes"/>
<layer number="23" name="tOrigins" color="15" fill="1" visible="yes" active="yes"/>
<layer number="24" name="bOrigins" color="15" fill="1" visible="yes" active="yes"/>
<layer number="25" name="tNames" color="7" fill="1" visible="yes" active="yes"/>
<layer number="26" name="bNames" color="7" fill="1" visible="yes" active="yes"/>
<layer number="27" name="tValues" color="7" fill="1" visible="yes" active="yes"/>
<layer number="28" name="bValues" color="7" fill="1" visible="yes" active="yes"/>
<layer number="29" name="tStop" color="7" fill="3" visible="no" active="yes"/>
<layer number="30" name="bStop" color="7" fill="6" visible="no" active="yes"/>
<layer number="31" name="tCream" color="7" fill="4" visible="no" active="yes"/>
<layer number="32" name="bCream" color="7" fill="5" visible="no" active="yes"/>
<layer number="33" name="tFinish" color="6" fill="3" visible="no" active="yes"/>
<layer number="34" name="bFinish" color="6" fill="6" visible="no" active="yes"/>
<layer number="35" name="tGlue" color="7" fill="4" visible="no" active="yes"/>
<layer number="36" name="bGlue" color="7" fill="5" visible="no" active="yes"/>
<layer number="37" name="tTest" color="7" fill="1" visible="no" active="yes"/>
<layer number="38" name="bTest" color="7" fill="1" visible="no" active="yes"/>
<layer number="39" name="tKeepout" color="4" fill="11" visible="yes" active="yes"/>
<layer number="40" name="bKeepout" color="1" fill="11" visible="yes" active="yes"/>
<layer number="41" name="tRestrict" color="4" fill="10" visible="yes" active="yes"/>
<layer number="42" name="bRestrict" color="1" fill="10" visible="yes" active="yes"/>
<layer number="43" name="vRestrict" color="2" fill="10" visible="yes" active="yes"/>
<layer number="44" name="Drills" color="7" fill="1" visible="no" active="yes"/>
<layer number="45" name="Holes" color="7" fill="1" visible="no" active="yes"/>
<layer number="46" name="Milling" color="3" fill="1" visible="no" active="yes"/>
<layer number="47" name="Measures" color="7" fill="1" visible="no" active="yes"/>
<layer number="48" name="Document" color="7" fill="1" visible="yes" active="yes"/>
<layer number="49" name="Reference" color="7" fill="1" visible="yes" active="yes"/>
<layer number="51" name="tDocu" color="7" fill="1" visible="yes" active="yes"/>
<layer number="52" name="bDocu" color="7" fill="1" visible="yes" active="yes"/>
<layer number="90" name="Modules" color="5" fill="1" visible="yes" active="yes"/>
<layer number="91" name="Nets" color="2" fill="1" visible="yes" active="yes"/>
<layer number="92" name="Busses" color="1" fill="1" visible="yes" active="yes"/>
<layer number="93" name="Pins" color="2" fill="1" visible="no" active="yes"/>
<layer number="94" name="Symbols" color="4" fill="1" visible="yes" active="yes"/>
<layer number="95" name="Names" color="7" fill="1" visible="yes" active="yes"/>
<layer number="96" name="Values" color="7" fill="1" visible="yes" active="yes"/>
<layer number="97" name="Info" color="7" fill="1" visible="yes" active="yes"/>
<layer number="98" name="Guide" color="6" fill="1" visible="yes" active="yes"/>
</layers>
<library>
<description>&lt;RF Amplifier 2.49-2.69GHz 4W Small Cell PAE 36%&lt;/b&gt;&lt;p&gt;
&lt;author&gt;Created by SamacSys&lt;/author&gt;</description>
<packages>
<package name="SKY6629711">
<description>&lt;b&gt;SKY66297-11-2&lt;/b&gt;&lt;br&gt;
</description>
<smd name="1" x="-2.315" y="1.200" dx="0.670" dy="0.500" layer="1" rot="R0"/>
<smd name="2" x="-2.315" y="0.400" dx="0.670" dy="0.500" layer="1" rot="R0"/>
<smd name="3" x="-2.315" y="-0.400" dx="0.670" dy="0.500" layer="1" rot="R0"/>
<smd name="4" x="-2.315" y="-1.200" dx="0.670" dy="0.500" layer="1" rot="R0"/>
<smd name="5" x="-1.200" y="-2.315" dx="0.670" dy="0.500" layer="1" rot="R90"/>
<smd name="6" x="-0.400" y="-2.315" dx="0.670" dy="0.500" layer="1" rot="R90"/>
<smd name="7" x="0.400" y="-2.315" dx="0.670" dy="0.500" layer="1" rot="R90"/>
<smd name="8" x="1.200" y="-2.315" dx="0.670" dy="0.500" layer="1" rot="R90"/>
<smd name="9" x="2.315" y="-1.200" dx="0.670" dy="0.500" layer="1" rot="R0"/>
<smd name="10" x="2.315" y="-0.400" dx="0.670" dy="0.500" layer="1" rot="R0"/>
<smd name="11" x="2.315" y="0.400" dx="0.670" dy="0.500" layer="1" rot="R0"/>
<smd name="12" x="2.315" y="1.200" dx="0.670" dy="0.500" layer="1" rot="R0"/>
<smd name="13" x="1.200" y="2.315" dx="0.670" dy="0.500" layer="1" rot="R90"/>
<smd name="14" x="0.400" y="2.315" dx="0.670" dy="0.500" layer="1" rot="R90"/>
<smd name="15" x="-0.400" y="2.315" dx="0.670" dy="0.500" layer="1" rot="R90"/>
<smd name="16" x="-1.200" y="2.315" dx="0.670" dy="0.500" layer="1" rot="R90"/>
<smd name="17" x="-1.000" y="1.000" dx="0.875" dy="0.875" layer="1" rot="R90"/>
<smd name="18" x="0.000" y="1.000" dx="0.875" dy="0.875" layer="1" rot="R90"/>
<smd name="19" x="1.000" y="1.000" dx="0.875" dy="0.875" layer="1" rot="R90"/>
<smd name="20" x="-1.000" y="0.000" dx="0.875" dy="0.875" layer="1" rot="R90"/>
<smd name="21" x="0.000" y="0.000" dx="0.875" dy="0.875" layer="1" rot="R90"/>
<smd name="22" x="1.000" y="0.000" dx="0.875" dy="0.875" layer="1" rot="R90"/>
<smd name="23" x="-1.000" y="-1.000" dx="0.875" dy="0.875" layer="1" rot="R90"/>
<smd name="24" x="0.000" y="-1.000" dx="0.875" dy="0.875" layer="1" rot="R90"/>
<smd name="25" x="1.000" y="-1.000" dx="0.875" dy="0.875" layer="1" rot="R90"/>
<text x="-0.200" y="0.000" align="center" size="1.27" layer="25" rot="R0" >&gt;NAME</text>
<text x="-0.200" y="0.000" align="center" size="1.27" layer="27" rot="R0" >&gt;VALUE</text>
<wire x1="-2.5" y1="2.5" x2="2.5" y2="2.5" width="0.2" layer="51"/>
<wire x1="2.5" y1="2.5" x2="2.5" y2="-2.5" width="0.2" layer="51"/>
<wire x1="2.5" y1="-2.5" x2="-2.5" y2="-2.5" width="0.2" layer="51"/>
<wire x1="-2.5" y1="-2.5" x2="-2.5" y2="2.5" width="0.2" layer="51"/>
<wire x1="-4.05" y1="3.65" x2="3.65" y2="3.65" width="0.1" layer="51"/>
<wire x1="3.65" y1="3.65" x2="3.65" y2="-3.65" width="0.1" layer="51"/>
<wire x1="3.65" y1="-3.65" x2="-4.05" y2="-3.65" width="0.1" layer="51"/>
<wire x1="-4.05" y1="-3.65" x2="-4.05" y2="3.65" width="0.1" layer="51"/>
<wire x1="1.6" y1="2.5" x2="2.5" y2="2.5" width="0.1" layer="21"/>
<wire x1="2.5" y1="2.5" x2="2.5" y2="1.8" width="0.1" layer="21"/>
<wire x1="-1.6" y1="2.5" x2="-2.5" y2="2.5" width="0.1" layer="21"/>
<wire x1="-2.5" y1="2.5" x2="-2.5" y2="1.6" width="0.1" layer="21"/>
<wire x1="2.5" y1="-1.6" x2="2.5" y2="-2.5" width="0.1" layer="21"/>
<wire x1="2.5" y1="-2.5" x2="1.6" y2="-2.5" width="0.1" layer="21"/>
<wire x1="-2.5" y1="-1.6" x2="-2.5" y2="-2.5" width="0.1" layer="21"/>
<wire x1="-2.5" y1="-2.5" x2="-1.6" y2="-2.5" width="0.1" layer="21"/>
<wire x1="-3" y1="1.2" x2="-3" y2="1.2" width="0.1" layer="21"/>
<wire x1="-3.000" y1="1.200" x2="-3.000" y2="1.300" width="0.1" layer="21" curve="180.0"/>
<wire x1="-3" y1="1.3" x2="-3" y2="1.3" width="0.1" layer="21"/>
<wire x1="-3.000" y1="1.300" x2="-3.000" y2="1.200" width="0.1" layer="21" curve="180.0"/>
</package>
</packages>
<symbols>
<symbol name="SKY66297-11">
<wire x1="5.08" y1="2.54" x2="25.4" y2="2.54" width="0.254" layer="94"/>
<wire x1="25.4" y1="-33.02" x2="25.4" y2="2.54" width="0.254" layer="94"/>
<wire x1="25.4" y1="-33.02" x2="5.08" y2="-33.02" width="0.254" layer="94"/>
<wire x1="5.08" y1="2.54" x2="5.08" y2="-33.02" width="0.254" layer="94"/>
<text x="26.67" y="7.62" align="center-left" size="1.778" layer="95">&gt;NAME</text>
<text x="26.67" y="5.08" align="center-left" size="1.778" layer="96">&gt;VALUE</text>
<pin name="GND_1" x="0" y="0" length="middle" direction="io" rot="R0"/>
<pin name="RFIN" x="0" y="-2.54" length="middle" direction="io" rot="R0"/>
<pin name="GND_2" x="0" y="-5.08" length="middle" direction="io" rot="R0"/>
<pin name="GND_3" x="0" y="-7.62" length="middle" direction="io" rot="R0"/>
<pin name="VBIAS" x="0" y="-10.16" length="middle" direction="io" rot="R0"/>
<pin name="PAEN" x="0" y="-12.7" length="middle" direction="io" rot="R0"/>
<pin name="GND_4" x="0" y="-15.24" length="middle" direction="io" rot="R0"/>
<pin name="GND_5" x="0" y="-17.78" length="middle" direction="io" rot="R0"/>
<pin name="RFOUT" x="0" y="-20.32" length="middle" direction="io" rot="R0"/>
<pin name="GND_6" x="0" y="-22.86" length="middle" direction="io" rot="R0"/>
<pin name="GND_7" x="0" y="-25.4" length="middle" direction="io" rot="R0"/>
<pin name="VCC3" x="0" y="-27.94" length="middle" direction="io" rot="R0"/>
<pin name="GND_8" x="0" y="-30.48" length="middle" direction="io" rot="R0"/>
<pin name="VCC2" x="30.48" y="0" length="middle" direction="io" rot="R180"/>
<pin name="GND_9" x="30.48" y="-2.54" length="middle" direction="io" rot="R180"/>
<pin name="VCC1" x="30.48" y="-5.08" length="middle" direction="io" rot="R180"/>
<pin name="EP1" x="30.48" y="-7.62" length="middle" direction="io" rot="R180"/>
<pin name="EP2" x="30.48" y="-10.16" length="middle" direction="io" rot="R180"/>
<pin name="EP3" x="30.48" y="-12.7" length="middle" direction="io" rot="R180"/>
<pin name="EP4" x="30.48" y="-15.24" length="middle" direction="io" rot="R180"/>
<pin name="EP5" x="30.48" y="-17.78" length="middle" direction="io" rot="R180"/>
<pin name="EP6" x="30.48" y="-20.32" length="middle" direction="io" rot="R180"/>
<pin name="EP7" x="30.48" y="-22.86" length="middle" direction="io" rot="R180"/>
<pin name="EP8" x="30.48" y="-25.4" length="middle" direction="io" rot="R180"/>
<pin name="EP9" x="30.48" y="-27.94" length="middle" direction="io" rot="R180"/>
</symbol>
</symbols>
<devicesets>
<deviceset name="SKY66297-11" prefix="IC">
<description>&lt;b&gt;RF Amplifier 2.49-2.69GHz 4W Small Cell PAE 36%&lt;/b&gt;&lt;p&gt;
Source: &lt;a href="http://www.skyworksinc.com/uploads/documents/SKY66291_11_203161E.pdf"&gt; Datasheet &lt;/a&gt;</description>
<gates>
<gate name="G$1" symbol="SKY66297-11" x="0" y="0"/>
</gates>
<devices>
<device name="" package="SKY6629711">
<connects>
<connect gate="G$1" pin="GND_1" pad="1"/>
<connect gate="G$1" pin="RFIN" pad="2"/>
<connect gate="G$1" pin="GND_2" pad="3"/>
<connect gate="G$1" pin="GND_3" pad="4"/>
<connect gate="G$1" pin="VBIAS" pad="5"/>
<connect gate="G$1" pin="PAEN" pad="6"/>
<connect gate="G$1" pin="GND_4" pad="7"/>
<connect gate="G$1" pin="GND_5" pad="8"/>
<connect gate="G$1" pin="RFOUT" pad="9"/>
<connect gate="G$1" pin="GND_6" pad="10"/>
<connect gate="G$1" pin="GND_7" pad="11"/>
<connect gate="G$1" pin="VCC3" pad="12"/>
<connect gate="G$1" pin="GND_8" pad="13"/>
<connect gate="G$1" pin="VCC2" pad="14"/>
<connect gate="G$1" pin="GND_9" pad="15"/>
<connect gate="G$1" pin="VCC1" pad="16"/>
<connect gate="G$1" pin="EP1" pad="17"/>
<connect gate="G$1" pin="EP2" pad="18"/>
<connect gate="G$1" pin="EP3" pad="19"/>
<connect gate="G$1" pin="EP4" pad="20"/>
<connect gate="G$1" pin="EP5" pad="21"/>
<connect gate="G$1" pin="EP6" pad="22"/>
<connect gate="G$1" pin="EP7" pad="23"/>
<connect gate="G$1" pin="EP8" pad="24"/>
<connect gate="G$1" pin="EP9" pad="25"/>
</connects>
<technologies>
<technology name="">
<attribute name="Manufacturer_Name" value="Skyworks" constant="no"/>
<attribute name="Manufacturer_Part_Number" value="SKY66297-11" constant="no"/>
<attribute name="Mouser_Part_Number" value="873-SKY66297-11" constant="no"/>
<attribute name="Mouser_Price-Stock" value="https://www.mouser.com/Search/Refine.aspx?Keyword=873-SKY66297-11" constant="no"/>
<attribute name="RS_Part_Number" value="" constant="no"/>
<attribute name="RS_Price-Stock" value="" constant="no"/>
<attribute name="Description" value="RF Amplifier 2.49-2.69GHz 4W Small Cell PAE 36%" constant="no"/>
<attribute name="Height" value="1.4mm" constant="no"/>
</technology>
</technologies>
</device>
</devices>
</deviceset>
</devicesets>
</library>
</drawing>
</eagle>
