Reference, Value, Footprint, Manufacter N, Spice_Model, Spice_Netlist_Enabled, Spice_Primitive, Description, Height, Manufacturer_Name, Mouser Part Number, Mouser Price/Stock, RS Part Number, RS Price/Stock, Manufacturer_Part_Number, Allied Price/Stock, Allied_Number, Arrow Part Number
R5,10k,Resistor_SMD:R_0603_1608Metric_Pad1.05x0.95mm_HandSolder,RC0603JR-0710KL,,,,,,,,,,,,,,
R3,100R,Resistor_SMD:R_0603_1608Metric_Pad1.05x0.95mm_HandSolder,AC0603JR-07100RL,,,,,,,,,,,,,,
R4,0R,Resistor_SMD:R_0603_1608Metric_Pad1.05x0.95mm_HandSolder,603-RC0402FR-070RL,,,,,,,,,,,,,,
R17,0R,Resistor_SMD:R_0603_1608Metric_Pad1.05x0.95mm_HandSolder,603-RC0402FR-070RL,,,,,,,,,,,,,,
R18,0R,Resistor_SMD:R_0603_1608Metric_Pad1.05x0.95mm_HandSolder,603-RC0402FR-070RL,,,,,,,,,,,,,,
R19,0R,Resistor_SMD:R_0603_1608Metric_Pad1.05x0.95mm_HandSolder,603-RC0402FR-070RL,,,,,,,,,,,,,,
R20,0R,Resistor_SMD:R_0603_1608Metric_Pad1.05x0.95mm_HandSolder,603-RC0402FR-070RL,,,,,,,,,,,,,,
R21,0R,Resistor_SMD:R_0603_1608Metric_Pad1.05x0.95mm_HandSolder,603-RC0402FR-070RL,,,,,,,,,,,,,,
R8,0R,Resistor_SMD:R_0603_1608Metric_Pad1.05x0.95mm_HandSolder,603-RC0402FR-070RL,,,,,,,,,,,,,,
R7,0R,Resistor_SMD:R_0603_1608Metric_Pad1.05x0.95mm_HandSolder,603-RC0402FR-070RL,,,,,,,,,,,,,,
R6,0R,Resistor_SMD:R_0603_1608Metric_Pad1.05x0.95mm_HandSolder,603-RC0402FR-070RL,,,,,,,,,,,,,,
R1,10k,Resistor_SMD:R_0603_1608Metric_Pad1.05x0.95mm_HandSolder,RC0603JR-0710KL,10k,Y,R,,,,,,,,,,,
R2,10k,Resistor_SMD:R_0603_1608Metric_Pad1.05x0.95mm_HandSolder,RC0603JR-0710KL,,,,,,,,,,,,,,
C2,1uF / 10V,Capacitor_SMD:C_0603_1608Metric_Pad1.05x0.95mm_HandSolder,80-C0603C105K8PLR,,,,,,,,,,,,,,
C4,100nF,Capacitor_SMD:C_0603_1608Metric_Pad1.05x0.95mm_HandSolder,0603ZD104KAT2A,,,,,,,,,,,,,,
C5,1uF,Capacitor_SMD:C_0603_1608Metric_Pad1.05x0.95mm_HandSolder,80-C0603C105K8PLR,,,,,,,,,,,,,,
C7,100nF,Capacitor_SMD:C_0603_1608Metric_Pad1.05x0.95mm_HandSolder,0603ZD104KAT2A,,,,,,,,,,,,,,
C9,1uF,Capacitor_SMD:C_0603_1608Metric_Pad1.05x0.95mm_HandSolder,80-C0603C105K8PLR,,,,,,,,,,,,,,
C10,100nF,Capacitor_SMD:C_0603_1608Metric_Pad1.05x0.95mm_HandSolder,0603ZD104KAT2A,,,,,,,,,,,,,,
C12,100nF,Capacitor_SMD:C_0603_1608Metric_Pad1.05x0.95mm_HandSolder,0603ZD104KAT2A,,,,,,,,,,,,,,
C11,100nF,Capacitor_SMD:C_0603_1608Metric_Pad1.05x0.95mm_HandSolder,0603ZD104KAT2A,,,,,,,,,,,,,,
C8,100nF,Capacitor_SMD:C_0603_1608Metric_Pad1.05x0.95mm_HandSolder,0603ZD104KAT2A,,,,,,,,,,,,,,
R16,0R,Resistor_SMD:R_0603_1608Metric_Pad1.05x0.95mm_HandSolder,603-RC0402FR-070RL,,,,,,,,,,,,,,
R15,0R,Resistor_SMD:R_0603_1608Metric_Pad1.05x0.95mm_HandSolder,603-RC0402FR-070RL,,,,,,,,,,,,,,
R14,0R,Resistor_SMD:R_0603_1608Metric_Pad1.05x0.95mm_HandSolder,603-RC0402FR-070RL,,,,,,,,,,,,,,
R13,0R,Resistor_SMD:R_0603_1608Metric_Pad1.05x0.95mm_HandSolder,603-RC0402FR-070RL,,,,,,,,,,,,,,
R12,0R,Resistor_SMD:R_0603_1608Metric_Pad1.05x0.95mm_HandSolder,603-RC0402FR-070RL,,,,,,,,,,,,,,
R9,680R,Resistor_SMD:R_0603_1608Metric_Pad1.05x0.95mm_HandSolder,CRCW0603680RJNEAC,,,,,,,,,,,,,,
R10,680R,Resistor_SMD:R_0603_1608Metric_Pad1.05x0.95mm_HandSolder,CRCW0603680RJNEAC,,,,,,,,,,,,,,
D2_CONFIGOK1, LED GREEN,LED_SMD:LED_1206_3216Metric_Pad1.42x1.75mm_HandSolder,599-0110-007F,,,,,,,,,,,,,,
R11,820R,Resistor_SMD:R_0603_1608Metric_Pad1.05x0.95mm_HandSolder,RK73B1JTTDD821J,,,,,,,,,,,,,,
D3_RXON1,LEDYELLOW,LED_SMD:LED_0805_2012Metric_Pad1.15x1.40mm_HandSolder,599-0140-007F,,,,,,,,,,,,,,
D1TXON1, RED LED,LED_SMD:LED_0805_2012Metric_Pad1.15x1.40mm_HandSolder,599-0110-007F,,,,,,,,,,,,,,
C6,100nF,Capacitor_SMD:C_0603_1608Metric_Pad1.05x0.95mm_HandSolder,0603ZD104KAT2A,,,,,,,,,,,,,,
IC2,SX1302IMLTRT,SX1302IMLTRT:QFN35P700X700X80-69N-D,SX1302IMLTRT,,,,RF Transceiver LoRa Gateway Baseband Transceiver,0.8,SEMTECH,947-SX1302IMLTRT,https://www.mouser.com/Search/Refine.aspx?Keyword=947-SX1302IMLTRT,,,,,,
C43,47 nF,Capacitor_SMD:C_0603_1608Metric_Pad1.05x0.95mm_HandSolder,0603YD473KAT2A,,,,,,,,,,,,,,
C44,47 pF,Capacitor_SMD:C_0603_1608Metric_Pad1.05x0.95mm_HandSolder,C0603C470J5GAC3190,,,,,,,,,,,,,,
L7,47 nH,Inductor_SMD:L_0402_1005Metric,LQW15AN47NJ00D,,,,,,,,,,,,,,
C55,5.6 pF,Capacitor_SMD:C_0603_1608Metric_Pad1.05x0.95mm_HandSolder,C0603C569C8GACTU,,,,,,,,,,,,,,
C58,1.8 pF,Capacitor_SMD:C_0603_1608Metric_Pad1.05x0.95mm_HandSolder,06035A1R8BAT2A,,,,,,,,,,,,,,
L10,2.5 nH,Inductor_SMD:L_0402_1005Metric,LQW15AN2N5C80D,,,,,,,,,,,,,,
L12,4.7 nH,Inductor_SMD:L_0402_1005Metric,LQW15AN4N7C00D,,,,,,,,,,,,,,
C29,470 nF,Capacitor_SMD:C_0603_1608Metric_Pad1.05x0.95mm_HandSolder,LMK063BBJ474MPLF,,,,,,,,,,,,,,
C33,1 uF,Capacitor_SMD:C_0603_1608Metric_Pad1.05x0.95mm_HandSolder,80-C0603C105K8PLR,,,,,,,,,,,,,,
C32,10 pF,Capacitor_SMD:C_0603_1608Metric_Pad1.05x0.95mm_HandSolder,C0603C100F5GACTU,,,,,,,,,,,,,,
L4,15 uH,Inductor_SMD:L_0805_2012Metric_Pad1.15x1.40mm_HandSolder,MLZ2012M150WT000,,,,,,,,,,,,,,
C52,3 pF,Capacitor_SMD:C_0603_1608Metric_Pad1.05x0.95mm_HandSolder,06035A3R0C4T2A,,,,,,,,,,,,,,
C57,39 pF,Capacitor_SMD:C_0603_1608Metric_Pad1.05x0.95mm_HandSolder,C0603X390J5GACAUTO,,,,,,,,,,,,,,
C51,3.6 pF,Capacitor_SMD:C_0603_1608Metric_Pad1.05x0.95mm_HandSolder,06035U3R6BAT2A,,,,,,,,,,,,,,
L9,12 nH,Inductor_SMD:L_0402_1005Metric,LQW15AN12NH00D,,,,,,,,,,,,,,
C47,3.6 pF,Capacitor_SMD:C_0603_1608Metric_Pad1.05x0.95mm_HandSolder,06035U3R6BAT2A,,,,,,,,,,,,,,
R31,220 Ohm,Capacitor_SMD:C_0603_1608Metric_Pad1.05x0.95mm_HandSolder,CRCW0603220RFKEBC,,,,,,,,,,,,,,
R32,0R,Resistor_SMD:R_0603_1608Metric_Pad1.05x0.95mm_HandSolder,603-RC0402FR-070RL,,,,,,,,,,,,,,
IC5,SX1250IMLTRT,SamacSys_Parts:QFN50P400X400X100-25N-D,SX1250IMLTRT,,,,RF Front End RF Front End transceiver,1,SEMTECH,947-SX1250IMLTRT,https://www.mouser.com/Search/Refine.aspx?Keyword=947-SX1250IMLTRT,,,,,,
FL2,B39921B4344P810,B39921B4344P810:B39921B4344P810,B39921B4344P810,,,,Signal Conditioning Cu Frame Filter 1411 915MHz 2.8dB QCS5P,0.45,RF360,871-B39921B4344P810,https://www.mouser.com/Search/Refine.aspx?Keyword=871-B39921B4344P810,,,,,,
C30,470 nF,Capacitor_SMD:C_0603_1608Metric_Pad1.05x0.95mm_HandSolder,LMK063BBJ474MPLF,,,,,,,,,,,,,,
C36,1 uF,Capacitor_SMD:C_0603_1608Metric_Pad1.05x0.95mm_HandSolder,80-C0603C105K8PLR,,,,,,,,,,,,,,
C34,10 pF,Capacitor_SMD:C_0603_1608Metric_Pad1.05x0.95mm_HandSolder,C0603C100F5GACTU,,,,,,,,,,,,,,
L5,15 uH,Inductor_SMD:L_0805_2012Metric_Pad1.15x1.40mm_HandSolder,MLZ2012M150WT000,,,,,,,,,,,,,,
L2,NC,Inductor_SMD:L_0603_1608Metric_Pad1.05x0.95mm_HandSolder,,,,,,,,,,,,,,,
R33,220 Ohm,Resistor_SMD:R_0603_1608Metric_Pad1.05x0.95mm_HandSolder,CRCW0603220RFKEBC,,,,,,,,,,,,,,
R35,0 Ohm,Resistor_SMD:R_0603_1608Metric_Pad1.05x0.95mm_HandSolder,603-RC0402FR-070RL,,,,,,,,,,,,,,
C53,"3,6 pF",Capacitor_SMD:C_0603_1608Metric_Pad1.05x0.95mm_HandSolder,06035U3R6BAT2A,,,,,,,,,,,,,,
L11,12 nH,Inductor_SMD:L_0402_1005Metric,LQW15AN12NH00D,,,,,,,,,,,,,,
C50,3.6 pF,Capacitor_SMD:C_0603_1608Metric_Pad1.05x0.95mm_HandSolder,06035U3R6BAT2A,,,,,,,,,,,,,,
C39,100 nF,Capacitor_SMD:C_0603_1608Metric_Pad1.05x0.95mm_HandSolder,0603ZD104KAT2A,,,,,,,,,,,,,,
IC6,SX1250IMLTRT,SamacSys_Parts:QFN50P400X400X100-25N-D,SX1250IMLTRT,,,,RF Front End RF Front End transceiver,1,SEMTECH,947-SX1250IMLTRT,https://www.mouser.com/Search/Refine.aspx?Keyword=947-SX1250IMLTRT,,,,,,
RNC1,R,Resistor_SMD:R_0603_1608Metric_Pad1.05x0.95mm_HandSolder,,,,,,,,,,,,,,,
R49,0 Ohm,Resistor_SMD:R_0603_1608Metric_Pad1.05x0.95mm_HandSolder,603-RC0402FR-070RL,,,,,,,,,,,,,,
RNC2,R,Resistor_SMD:R_0603_1608Metric_Pad1.05x0.95mm_HandSolder,,,,,,,,,,,,,,,
C63,56 pF,Capacitor_SMD:C_0603_1608Metric_Pad1.05x0.95mm_HandSolder,CBR06C560F5GAC,,,,,,,,,,,,,,
FL1,B39921B4344P810,B39921B4344P810:B39921B4344P810,B39921B4344P810,,,,Signal Conditioning Cu Frame Filter 1411 915MHz 2.8dB QCS5P,0.45,RF360,871-B39921B4344P810,https://www.mouser.com/Search/Refine.aspx?Keyword=871-B39921B4344P810,,,,,,
C60,56 pF,Capacitor_SMD:C_0603_1608Metric_Pad1.05x0.95mm_HandSolder,C0603X560J5GACAUTO,,,,,,,,,,,,,,
C14,2.2 uF,Capacitor_SMD:C_0603_1608Metric_Pad1.05x0.95mm_HandSolder,GRM188R71A225KE15D ,,,,,,,,,,,,,,
IC3,TPS62242DRVR,TPS62242DRVR:SON65P200X200X80-7N,TPS62242DRVR,,,,1.2V / 300mA Step-Down Converter in 2x2mm SON/TSOT23 Package,0.8,Texas Instruments,595-TPS62242DRVR,https://www.mouser.com/Search/Refine.aspx?Keyword=595-TPS62242DRVR,,,,,,
C23,4.7 uF,Capacitor_SMD:C_0603_1608Metric_Pad1.05x0.95mm_HandSolder,GRM188R61C475KAAJD,,,,,,,,,,,,,,
L1,2.2 uH,Inductor_SMD:L_1008_2520Metric,LQM2HPN2R2MJ0L,,,,,,,,,,,,,,
C20,10 uF,Capacitor_SMD:C_0603_1608Metric_Pad1.05x0.95mm_HandSolder,GRM188R61C106KAAL,,,,,,,,,,,,,,
C22,100 nF,Capacitor_SMD:C_0603_1608Metric_Pad1.05x0.95mm_HandSolder,0603ZD104KAT2A,,,,,,,,,,,,,,
FB7,Ferrite_Bead,Diode_SMD:D_0402_1005Metric,BLM15PG100SN1D,,,,,,,,,,,,,,
C84,100 nF,Capacitor_SMD:C_0603_1608Metric_Pad1.05x0.95mm_HandSolder,0603ZD104KAT2A,,,,,,,,,,,,,,
C83,10 uF,Capacitor_SMD:C_0603_1608Metric_Pad1.05x0.95mm_HandSolder,GRM188R61C106KAALD,,,,,,,,,,,,,,
R64,100,Resistor_SMD:R_0603_1608Metric_Pad1.05x0.95mm_HandSolder,603-AC0402FR-07100RL,,,,,,,,,,,,,,
R54,100,Resistor_SMD:R_0603_1608Metric_Pad1.05x0.95mm_HandSolder,603-AC0402FR-07100RL,,,,,,,,,,,,,,
R55,100,Resistor_SMD:R_0603_1608Metric_Pad1.05x0.95mm_HandSolder,603-AC0402FR-07100RL,,,,,,,,,,,,,,
R58,100,Resistor_SMD:R_0603_1608Metric_Pad1.05x0.95mm_HandSolder,603-AC0402FR-07100RL,,,,,,,,,,,,,,
R60,100,Resistor_SMD:R_0603_1608Metric_Pad1.05x0.95mm_HandSolder,603-AC0402FR-07100RL,,,,,,,,,,,,,,
R65,100,Resistor_SMD:R_0603_1608Metric_Pad1.05x0.95mm_HandSolder,603-AC0402FR-07100RL,,,,,,,,,,,,,,
R69,100,Resistor_SMD:R_0603_1608Metric_Pad1.05x0.95mm_HandSolder,603-AC0402FR-07100RL,,,,,,,,,,,,,,
R66,100,Resistor_SMD:R_0603_1608Metric_Pad1.05x0.95mm_HandSolder,603-AC0402FR-07100RL,,,,,,,,,,,,,,
R68,100,Resistor_SMD:R_0603_1608Metric_Pad1.05x0.95mm_HandSolder,603-AC0402FR-07100RL,,,,,,,,,,,,,,
R67,100,Resistor_SMD:R_0603_1608Metric_Pad1.05x0.95mm_HandSolder,603-AC0402FR-07100RL,,,,,,,,,,,,,,
FB6,Ferrite_Bead,Diode_SMD:D_0402_1005Metric,BLM15PG100SN1D,,,,,,,,,,,,,,
C18,1 uF 6.3V,Capacitor_SMD:C_0603_1608Metric_Pad1.05x0.95mm_HandSolder,80-C0603C105K8PLR,,,,,,,,,,,,,,
C21,100nF,Capacitor_SMD:C_0603_1608Metric_Pad1.05x0.95mm_HandSolder,0603ZD104KAT2A,,,,,,,,,,,,,,
IC1,NCP176AMX330TCG,NCP176AMX330TCG:NCP176AMX330TCG,NCP176AMX330TCG,,,,"ON Semiconductor NCP176AMX330TCG, LDO Voltage Regulator, 500mA, 3.3 V +/-0.8%, 1.4  5.5 Vin, 6-Pin XDFN",0.45,ON Semiconductor,863-NCP176AMX330TCG,https://www.mouser.com/Search/Refine.aspx?Keyword=863-NCP176AMX330TCG,9209827P,http://uk.rs-online.com/web/p/products/9209827P,,,,
C26,4.7 uF,Capacitor_SMD:C_0402_1005Metric,GRM155R60J475ME47D,,,,,,,,,,,,,,
C28,100 nF,Capacitor_SMD:C_0603_1608Metric_Pad1.05x0.95mm_HandSolder,0603ZD104KAT2A,,,,,,,,,,,,,,
FB5,Ferrite_Bead,Diode_SMD:D_0402_1005Metric,BLM15PG100SN1D,,,,,,,,,,,,,,
FB3,Ferrite_Bead,Diode_SMD:D_0402_1005Metric,BLM15PG100SN1D,,,,,,,,,,,,,,
R30,1 k,Capacitor_SMD:C_0603_1608Metric_Pad1.05x0.95mm_HandSolder,MCT0603MD1001BP500,,,,,,,,,,,,,,
DVCC_MAIN1, LED GREEN,LED_SMD:LED_1206_3216Metric_Pad1.42x1.75mm_HandSolder,AP3216CGCK,,,,,,,,,,,,,,
R24,4.7k,Resistor_SMD:R_0603_1608Metric_Pad1.05x0.95mm_HandSolder,CRCW06034K70JNEAC,,,,,,,,,,,,,,
R25,4.7k,Resistor_SMD:R_0603_1608Metric_Pad1.05x0.95mm_HandSolder,CRCW06034K70JNEAC,,,,,,,,,,,,,,
R26,10 k ,Resistor_SMD:R_0603_1608Metric_Pad1.05x0.95mm_HandSolder,RN732ATTE1002B25,,,,,,,,,,,,,,
C15,100 nF,Capacitor_SMD:C_0603_1608Metric_Pad1.05x0.95mm_HandSolder,0603ZD104KAT2A,,,,,,,,,,,,,,
C17,10 uF,Capacitor_SMD:C_0603_1608Metric_Pad1.05x0.95mm_HandSolder,GRM188R61C106KAALD,,,,,,,,,,,,,,
C13,4.7 uF,Capacitor_SMD:C_0603_1608Metric_Pad1.05x0.95mm_HandSolder,GRM188R61C475KAAJD,,,,,,,,,,,,,,
FB1,Ferrite_Bead,Diode_SMD:D_0402_1005Metric,BLM15PG100SN1D,,,,,,,,,,,,,,
R29,10 k ,Resistor_SMD:R_0603_1608Metric_Pad1.05x0.95mm_HandSolder,RN732ATTE1002B25,,,,,,,,,,,,,,
C19,1 uF 6.3V,Capacitor_SMD:C_0603_1608Metric_Pad1.05x0.95mm_HandSolder,80-C0603C105K8PLR,,,,,,,,,,,,,,
C25,1 uF 6.3V,Capacitor_SMD:C_0603_1608Metric_Pad1.05x0.95mm_HandSolder,80-C0603C105K8PLR,,,,,,,,,,,,,,
FB4,Ferrite_Bead,Diode_SMD:D_0402_1005Metric,BLM15PG100SN1D,,,,,,,,,,,,,,
C27,100 nF,Capacitor_SMD:C_0603_1608Metric_Pad1.05x0.95mm_HandSolder,0603ZD104KAT2A,,,,,,,,,,,,,,
C24,10 nF,Capacitor_SMD:C_0603_1608Metric_Pad1.05x0.95mm_HandSolder,06036C101KAT2A,,,,,,,,,,,,,,
D7,RCLAMP0531T.TCT,RCLAMP0531T.TCT:RCLAMP0531TTCT,RCLAMP0531T.TCT,,,,ESD Suppressors / TVS Diodes,0.43,SEMTECH,947-RCLAMP0531T.TCT,https://www.mouser.com/Search/Refine.aspx?Keyword=947-RCLAMP0531T.TCT,,,,,,
D5,RCLAMP0531T.TCT,RCLAMP0531T.TCT:RCLAMP0531TTCT,RCLAMP0531T.TCT,,,,ESD Suppressors / TVS Diodes,0.43,SEMTECH,947-RCLAMP0531T.TCT,https://www.mouser.com/Search/Refine.aspx?Keyword=947-RCLAMP0531T.TCT,,,,,,
LNC1,15 uH,Inductor_SMD:L_0805_2012Metric_Pad1.15x1.40mm_HandSolder,,,,,,,,,,,,,,,
C38,100nF,Capacitor_SMD:C_0603_1608Metric_Pad1.05x0.95mm_HandSolder,0603ZD104KAT2A,,,,,,,,,,,,,,
C65,4.7 uF,Capacitor_SMD:C_0603_1608Metric_Pad1.05x0.95mm_HandSolder,GRM188R61C475KAAJD,,,,,,,,,,,,,,
C66,100 nF,Capacitor_SMD:C_0603_1608Metric_Pad1.05x0.95mm_HandSolder,C0603C103K8GACTU,,,,,,,,,,,,,,
C67,1 nF,Capacitor_SMD:C_0603_1608Metric_Pad1.05x0.95mm_HandSolder,C0603C102K4RAC7411,,,,,,,,,,,,,,
C71,33 pF,Capacitor_SMD:C_0603_1608Metric_Pad1.05x0.95mm_HandSolder,C0603C330K5RACTU,,,,,,,,,,,,,,
L15,2.7 nH,Inductor_SMD:L_0402_1005Metric,LQG15WZ2N7C02D,,,,,,,,,,,,,,
C68,120 pF,Capacitor_SMD:C_0603_1608Metric_Pad1.05x0.95mm_HandSolder,C0603C121K5RACTU,,,,,,,,,,,,,,
L14,6.8 nH,Inductor_SMD:L_0402_1005Metric,LQW15AN6N8G80D,,,,,,,,,,,,,,
C73,NC,Capacitor_SMD:C_0603_1608Metric_Pad1.05x0.95mm_HandSolder,,,,,,,,,,,,,,,
C76,10 pF,Capacitor_SMD:C_0603_1608Metric_Pad1.05x0.95mm_HandSolder,C0603C100K5RACTU,,,,,,,,,,,,,,
L17,7.5 nH,Inductor_SMD:L_0402_1005Metric,LQW15AN7N5J00D,,,,,,,,,,,,,,
C80,2.4 pF,Capacitor_SMD:C_0603_1608Metric_Pad1.05x0.95mm_HandSolder,CBR06C249B5GAC ,,,,,,,,,,,,,,
L16,3.3 nH,Inductor_SMD:L_0402_1005Metric,LQG15HN3N3S02D,,,,,,,,,,,,,,
L18,4.7 nH,Inductor_SMD:L_0402_1005Metric,LQG15HN4N7S02D,,,,,,,,,,,,,,
C72,NC,Capacitor_SMD:C_0603_1608Metric_Pad1.05x0.95mm_HandSolder,,,,,,,,,,,,,,,
C77,1.8 pF,Capacitor_SMD:C_0603_1608Metric_Pad1.05x0.95mm_HandSolder,06035A1R8BAT2A,,,,,,,,,,,,,,
C82,56 pF,Capacitor_SMD:C_0603_1608Metric_Pad1.05x0.95mm_HandSolder,C0603X560J5GACAUTO,,,,,,,,,,,,,,
C74,2.1 pF,Capacitor_SMD:C_0603_1608Metric_Pad1.05x0.95mm_HandSolder,06035U2R1BAT2A,,,,,,,,,,,,,,
L13,"1,2 nH",Inductor_SMD:L_0402_1005Metric,MLG1005S1N2BTD25,,,,,,,,,,,,,,
C81,NC,Capacitor_SMD:C_0603_1608Metric_Pad1.05x0.95mm_HandSolder,,,,,,,,,,,,,,,
D6,RCLAMP0531T.TCT-RCLAMP0531T.TCT,RCLAMP0531T.TCT:RCLAMP0531TTCT,RCLAMP0531T.TCT,,,,ESD Suppressors / TVS Diodes,0.43,SEMTECH,947-RCLAMP0531T.TCT,https://www.mouser.com/Search/Refine.aspx?Keyword=947-RCLAMP0531T.TCT,,,,,,
L19,RF-IO,U.FL-R-SMT-1(60):UFLRSMT160,U.FL-R-SMT-1(60),,,,RF Connectors / Coaxial Connectors SMT MALE RECEPT AU,1.25,Hirose,798-UFLRSMT160,https://www.mouser.com/Search/Refine.aspx?Keyword=798-UFLRSMT160,,,,,,
FL3,AFS14A26-915.00-T3,AFS14A26-915.00-T3:AFS14A2691500T3,AFS14A26-915.00-T3,,,,"ABRACON - AFS14A26-915.00-T3 - SAW FILTER, 915MHZ, SMD-5",0.7,ABRACON,815-AFS14A26-915-T3,https://www.mouser.com/Search/Refine.aspx?Keyword=815-AFS14A26-915-T3,,,,,,
R52,0R,Resistor_SMD:R_0603_1608Metric_Pad1.05x0.95mm_HandSolder,603-RC0402FR-070RL,,,,,,,,,,,,,,
R51,100,Resistor_SMD:R_0603_1608Metric_Pad1.05x0.95mm_HandSolder,603-AC0402FR-07100RL,,,,,,,,,,,,,,
C64,56 pF,Capacitor_SMD:C_0603_1608Metric_Pad1.05x0.95mm_HandSolder,C0603X560J5GACAUTO,,,,,,,,,,,,,,
R50,100,Resistor_SMD:R_0603_1608Metric_Pad1.05x0.95mm_HandSolder,603-AC0402FR-07100RL,,,,,,,,,,,,,,
C62,56 pF,Capacitor_SMD:C_0603_1608Metric_Pad1.05x0.95mm_HandSolder,C0603X560J5GACAUTO,,,,,,,,,,,,,,
R48,100,Resistor_SMD:R_0603_1608Metric_Pad1.05x0.95mm_HandSolder,603-AC0402FR-07100RL,,,,,,,,,,,,,,
C61,56 pF,Capacitor_SMD:C_0603_1608Metric_Pad1.05x0.95mm_HandSolder,C0603X560J5GACAUTO,,,,,,,,,,,,,,
FB2,Ferrite_Bead,Diode_SMD:D_0402_1005Metric,BLM15PG100SN1D,,,,,,,,,,,,,,
R27,0R,Resistor_SMD:R_0603_1608Metric_Pad1.05x0.95mm_HandSolder,603-RC0402FR-070RL,,,,,,,,,,,,,,
IC9,XB3-24Z8UT-J,XB3-24Z8UT-J:XB324Z8UTJ,,,,,"Zigbee Modules (802.15.4) XBee3,2.4 Ghz ZB 3.0, U.FL Ant, TH MT",2.79,,,,,,,,,
Y1,ASTX-13-C-32.000MHz-I05-T,ASvTX-13-C-32.000MHz-I05-T:ASvTX13C32000MHzI05T,ASTX-13-C-32.000MHz-I15-T,,,,TCVCXO Oscillators,0.8,ABRACON,815-SVTX13C32I05T,https://www.mouser.com/Search/Refine.aspx?Keyword=815-SVTX13C32I05T,,,,,,
C16,10 nF,Capacitor_SMD:C_0603_1608Metric_Pad1.05x0.95mm_HandSolder,0603YD103KAT2A,,,,,,,,,,,,,,
C85,10 nF,Capacitor_SMD:C_0603_1608Metric_Pad1.05x0.95mm_HandSolder,0603YD103KAT2A,,,,,,,,,,,,,,
R28,NC,Resistor_SMD:R_0603_1608Metric_Pad1.05x0.95mm_HandSolder,,,,,,,,,,,,,,,
R22,100,Resistor_SMD:R_0603_1608Metric_Pad1.05x0.95mm_HandSolder,603-AC0402FR-07100RL,,,,,,,,,,,,,,
U3,LowDropRegulator,Package_TO_SOT_SMD:SOT-23-5,AP131-33WG-7/AP139-33WG-7 ,,,,,,,,,,,,,,
C3,100nF,Capacitor_SMD:C_0603_1608Metric_Pad1.05x0.95mm_HandSolder,0603ZD104KAT2A,,,,,,,,,,,,,,
C1,1uF,Capacitor_SMD:C_0603_1608Metric_Pad1.05x0.95mm_HandSolder,80-C0603C105K8PLR,,,,,,,,,,,,,,
U1,STTS751-0DP3F,STTS751-0DP3F:SON65P200X200X55-6N,STTS751-0DP3F,,,,Board Mount Temperature Sensors High-Accuracy 2.25V Digital Temp SNSR,0.55,STMicroelectronics,511-STTS751-0DP3F,https://www.mouser.com/Search/Refine.aspx?Keyword=511-STTS751-0DP3F,,,,,,
U2,SKY66420,skychips:SKY66420,SKY66420-11,,,,,,,,,,,,,,
IC10,DS3231SN#T&R,DS3231SN#T&R:SOIC127P1032X265-16N,,,,,"MAXIM INTEGRATED PRODUCTS - DS3231SN#T&R - RTC IC, Date Time Format (Day/Date/Month/Year hh:mm:ss), I2C, 2.3 V to 5.5 V supply, SOIC-16",2.65,Maxim Integrated,700-DS3231SN#T&R-,https://www.mouser.com/Search/Refine.aspx?Keyword=700-DS3231SN%23T%26R-,1904750,http://uk.rs-online.com/web/p/products/1904750,DS3231SN#T&R,,,
VBAT1,3001,3001:3001,3001,,,,Coin Cell Battery Holders TH COIN CELL BATTERY HOLDER 12mm,,Keystone Electronics,534-3001,https://www.mouser.com/Search/Refine.aspx?Keyword=534-3001,2197948,http://uk.rs-online.com/web/p/products/2197948,,http://www.alliedelec.com/keystone-electronics-3001/70182368/,70182368,
C86,100nF,Capacitor_SMD:C_0603_1608Metric_Pad1.05x0.95mm_HandSolder,0603ZD104KAT2A,,,,,,,,,,,,,,
IC4,TPS73133DBVTG4,TPS73133DBVTG4:SOT95P280X145-5N,TPS73133DBVTG4,,,,"TEXAS INSTRUMENTS - TPS73133DBVTG4 - V REG LDO 0.15A +3.3V, SMD, 73133",1.45,Texas Instruments,595-TPS73133DBVTG4,https://www.mouser.com/Search/Refine.aspx?Keyword=595-TPS73133DBVTG4,,,,,,
R23,220 Ohm,Capacitor_SMD:C_0603_1608Metric_Pad1.05x0.95mm_HandSolder,CRCW0603220RFKEBC,,,,,,,,,,,,,,
C87,1 uF 6.3V,Capacitor_SMD:C_0603_1608Metric_Pad1.05x0.95mm_HandSolder,80-C0603C105K8PLR,,,,,,,,,,,,,,
R59,NC,Resistor_SMD:R_0603_1608Metric_Pad1.05x0.95mm_HandSolder,603-RC0402FR-070RL,,,,,,,,,,,,,,
C88,NC,Capacitor_SMD:C_0603_1608Metric_Pad1.05x0.95mm_HandSolder,,,,,,,,,,,,,,,
L20,NC,Inductor_SMD:L_0402_1005Metric,LQG15HN4N7S02D,,,,,,,,,,,,,,
C89,NC,Capacitor_SMD:C_0603_1608Metric_Pad1.05x0.95mm_HandSolder,,,,,,,,,,,,,,,
C90,NC,Capacitor_SMD:C_0603_1608Metric_Pad1.05x0.95mm_HandSolder,,,,,,,,,,,,,,,
D8,RCLAMP0531T.TCT-RCLAMP0531T.TCT,RCLAMP0531T.TCT:RCLAMP0531TTCT,RCLAMP0531T.TCT,,,,ESD Suppressors / TVS Diodes,0.43,SEMTECH,947-RCLAMP0531T.TCT,https://www.mouser.com/Search/Refine.aspx?Keyword=947-RCLAMP0531T.TCT,,,,,,
L21,RFI,U.FL-R-SMT-1(60):UFLRSMT160,U.FL-R-SMT-1(60),,,,RF Connectors / Coaxial Connectors SMT MALE RECEPT AU,1.25,Hirose,798-UFLRSMT160,https://www.mouser.com/Search/Refine.aspx?Keyword=798-UFLRSMT160,,,,,,
J1,Conn_01x04_Female,Connector_PinHeader_2.54mm:PinHeader_2x02_P2.54mm_Vertical,,,,,,,,,,,,,,,
J2,Conn_02x20_Odd_Even,Connector_PinHeader_2.54mm:PinHeader_2x20_P2.54mm_Vertical,,,,,,,,,,,,,,,
J3,M20-9970346,HDRV6W64P254_2X3_1524X508X1104P,,,,,"HARWIN Pin Header M20, 6 Way, 2.54mm Pitch, 2 Row, Straight, Through Hole",11.04,Harwin,855-M20-9970346,https://www.mouser.com/Search/Refine.aspx?Keyword=855-M20-9970346,,,M20-9970346,,,M20-9970346
