(module LOGO (layer F.Cu)
  (at 0 0)
 (fp_text reference "G***" (at 0 0) (layer F.SilkS) hide
  (effects (font (thickness 0.3)))
  )
  (fp_text value "LOGO" (at 0.75 0) (layer F.SilkS) hide
  (effects (font (thickness 0.3)))
  )
  (fp_poly (pts (xy -2.540000 -1.794718) (xy -2.508432 -1.648250) (xy -2.425678 -1.515801) (xy -2.323474 -1.433900) (xy -2.166419 -1.386557) (xy -2.011685 -1.397555) (xy -1.874313 -1.458763) (xy -1.769347 -1.562051)
     (xy -1.711829 -1.699290) (xy -1.705429 -1.767931) (xy -1.698597 -1.849315) (xy -1.662961 -1.881431) (xy -1.585686 -1.886857) (xy -1.489534 -1.874386) (xy -1.423402 -1.844287) (xy -1.422400 -1.843314)
     (xy -1.412477 -1.814964) (xy -1.404029 -1.748498) (xy -1.396970 -1.639723) (xy -1.391213 -1.484443) (xy -1.386669 -1.278465) (xy -1.383250 -1.017595) (xy -1.380870 -0.697636) (xy -1.379441 -0.314396)
     (xy -1.378875 0.136321) (xy -1.378857 0.241838) (xy -1.378928 0.678281) (xy -1.379270 1.047838) (xy -1.380073 1.356195) (xy -1.381531 1.609036) (xy -1.383835 1.812047) (xy -1.387176 1.970912)
     (xy -1.391747 2.091318) (xy -1.397740 2.178950) (xy -1.405347 2.239492) (xy -1.414759 2.278630) (xy -1.426169 2.302050) (xy -1.439768 2.315436) (xy -1.449043 2.321009) (xy -1.503387 2.330146)
     (xy -1.629345 2.338043) (xy -1.825972 2.344682) (xy -2.092320 2.350049) (xy -2.427445 2.354126) (xy -2.830398 2.356896) (xy -3.300234 2.358344) (xy -3.603600 2.358572) (xy -4.057275 2.358314)
     (xy -4.443510 2.357462) (xy -4.767439 2.355897) (xy -5.034192 2.353498) (xy -5.248900 2.350147) (xy -5.416696 2.345724) (xy -5.542710 2.340110) (xy -5.632074 2.333185) (xy -5.689918 2.324830)
     (xy -5.721376 2.314926) (xy -5.729002 2.309133) (xy -5.738443 2.274388) (xy -5.746264 2.192678) (xy -5.752515 2.060667) (xy -5.757246 1.875023) (xy -5.760506 1.632413) (xy -5.762346 1.329503)
     (xy -5.762815 0.962961) (xy -5.761963 0.529452) (xy -5.760659 0.195490) (xy -5.753857 -1.302615) (xy -5.463382 -1.302615) (xy -5.455811 -1.279071) (xy -5.448397 -1.228171) (xy -5.442016 -1.114154)
     (xy -5.436667 -0.946469) (xy -5.432351 -0.734563) (xy -5.429067 -0.487885) (xy -5.426816 -0.215882) (xy -5.425597 0.071998) (xy -5.425411 0.366307) (xy -5.426257 0.657597) (xy -5.428136 0.936420)
     (xy -5.431047 1.193329) (xy -5.434990 1.418875) (xy -5.439966 1.603611) (xy -5.445975 1.738088) (xy -5.453016 1.812860) (xy -5.455811 1.823357) (xy -5.463337 1.848782) (xy -5.449735 1.866358)
     (xy -5.404557 1.877519) (xy -5.317353 1.883700) (xy -5.177675 1.886333) (xy -4.993168 1.886857) (xy -4.813355 1.884853) (xy -4.662835 1.879357) (xy -4.554777 1.871142) (xy -4.502348 1.860984)
     (xy -4.499429 1.857829) (xy -4.522186 1.809939) (xy -4.544786 1.783463) (xy -4.568573 1.721218) (xy -4.586869 1.588858) (xy -4.599405 1.388648) (xy -4.602598 1.295420) (xy -4.609363 1.051813)
     (xy -4.611223 0.876866) (xy -4.604093 0.766670) (xy -4.583890 0.717319) (xy -4.546528 0.724904) (xy -4.487924 0.785519) (xy -4.403994 0.895257) (xy -4.313583 1.018915) (xy -4.158584 1.231806)
     (xy -4.041842 1.395328) (xy -3.958054 1.518152) (xy -3.901915 1.608954) (xy -3.868121 1.676406) (xy -3.851369 1.729182) (xy -3.846354 1.775954) (xy -3.846286 1.783064) (xy -3.846286 1.886857)
     (xy -2.748899 1.886857) (xy -2.780311 1.849510) (xy -2.560690 1.849510) (xy -2.546516 1.867320) (xy -2.499689 1.878370) (xy -2.409465 1.884248) (xy -2.265101 1.886539) (xy -2.122715 1.886857)
     (xy -1.933050 1.886159) (xy -1.805207 1.883008) (xy -1.728444 1.875817) (xy -1.692016 1.863003) (xy -1.685180 1.842977) (xy -1.692475 1.823357) (xy -1.700554 1.772279) (xy -1.708540 1.658067)
     (xy -1.716099 1.490160) (xy -1.722898 1.277994) (xy -1.728605 1.031006) (xy -1.732885 0.758636) (xy -1.734128 0.644071) (xy -1.744685 -0.471714) (xy -2.161762 -0.471714) (xy -2.340204 -0.471169)
     (xy -2.457226 -0.468115) (xy -2.523980 -0.460425) (xy -2.551616 -0.445972) (xy -2.551285 -0.422629) (xy -2.540204 -0.399524) (xy -2.530295 -0.344636) (xy -2.522483 -0.228598) (xy -2.516704 -0.062796)
     (xy -2.512891 0.141383) (xy -2.510980 0.372549) (xy -2.510905 0.619316) (xy -2.512601 0.870296) (xy -2.516002 1.114101) (xy -2.521044 1.339343) (xy -2.527660 1.534635) (xy -2.535787 1.688589)
     (xy -2.545357 1.789817) (xy -2.552954 1.823357) (xy -2.560690 1.849510) (xy -2.780311 1.849510) (xy -2.909127 1.696357) (xy -2.978380 1.609838) (xy -3.080990 1.476151) (xy -3.208072 1.307142)
     (xy -3.350743 1.114656) (xy -3.500120 0.910538) (xy -3.549171 0.842923) (xy -4.028987 0.179989) (xy -3.587803 -0.372648) (xy -3.434992 -0.561664) (xy -3.281956 -0.746703) (xy -3.140248 -0.914097)
     (xy -3.021422 -1.050179) (xy -2.944231 -1.133929) (xy -2.741843 -1.342571) (xy -3.798513 -1.342571) (xy -3.839856 -1.206500) (xy -3.876410 -1.130832) (xy -3.949761 -1.012441) (xy -4.050838 -0.864840)
     (xy -4.170570 -0.701543) (xy -4.235671 -0.616857) (xy -4.590143 -0.163286) (xy -4.600288 -0.624524) (xy -4.602308 -0.847738) (xy -4.596419 -1.011661) (xy -4.581665 -1.129242) (xy -4.557090 -1.213429)
     (xy -4.556783 -1.214167) (xy -4.503132 -1.342571) (xy -4.995020 -1.342571) (xy -5.191965 -1.341935) (xy -5.326809 -1.339063) (xy -5.410016 -1.332514) (xy -5.452052 -1.320845) (xy -5.463382 -1.302615)
     (xy -5.753857 -1.302615) (xy -5.751286 -1.868714) (xy -2.540000 -1.887612) (xy -2.540000 -1.794718) )(layer F.SilkS) (width  0.010000)
  )
  (fp_poly (pts (xy 0.472074 -1.356244) (xy 0.790185 -1.276635) (xy 1.017848 -1.178349) (xy 1.202238 -1.084912) (xy 1.136333 -0.980834) (xy 1.077047 -0.890686) (xy 0.997825 -0.774469) (xy 0.950267 -0.706293)
     (xy 0.830107 -0.535830) (xy 0.750696 -0.610212) (xy 0.592509 -0.712987) (xy 0.410113 -0.759903) (xy 0.221113 -0.752860) (xy 0.043110 -0.693757) (xy -0.106292 -0.584495) (xy -0.164929 -0.511400)
     (xy -0.264225 -0.308492) (xy -0.327898 -0.067402) (xy -0.356115 0.194114) (xy -0.349046 0.458299) (xy -0.306858 0.707397) (xy -0.229722 0.923652) (xy -0.150088 1.052286) (xy 0.008906 1.200587)
     (xy 0.192861 1.284133) (xy 0.391482 1.301603) (xy 0.594472 1.251673) (xy 0.745943 1.167406) (xy 0.908423 1.052879) (xy 1.029340 1.243082) (xy 1.136444 1.416407) (xy 1.204998 1.538504)
     (xy 1.233098 1.605933) (xy 1.233714 1.611718) (xy 1.202326 1.642975) (xy 1.119822 1.689987) (xy 1.003693 1.744852) (xy 0.871430 1.799664) (xy 0.740524 1.846522) (xy 0.664272 1.869017)
     (xy 0.338440 1.916763) (xy 0.005907 1.893116) (xy -0.094942 1.871915) (xy -0.371483 1.769047) (xy -0.613439 1.606608) (xy -0.816581 1.390941) (xy -0.976679 1.128395) (xy -1.089505 0.825314)
     (xy -1.150829 0.488043) (xy -1.161143 0.272143) (xy -1.133484 -0.091524) (xy -1.049208 -0.412389) (xy -0.906369 -0.695379) (xy -0.703019 -0.945420) (xy -0.665401 -0.982070) (xy -0.409491 -1.178547)
     (xy -0.131871 -1.306721) (xy 0.163353 -1.366113) (xy 0.472074 -1.356244) )(layer F.SilkS) (width  0.010000)
  )
  (fp_poly (pts (xy 2.611284 -0.510608) (xy 2.735787 -0.490959) (xy 2.849636 -0.451255) (xy 2.933078 -0.411247) (xy 3.063804 -0.334208) (xy 3.151805 -0.250476) (xy 3.224265 -0.133877) (xy 3.227325 -0.127965)
     (xy 3.256858 -0.067975) (xy 3.279654 -0.010257) (xy 3.296864 0.055748) (xy 3.309638 0.140597) (xy 3.319127 0.254850) (xy 3.326482 0.409064) (xy 3.332853 0.613797) (xy 3.339390 0.879606)
     (xy 3.340007 0.906080) (xy 3.346850 1.150815) (xy 3.355259 1.373612) (xy 3.364640 1.563440) (xy 3.374403 1.709270) (xy 3.383953 1.800071) (xy 3.389246 1.823357) (xy 3.396666 1.851437)
     (xy 3.380110 1.869780) (xy 3.328023 1.880430) (xy 3.228853 1.885432) (xy 3.071047 1.886830) (xy 3.030342 1.886857) (xy 2.857599 1.885825) (xy 2.744058 1.881143) (xy 2.676363 1.870429)
     (xy 2.641156 1.851304) (xy 2.625080 1.821388) (xy 2.623085 1.814286) (xy 2.608253 1.763804) (xy 2.586388 1.748044) (xy 2.538281 1.767277) (xy 2.453337 1.816703) (xy 2.295575 1.878069)
     (xy 2.103734 1.906854) (xy 1.909928 1.900226) (xy 1.795382 1.874701) (xy 1.604181 1.792586) (xy 1.462222 1.681091) (xy 1.350156 1.527924) (xy 1.275460 1.343788) (xy 1.246503 1.139136)
     (xy 1.247311 1.129769) (xy 1.959428 1.129769) (xy 1.991109 1.242886) (xy 2.074580 1.326529) (xy 2.192479 1.373247) (xy 2.327449 1.375589) (xy 2.442600 1.337139) (xy 2.514609 1.290166)
     (xy 2.554857 1.230772) (xy 2.572257 1.137774) (xy 2.575730 1.020710) (xy 2.576286 0.825849) (xy 2.359068 0.841561) (xy 2.172993 0.876231) (xy 2.042314 0.947412) (xy 1.971429 1.051931)
     (xy 1.959428 1.129769) (xy 1.247311 1.129769) (xy 1.263819 0.938623) (xy 1.327943 0.766904) (xy 1.333465 0.757774) (xy 1.470683 0.602866) (xy 1.665791 0.478725) (xy 1.909291 0.389180)
     (xy 2.191685 0.338061) (xy 2.401395 0.327202) (xy 2.607505 0.326571) (xy 2.573885 0.208643) (xy 2.532589 0.112915) (xy 2.479778 0.046114) (xy 2.478768 0.045357) (xy 2.384293 0.010905)
     (xy 2.244817 0.002002) (xy 2.082908 0.017718) (xy 1.921131 0.057124) (xy 1.885303 0.069824) (xy 1.701543 0.139647) (xy 1.671045 0.060752) (xy 1.638597 -0.021722) (xy 1.593790 -0.133957)
     (xy 1.577385 -0.174726) (xy 1.545377 -0.275328) (xy 1.539556 -0.344438) (xy 1.546326 -0.358857) (xy 1.613672 -0.390356) (xy 1.735167 -0.424027) (xy 1.892586 -0.456666) (xy 2.067707 -0.485072)
     (xy 2.242306 -0.506040) (xy 2.398160 -0.516368) (xy 2.445324 -0.516872) (xy 2.611284 -0.510608) )(layer F.SilkS) (width  0.010000)
  )
  (fp_poly (pts (xy 5.806580 -0.009071) (xy 5.807495 0.320510) (xy 5.809749 0.631477) (xy 5.813178 0.915446) (xy 5.817621 1.164036) (xy 5.822916 1.368865) (xy 5.828899 1.521553) (xy 5.835410 1.613716)
     (xy 5.838380 1.632857) (xy 5.863078 1.733923) (xy 5.881752 1.809783) (xy 5.882872 1.814286) (xy 5.878082 1.839038) (xy 5.841699 1.856148) (xy 5.762529 1.867540) (xy 5.629377 1.875138)
     (xy 5.506357 1.879013) (xy 5.116285 1.889312) (xy 5.116285 1.710537) (xy 4.954054 1.801210) (xy 4.743027 1.881788) (xy 4.509538 1.909291) (xy 4.283250 1.880797) (xy 4.249068 1.870644)
     (xy 4.075050 1.781581) (xy 3.910153 1.638837) (xy 3.772425 1.460752) (xy 3.694825 1.307462) (xy 3.651767 1.173151) (xy 3.626770 1.027080) (xy 3.616115 0.843817) (xy 3.615289 0.779423)
     (xy 4.390830 0.779423) (xy 4.411216 0.965062) (xy 4.454190 1.126237) (xy 4.519232 1.246665) (xy 4.583167 1.300950) (xy 4.700302 1.327122) (xy 4.841788 1.313589) (xy 4.974012 1.264309)
     (xy 4.993123 1.252679) (xy 5.027074 1.227767) (xy 5.050784 1.196854) (xy 5.066089 1.147670) (xy 5.074827 1.067946) (xy 5.078835 0.945411) (xy 5.079951 0.767796) (xy 5.080000 0.672507)
     (xy 5.079435 0.467174) (xy 5.076604 0.322132) (xy 5.069796 0.225101) (xy 5.057305 0.163802) (xy 5.037422 0.125957) (xy 5.008440 0.099285) (xy 4.999355 0.092772) (xy 4.881223 0.044639)
     (xy 4.743772 0.037180) (xy 4.616793 0.068743) (xy 4.545517 0.117929) (xy 4.470374 0.238574) (xy 4.419890 0.399895) (xy 4.393548 0.585606) (xy 4.390830 0.779423) (xy 3.615289 0.779423)
     (xy 3.615065 0.762000) (xy 3.636834 0.417335) (xy 3.703248 0.122386) (xy 3.810941 -0.120205) (xy 3.956547 -0.307795) (xy 4.136701 -0.437742) (xy 4.348039 -0.507404) (xy 4.587194 -0.514137)
     (xy 4.850802 -0.455299) (xy 5.056277 -0.369654) (xy 5.070364 -0.394847) (xy 5.078555 -0.477724) (xy 5.081438 -0.603689) (xy 5.079604 -0.758145) (xy 5.073643 -0.926496) (xy 5.064144 -1.094144)
     (xy 5.051697 -1.246494) (xy 5.036891 -1.368949) (xy 5.020318 -1.446912) (xy 5.012057 -1.464067) (xy 4.996209 -1.489644) (xy 5.006188 -1.506719) (xy 5.052515 -1.516986) (xy 5.145710 -1.522141)
     (xy 5.296294 -1.523880) (xy 5.383985 -1.524000) (xy 5.805714 -1.524000) (xy 5.806580 -0.009071) )(layer F.SilkS) (width  0.010000)
  )
)
