(module LOGO (layer F.Cu)
  (at 0 0)
 (fp_text reference "G***" (at 0 0) (layer F.SilkS) hide
  (effects (font (thickness 0.3)))
  )
  (fp_text value "LOGO" (at 0.75 0) (layer F.SilkS) hide
  (effects (font (thickness 0.3)))
  )
  (fp_poly (pts (xy -3.936612 2.667783) (xy -3.918857 2.703285) (xy -3.903714 2.750482) (xy -3.853801 2.741855) (xy -3.793994 2.702131) (xy -3.670891 2.650940) (xy -3.533524 2.659929) (xy -3.403794 2.726361)
     (xy -3.371781 2.754923) (xy -3.318611 2.813209) (xy -3.286981 2.870354) (xy -3.271341 2.947159) (xy -3.266138 3.064424) (xy -3.265715 3.152358) (xy -3.272846 3.351186) (xy -3.297745 3.492360)
     (xy -3.345668 3.589711) (xy -3.421871 3.657070) (xy -3.466726 3.681251) (xy -3.560652 3.722382) (xy -3.626747 3.732059) (xy -3.698106 3.708934) (xy -3.776107 3.668654) (xy -3.904425 3.599880)
     (xy -3.913381 4.031511) (xy -3.914577 4.198637) (xy -3.911228 4.335439) (xy -3.903985 4.427898) (xy -3.893500 4.461990) (xy -3.893383 4.461988) (xy -3.844669 4.441261) (xy -3.793994 4.407560)
     (xy -3.710493 4.371504) (xy -3.600551 4.354486) (xy -3.588576 4.354285) (xy -3.479136 4.369827) (xy -3.393744 4.428317) (xy -3.359654 4.465927) (xy -3.319701 4.517350) (xy -3.293038 4.569084)
     (xy -3.276989 4.636639) (xy -3.268875 4.735529) (xy -3.266019 4.881266) (xy -3.265715 5.010212) (xy -3.265715 5.442857) (xy -3.447143 5.442857) (xy -3.447143 5.061857) (xy -3.448772 4.886331)
     (xy -3.455316 4.767811) (xy -3.469258 4.690772) (xy -3.493082 4.639690) (xy -3.519715 4.608285) (xy -3.592074 4.551646) (xy -3.669115 4.539232) (xy -3.760220 4.557428) (xy -3.828578 4.596059)
     (xy -3.875828 4.675122) (xy -3.904597 4.803602) (xy -3.917515 4.990486) (xy -3.918857 5.099850) (xy -3.919495 5.259069) (xy -3.923812 5.359344) (xy -3.935411 5.414303) (xy -3.957897 5.437572)
     (xy -3.994873 5.442779) (xy -4.009572 5.442857) (xy -4.100286 5.442857) (xy -4.100286 4.481285) (xy -3.592286 4.481285) (xy -3.574143 4.499428) (xy -3.556000 4.481285) (xy -3.574143 4.463143)
     (xy -3.592286 4.481285) (xy -4.100286 4.481285) (xy -4.100286 4.408714) (xy -4.027715 4.408714) (xy -4.009572 4.426857) (xy -3.991429 4.408714) (xy -4.009572 4.390571) (xy -4.027715 4.408714)
     (xy -4.100286 4.408714) (xy -4.100286 3.537857) (xy -3.991429 3.537857) (xy -3.973286 3.556000) (xy -3.955143 3.537857) (xy -3.973286 3.519714) (xy -3.991429 3.537857) (xy -4.100286 3.537857)
     (xy -4.100286 3.247385) (xy -3.893586 3.247385) (xy -3.880849 3.374150) (xy -3.849469 3.461063) (xy -3.845637 3.466067) (xy -3.765615 3.512522) (xy -3.658877 3.518291) (xy -3.557036 3.485871)
     (xy -3.503629 3.439069) (xy -3.460880 3.333213) (xy -3.445243 3.196160) (xy -3.455867 3.056308) (xy -3.491898 2.942053) (xy -3.519715 2.902857) (xy -3.624646 2.840346) (xy -3.736133 2.842476)
     (xy -3.828369 2.903106) (xy -3.866502 2.984349) (xy -3.888522 3.108280) (xy -3.893586 3.247385) (xy -4.100286 3.247385) (xy -4.100286 2.648857) (xy -4.009572 2.648857) (xy -3.936612 2.667783) )(layer F.SilkS) (width  0.010000)
  )
  (fp_poly (pts (xy -2.602330 4.362052) (xy -2.472401 4.376224) (xy -2.378887 4.404101) (xy -2.315857 4.456297) (xy -2.277384 4.543428) (xy -2.257536 4.676109) (xy -2.250385 4.864956) (xy -2.249715 4.993305)
     (xy -2.250910 5.183496) (xy -2.255435 5.312339) (xy -2.264700 5.391031) (xy -2.280112 5.430769) (xy -2.303082 5.442752) (xy -2.306285 5.442857) (xy -2.343309 5.424047) (xy -2.335605 5.397500)
     (xy -2.330810 5.375603) (xy -2.369749 5.401943) (xy -2.416769 5.432303) (xy -2.430685 5.408133) (xy -2.431143 5.390814) (xy -2.437333 5.351179) (xy -2.468841 5.357882) (xy -2.511788 5.386371)
     (xy -2.640056 5.434427) (xy -2.789984 5.424145) (xy -2.928929 5.364607) (xy -3.026759 5.267760) (xy -3.074735 5.142188) (xy -3.071536 5.097180) (xy -2.898173 5.097180) (xy -2.889578 5.134838)
     (xy -2.830875 5.197017) (xy -2.727965 5.233854) (xy -2.605953 5.241521) (xy -2.489943 5.216190) (xy -2.458358 5.200591) (xy -2.438843 5.156587) (xy -2.431143 5.077858) (xy -2.434804 5.016338)
     (xy -2.457825 4.984630) (xy -2.518264 4.972857) (xy -2.626272 4.971143) (xy -2.777605 4.985981) (xy -2.869581 5.028828) (xy -2.898173 5.097180) (xy -3.071536 5.097180) (xy -3.065489 5.012103)
     (xy -3.048401 4.971891) (xy -2.966272 4.887526) (xy -2.831909 4.825291) (xy -2.664170 4.792736) (xy -2.593295 4.789714) (xy -2.491830 4.787337) (xy -2.444730 4.770992) (xy -2.433787 4.726863)
     (xy -2.437916 4.671785) (xy -2.449442 4.600689) (xy -2.479606 4.564293) (xy -2.548726 4.548536) (xy -2.624462 4.542682) (xy -2.737260 4.543549) (xy -2.822943 4.558514) (xy -2.845740 4.569768)
     (xy -2.897804 4.583240) (xy -2.952938 4.540519) (xy -2.990050 4.490652) (xy -2.978401 4.454321) (xy -2.965659 4.445000) (xy -2.467429 4.445000) (xy -2.449286 4.463143) (xy -2.431143 4.445000)
     (xy -2.449286 4.426857) (xy -2.467429 4.445000) (xy -2.965659 4.445000) (xy -2.917315 4.409636) (xy -2.833576 4.371361) (xy -2.724105 4.357761) (xy -2.602330 4.362052) )(layer F.SilkS) (width  0.010000)
  )
  (fp_poly (pts (xy -1.795755 4.373211) (xy -1.778000 4.408714) (xy -1.766731 4.457101) (xy -1.757266 4.463143) (xy -1.717901 4.440565) (xy -1.682102 4.408714) (xy -1.605780 4.371743) (xy -1.493594 4.356127)
     (xy -1.379568 4.363668) (xy -1.307729 4.388911) (xy -1.276048 4.421560) (xy -1.295065 4.465433) (xy -1.319904 4.494428) (xy -1.393689 4.545539) (xy -1.494752 4.548540) (xy -1.504876 4.546987)
     (xy -1.612153 4.547359) (xy -1.695250 4.598233) (xy -1.701344 4.604201) (xy -1.736146 4.646405) (xy -1.758571 4.699787) (xy -1.771259 4.780111) (xy -1.776852 4.903142) (xy -1.778000 5.061857)
     (xy -1.778000 5.442857) (xy -1.959429 5.442857) (xy -1.959429 4.354285) (xy -1.868715 4.354285) (xy -1.795755 4.373211) )(layer F.SilkS) (width  0.010000)
  )
  (fp_poly (pts (xy -0.399143 5.442857) (xy -0.489857 5.442857) (xy -0.562817 5.423931) (xy -0.580572 5.388428) (xy -0.598015 5.339843) (xy -0.652710 5.349700) (xy -0.709708 5.387274) (xy -0.830375 5.439145)
     (xy -0.959602 5.419190) (xy -1.096588 5.327552) (xy -1.107791 5.317192) (xy -1.241035 5.191527) (xy -1.230941 4.928795) (xy -1.041017 4.928795) (xy -1.021956 5.062389) (xy -0.985281 5.161959)
     (xy -0.975224 5.176125) (xy -0.904876 5.213665) (xy -0.803093 5.223304) (xy -0.705300 5.205364) (xy -0.655223 5.173220) (xy -0.619427 5.091180) (xy -0.598035 4.966653) (xy -0.592696 4.828595)
     (xy -0.605063 4.705961) (xy -0.625090 4.644892) (xy -0.702938 4.562009) (xy -0.804253 4.534333) (xy -0.907817 4.559886) (xy -0.992415 4.636691) (xy -1.016207 4.681356) (xy -1.039942 4.791633)
     (xy -1.041017 4.928795) (xy -1.230941 4.928795) (xy -1.228303 4.860159) (xy -1.220980 4.702304) (xy -1.210260 4.599243) (xy -1.190983 4.533217) (xy -1.179941 4.517571) (xy -1.016000 4.517571)
     (xy -0.997858 4.535714) (xy -0.979715 4.517571) (xy -0.997858 4.499428) (xy -1.016000 4.517571) (xy -1.179941 4.517571) (xy -1.157989 4.486469) (xy -1.106715 4.441718) (xy -0.975542 4.372614)
     (xy -0.837236 4.358177) (xy -0.715432 4.400419) (xy -0.705436 4.407560) (xy -0.640684 4.449327) (xy -0.607786 4.461988) (xy -0.594783 4.429248) (xy -0.585162 4.341587) (xy -0.580692 4.216636)
     (xy -0.580572 4.191000) (xy -0.579441 4.052576) (xy -0.572653 3.971436) (xy -0.555111 3.932292) (xy -0.521719 3.919857) (xy -0.489857 3.918857) (xy -0.399143 3.918857) (xy -0.399143 5.442857) )(layer F.SilkS) (width  0.010000)
  )
  (fp_poly (pts (xy 1.213482 4.365717) (xy 1.233714 4.386174) (xy 1.223069 4.430318) (xy 1.193771 4.530435) (xy 1.149771 4.673534) (xy 1.095024 4.846628) (xy 1.068059 4.930459) (xy 1.002982 5.129175)
     (xy 0.954148 5.268830) (xy 0.916452 5.359721) (xy 0.884789 5.412147) (xy 0.854054 5.436408) (xy 0.819142 5.442801) (xy 0.814059 5.442857) (xy 0.747039 5.428379) (xy 0.725714 5.401522)
     (xy 0.715895 5.347359) (xy 0.689917 5.250018) (xy 0.652997 5.125635) (xy 0.610350 4.990344) (xy 0.567193 4.860280) (xy 0.528743 4.751578) (xy 0.500216 4.680375) (xy 0.486855 4.662714)
     (xy 0.412434 4.912498) (xy 0.354662 5.101200) (xy 0.310026 5.237451) (xy 0.275015 5.329882) (xy 0.246114 5.387126) (xy 0.219813 5.417814) (xy 0.192597 5.430578) (xy 0.173264 5.433312)
     (xy 0.137324 5.430214) (xy 0.106333 5.407389) (xy 0.074753 5.353954) (xy 0.037044 5.259027) (xy -0.012330 5.111724) (xy -0.048873 4.996801) (xy -0.104760 4.819164) (xy -0.155156 4.658439)
     (xy -0.194700 4.531762) (xy -0.218031 4.456266) (xy -0.218697 4.454071) (xy -0.233325 4.383226) (xy -0.205208 4.357493) (xy -0.146349 4.354285) (xy -0.100361 4.357444) (xy -0.066123 4.375132)
     (xy -0.036992 4.419666) (xy -0.006327 4.503361) (xy 0.032514 4.638535) (xy 0.058277 4.733745) (xy 0.101106 4.885102) (xy 0.138860 5.004052) (xy 0.167020 5.077235) (xy 0.179945 5.093579)
     (xy 0.198422 5.052666) (xy 0.232543 4.958060) (xy 0.276809 4.825490) (xy 0.282431 4.807857) (xy 0.362857 4.807857) (xy 0.381000 4.826000) (xy 0.399142 4.807857) (xy 0.381000 4.789714)
     (xy 0.362857 4.807857) (xy 0.282431 4.807857) (xy 0.309427 4.723191) (xy 0.363924 4.557551) (xy 0.406919 4.450426) (xy 0.444511 4.389927) (xy 0.482798 4.364164) (xy 0.494964 4.361483)
     (xy 0.530646 4.364085) (xy 0.562004 4.390974) (xy 0.594997 4.453497) (xy 0.635587 4.563001) (xy 0.689735 4.730831) (xy 0.690825 4.734310) (xy 0.740791 4.884896) (xy 0.785260 5.002540)
     (xy 0.819049 5.074546) (xy 0.835932 5.089969) (xy 0.856150 5.042853) (xy 0.885906 4.945309) (xy 0.919015 4.817758) (xy 0.921388 4.807857) (xy 0.969277 4.617560) (xy 1.009682 4.487877)
     (xy 1.047987 4.407999) (xy 1.089578 4.367119) (xy 1.139841 4.354428) (xy 1.147402 4.354285) (xy 1.213482 4.365717) )(layer F.SilkS) (width  0.010000)
  )
  (fp_poly (pts (xy 1.831649 4.364432) (xy 1.949012 4.392377) (xy 2.024171 4.430370) (xy 2.077485 4.490997) (xy 2.112333 4.585435) (xy 2.132095 4.724863) (xy 2.140150 4.920457) (xy 2.140857 5.026872)
     (xy 2.140857 5.442044) (xy 2.050142 5.434536) (xy 1.981864 5.412912) (xy 1.959428 5.380514) (xy 1.939446 5.337844) (xy 1.890516 5.350530) (xy 1.850571 5.388428) (xy 1.773775 5.430528)
     (xy 1.659700 5.437997) (xy 1.534761 5.410989) (xy 1.479555 5.386295) (xy 1.365778 5.292423) (xy 1.312256 5.162427) (xy 1.306285 5.084977) (xy 1.315207 5.048907) (xy 1.492930 5.048907)
     (xy 1.493713 5.119684) (xy 1.535930 5.192681) (xy 1.622143 5.235322) (xy 1.729470 5.245422) (xy 1.835027 5.220801) (xy 1.915441 5.159920) (xy 1.949789 5.076329) (xy 1.951726 5.027344)
     (xy 1.936812 4.986494) (xy 1.895550 4.966980) (xy 1.809766 4.963518) (xy 1.741714 4.966299) (xy 1.603693 4.978705) (xy 1.525102 5.003559) (xy 1.492930 5.048907) (xy 1.315207 5.048907)
     (xy 1.338015 4.956703) (xy 1.341732 4.953000) (xy 1.415142 4.953000) (xy 1.433285 4.971143) (xy 1.451428 4.953000) (xy 1.433285 4.934857) (xy 1.415142 4.953000) (xy 1.341732 4.953000)
     (xy 1.431440 4.863645) (xy 1.583914 4.807452) (xy 1.780362 4.789714) (xy 1.887443 4.786383) (xy 1.940543 4.770646) (xy 1.958153 4.733884) (xy 1.959428 4.706257) (xy 1.941504 4.620956)
     (xy 1.915885 4.579257) (xy 1.854576 4.552126) (xy 1.757232 4.538327) (xy 1.652931 4.538459) (xy 1.570749 4.553116) (xy 1.542392 4.571596) (xy 1.498430 4.580735) (xy 1.428029 4.547076)
     (xy 1.335842 4.486673) (xy 1.342846 4.481285) (xy 1.415142 4.481285) (xy 1.433285 4.499428) (xy 1.451428 4.481285) (xy 1.433285 4.463143) (xy 1.415142 4.481285) (xy 1.342846 4.481285)
     (xy 1.420850 4.421286) (xy 1.526604 4.375334) (xy 1.672777 4.355877) (xy 1.831649 4.364432) )(layer F.SilkS) (width  0.010000)
  )
  (fp_poly (pts (xy 2.585076 4.362954) (xy 2.603668 4.393751) (xy 2.599449 4.408714) (xy 2.595274 4.455718) (xy 2.637751 4.449257) (xy 2.701149 4.407560) (xy 2.801075 4.366265) (xy 2.924901 4.356768)
     (xy 3.032700 4.381224) (xy 3.046557 4.388911) (xy 3.072743 4.434720) (xy 3.047865 4.488393) (xy 2.989196 4.533364) (xy 2.914009 4.553068) (xy 2.879357 4.549270) (xy 2.774657 4.554401)
     (xy 2.703021 4.586979) (xy 2.663378 4.616433) (xy 2.637417 4.652364) (xy 2.622247 4.709391) (xy 2.614979 4.802133) (xy 2.612723 4.945210) (xy 2.612571 5.044550) (xy 2.612571 5.442857)
     (xy 2.394857 5.442857) (xy 2.394857 4.354285) (xy 2.507596 4.354285) (xy 2.585076 4.362954) )(layer F.SilkS) (width  0.010000)
  )
  (fp_poly (pts (xy 3.694809 4.363496) (xy 3.781298 4.401625) (xy 3.868057 4.477657) (xy 3.943718 4.563142) (xy 3.980190 4.642922) (xy 3.991098 4.751375) (xy 3.991428 4.788947) (xy 3.991428 4.976865)
     (xy 3.664836 4.964932) (xy 3.509976 4.960345) (xy 3.413803 4.962090) (xy 3.362531 4.972738) (xy 3.342373 4.994857) (xy 3.339419 5.025571) (xy 3.372381 5.134849) (xy 3.454989 5.210383)
     (xy 3.568807 5.243565) (xy 3.695402 5.225787) (xy 3.732933 5.209324) (xy 3.815578 5.176282) (xy 3.874459 5.185816) (xy 3.901449 5.203050) (xy 3.943881 5.255825) (xy 3.921747 5.310097)
     (xy 3.832042 5.371490) (xy 3.803703 5.386130) (xy 3.650767 5.434466) (xy 3.499106 5.419420) (xy 3.367747 5.361876) (xy 3.261648 5.283631) (xy 3.259016 5.279571) (xy 3.846285 5.279571)
     (xy 3.864428 5.297714) (xy 3.882571 5.279571) (xy 3.864428 5.261428) (xy 3.846285 5.279571) (xy 3.259016 5.279571) (xy 3.195634 5.181830) (xy 3.176827 5.098143) (xy 3.193142 5.098143)
     (xy 3.211285 5.116285) (xy 3.229428 5.098143) (xy 3.211285 5.080000) (xy 3.193142 5.098143) (xy 3.176827 5.098143) (xy 3.164197 5.041947) (xy 3.161830 4.849455) (xy 3.163223 4.822402)
     (xy 3.168629 4.751718) (xy 3.345319 4.751718) (xy 3.400427 4.779278) (xy 3.518147 4.789168) (xy 3.574143 4.789714) (xy 3.714376 4.784542) (xy 3.790315 4.768032) (xy 3.810000 4.743359)
     (xy 3.777422 4.643515) (xy 3.694148 4.567979) (xy 3.581865 4.535846) (xy 3.574143 4.535714) (xy 3.458521 4.559035) (xy 3.394771 4.616359) (xy 3.345782 4.699681) (xy 3.345319 4.751718)
     (xy 3.168629 4.751718) (xy 3.173902 4.682784) (xy 3.192072 4.592641) (xy 3.226100 4.528883) (xy 3.271955 4.481285) (xy 3.447143 4.481285) (xy 3.465285 4.499428) (xy 3.483428 4.481285)
     (xy 3.465285 4.463143) (xy 3.447143 4.481285) (xy 3.271955 4.481285) (xy 3.284351 4.468418) (xy 3.294927 4.458892) (xy 3.396070 4.386555) (xy 3.505173 4.357378) (xy 3.578344 4.354285)
     (xy 3.694809 4.363496) )(layer F.SilkS) (width  0.010000)
  )
  (fp_poly (pts (xy -4.712598 2.657493) (xy -4.711351 2.657613) (xy -4.581694 2.678954) (xy -4.492011 2.721919) (xy -4.419941 2.789910) (xy -4.365139 2.859160) (xy -4.334370 2.928582) (xy -4.320902 3.022563)
     (xy -4.318000 3.159231) (xy -4.329387 3.358514) (xy -4.367817 3.501347) (xy -4.439694 3.600856) (xy -4.551420 3.670167) (xy -4.571341 3.678502) (xy -4.668533 3.715740) (xy -4.730461 3.729581)
     (xy -4.789133 3.723855) (xy -4.842631 3.710960) (xy -5.002458 3.638063) (xy -5.112950 3.512732) (xy -5.174522 3.334304) (xy -5.188302 3.166926) (xy -4.971143 3.166926) (xy -4.954466 3.340232)
     (xy -4.902387 3.453158) (xy -4.811838 3.510294) (xy -4.735286 3.519714) (xy -4.619665 3.496393) (xy -4.555915 3.439069) (xy -4.518638 3.344242) (xy -4.500340 3.206806) (xy -4.499429 3.166926)
     (xy -4.520991 2.999646) (xy -4.584293 2.887880) (xy -4.687261 2.834590) (xy -4.735286 2.830285) (xy -4.852486 2.861060) (xy -4.930791 2.951412) (xy -4.968127 3.098380) (xy -4.971143 3.166926)
     (xy -5.188302 3.166926) (xy -5.188857 3.160187) (xy -5.185054 3.033018) (xy -5.165593 2.947363) (xy -5.118399 2.872250) (xy -5.064112 2.812142) (xy -4.499429 2.812142) (xy -4.481286 2.830285)
     (xy -4.463143 2.812142) (xy -4.481286 2.794000) (xy -4.499429 2.812142) (xy -5.064112 2.812142) (xy -5.044839 2.790803) (xy -4.993701 2.739571) (xy -4.572000 2.739571) (xy -4.553857 2.757714)
     (xy -4.535715 2.739571) (xy -4.553857 2.721428) (xy -4.572000 2.739571) (xy -4.993701 2.739571) (xy -4.959706 2.705514) (xy -4.894964 2.662458) (xy -4.822099 2.650247) (xy -4.712598 2.657493) )(layer F.SilkS) (width  0.010000)
  )
  (fp_poly (pts (xy -2.482334 2.681495) (xy -2.349570 2.772953) (xy -2.257736 2.913552) (xy -2.215318 3.093608) (xy -2.213429 3.144129) (xy -2.213429 3.265714) (xy -2.558143 3.265714) (xy -2.706271 3.267661)
     (xy -2.822513 3.272895) (xy -2.891111 3.280504) (xy -2.902857 3.285659) (xy -2.887799 3.328653) (xy -2.851394 3.405112) (xy -2.849696 3.408407) (xy -2.764820 3.504588) (xy -2.648276 3.539785)
     (xy -2.512343 3.510766) (xy -2.493857 3.502092) (xy -2.413500 3.467502) (xy -2.363078 3.471433) (xy -2.310350 3.515523) (xy -2.266118 3.565555) (xy -2.272657 3.597210) (xy -2.336773 3.634873)
     (xy -2.344800 3.638981) (xy -2.543903 3.708654) (xy -2.729512 3.707443) (xy -2.790602 3.690429) (xy -2.929506 3.610539) (xy -3.021446 3.482671) (xy -3.070131 3.300923) (xy -3.076874 3.234778)
     (xy -3.068909 3.066118) (xy -2.902857 3.066118) (xy -2.870411 3.074935) (xy -2.788411 3.083699) (xy -2.679863 3.091142) (xy -2.567774 3.095993) (xy -2.475151 3.096979) (xy -2.425001 3.092832)
     (xy -2.424239 3.092555) (xy -2.417433 3.055769) (xy -2.435030 2.979985) (xy -2.436936 2.974407) (xy -2.501664 2.881763) (xy -2.600104 2.835640) (xy -2.709551 2.836912) (xy -2.807302 2.886452)
     (xy -2.860351 2.958123) (xy -2.891264 3.030606) (xy -2.902857 3.066118) (xy -3.068909 3.066118) (xy -3.066892 3.023409) (xy -3.006974 2.852952) (xy -2.901986 2.730047) (xy -2.756792 2.661333)
     (xy -2.647542 2.648857) (xy -2.482334 2.681495) )(layer F.SilkS) (width  0.010000)
  )
  (fp_poly (pts (xy 0.008453 2.656880) (xy 0.165480 2.696514) (xy 0.183515 2.704226) (xy 0.270810 2.746758) (xy 0.301474 2.777910) (xy 0.285908 2.814107) (xy 0.266971 2.836000) (xy 0.213759 2.881797)
     (xy 0.167838 2.903735) (xy 0.149827 2.894337) (xy 0.157673 2.875642) (xy 0.134520 2.860898) (xy 0.057217 2.851015) (xy -0.026433 2.848428) (xy -0.159544 2.855795) (xy -0.237070 2.880545)
     (xy -0.265787 2.908887) (xy -0.282584 2.984198) (xy -0.236654 3.043434) (xy -0.137387 3.078601) (xy -0.059057 3.084820) (xy 0.114265 3.109625) (xy 0.244368 3.177397) (xy 0.323111 3.280228)
     (xy 0.342355 3.410213) (xy 0.332384 3.465045) (xy 0.265964 3.582485) (xy 0.147576 3.667387) (xy -0.007013 3.713266) (xy -0.182038 3.713640) (xy -0.244020 3.702103) (xy -0.360550 3.661711)
     (xy -0.455718 3.612359) (xy -0.518295 3.565777) (xy -0.525247 3.529380) (xy -0.488063 3.481446) (xy -0.431294 3.439800) (xy -0.386324 3.435832) (xy -0.374984 3.467384) (xy -0.386015 3.491542)
     (xy -0.387584 3.514047) (xy -0.372632 3.507612) (xy -0.314683 3.502230) (xy -0.227554 3.521725) (xy -0.226016 3.522257) (xy -0.094248 3.545107) (xy 0.023306 3.525523) (xy 0.107512 3.469876)
     (xy 0.138359 3.400954) (xy 0.139785 3.347858) (xy 0.120287 3.312368) (xy 0.066794 3.288392) (xy -0.033762 3.269841) (xy -0.181058 3.252108) (xy -0.326918 3.211285) (xy 0.145143 3.211285)
     (xy 0.163285 3.229428) (xy 0.181428 3.211285) (xy 0.163285 3.193143) (xy 0.145143 3.211285) (xy -0.326918 3.211285) (xy -0.334372 3.209199) (xy -0.371955 3.175000) (xy -0.290286 3.175000)
     (xy -0.272143 3.193143) (xy -0.254000 3.175000) (xy -0.272143 3.156857) (xy -0.290286 3.175000) (xy -0.371955 3.175000) (xy -0.431105 3.121178) (xy -0.470698 2.988609) (xy -0.471715 2.958818)
     (xy -0.449089 2.848428) (xy -0.399143 2.848428) (xy -0.381000 2.866571) (xy -0.362857 2.848428) (xy -0.381000 2.830285) (xy -0.399143 2.848428) (xy -0.449089 2.848428) (xy -0.448514 2.845626)
     (xy -0.409393 2.775857) (xy 0.181428 2.775857) (xy 0.199571 2.794000) (xy 0.217714 2.775857) (xy 0.199571 2.757714) (xy 0.181428 2.775857) (xy -0.409393 2.775857) (xy -0.399357 2.757960)
     (xy -0.371875 2.739571) (xy 0.072571 2.739571) (xy 0.090714 2.757714) (xy 0.108857 2.739571) (xy 0.090714 2.721428) (xy 0.072571 2.739571) (xy -0.371875 2.739571) (xy -0.297442 2.689767)
     (xy -0.153680 2.655352) (xy 0.008453 2.656880) )(layer F.SilkS) (width  0.010000)
  )
  (fp_poly (pts (xy 1.102333 2.681278) (xy 1.225708 2.771467) (xy 1.313004 2.908812) (xy 1.358332 3.082700) (xy 1.355807 3.282518) (xy 1.342201 3.358078) (xy 1.297249 3.479990) (xy 1.226814 3.591140)
     (xy 1.146410 3.671644) (xy 1.074201 3.701638) (xy 1.006972 3.709273) (xy 0.961571 3.717764) (xy 0.874112 3.722140) (xy 0.834571 3.714616) (xy 0.686426 3.647182) (xy 0.685917 3.646714)
     (xy 0.798285 3.646714) (xy 0.816428 3.664857) (xy 0.834571 3.646714) (xy 0.816428 3.628571) (xy 0.798285 3.646714) (xy 0.685917 3.646714) (xy 0.588431 3.557128) (xy 0.532256 3.430648)
     (xy 0.509572 3.253937) (xy 0.508000 3.173329) (xy 0.511996 3.125900) (xy 0.689332 3.125900) (xy 0.690966 3.268384) (xy 0.721799 3.394541) (xy 0.745914 3.439069) (xy 0.829543 3.501947)
     (xy 0.941645 3.519174) (xy 1.052925 3.489021) (xy 1.094785 3.459662) (xy 1.134603 3.403355) (xy 1.155245 3.313701) (xy 1.161142 3.171458) (xy 1.161142 3.171433) (xy 1.157339 3.040050)
     (xy 1.141929 2.959849) (xy 1.108915 2.909662) (xy 1.080497 2.886771) (xy 0.956709 2.834929) (xy 0.838476 2.855175) (xy 0.768842 2.904270) (xy 0.715691 2.995169) (xy 0.689332 3.125900)
     (xy 0.511996 3.125900) (xy 0.525901 2.960907) (xy 0.582372 2.807439) (xy 0.650059 2.739571) (xy 0.943428 2.739571) (xy 0.961571 2.757714) (xy 0.979714 2.739571) (xy 0.961571 2.721428)
     (xy 0.943428 2.739571) (xy 0.650059 2.739571) (xy 0.681560 2.707987) (xy 0.827613 2.657617) (xy 0.948764 2.648857) (xy 1.102333 2.681278) )(layer F.SilkS) (width  0.010000)
  )
  (fp_poly (pts (xy 1.778000 3.024855) (xy 1.782047 3.225555) (xy 1.797309 3.364620) (xy 1.828468 3.452695) (xy 1.880208 3.500420) (xy 1.957209 3.518440) (xy 1.995714 3.519714) (xy 2.084215 3.510436)
     (xy 2.145476 3.475498) (xy 2.184207 3.404247) (xy 2.205119 3.286030) (xy 2.212921 3.110191) (xy 2.213428 3.027265) (xy 2.213428 2.648857) (xy 2.394857 2.648857) (xy 2.394857 3.701143)
     (xy 2.304142 3.701143) (xy 2.229716 3.681057) (xy 2.213428 3.641090) (xy 2.207087 3.601348) (xy 2.175669 3.614642) (xy 2.149928 3.636217) (xy 2.018917 3.706286) (xy 1.871957 3.707360)
     (xy 1.776540 3.672836) (xy 1.687344 3.617911) (xy 1.626332 3.549189) (xy 1.589044 3.453231) (xy 1.571024 3.316600) (xy 1.567813 3.125854) (xy 1.569261 3.048000) (xy 1.578428 2.667000)
     (xy 1.778000 2.644036) (xy 1.778000 3.024855) )(layer F.SilkS) (width  0.010000)
  )
  (fp_poly (pts (xy 4.060365 2.692973) (xy 4.125476 2.737269) (xy 4.189913 2.796969) (xy 4.203745 2.832534) (xy 4.171815 2.866653) (xy 4.155672 2.878786) (xy 4.090860 2.912923) (xy 4.031161 2.894204)
     (xy 4.011527 2.881088) (xy 3.889696 2.833900) (xy 3.763921 2.858641) (xy 3.678045 2.916057) (xy 3.616107 2.981497) (xy 3.586509 3.056879) (xy 3.578380 3.171713) (xy 3.578329 3.186704)
     (xy 3.591519 3.333909) (xy 3.634507 3.432135) (xy 3.648067 3.448637) (xy 3.697911 3.489711) (xy 3.763967 3.509623) (xy 3.862232 3.509455) (xy 4.008705 3.490284) (xy 4.082143 3.477926)
     (xy 4.137814 3.484825) (xy 4.146078 3.509337) (xy 4.163172 3.537087) (xy 4.197387 3.530385) (xy 4.239603 3.523062) (xy 4.233933 3.546324) (xy 4.190972 3.587783) (xy 4.121317 3.635053)
     (xy 4.095956 3.648953) (xy 3.920488 3.710605) (xy 3.750910 3.705261) (xy 3.657469 3.675885) (xy 3.528314 3.588477) (xy 3.438569 3.456185) (xy 3.389464 3.295840) (xy 3.382225 3.124272)
     (xy 3.418080 2.958312) (xy 3.498259 2.814791) (xy 3.501140 2.812142) (xy 4.100285 2.812142) (xy 4.118428 2.830285) (xy 4.136571 2.812142) (xy 4.118428 2.794000) (xy 4.100285 2.812142)
     (xy 3.501140 2.812142) (xy 3.588580 2.731756) (xy 3.745304 2.662167) (xy 3.909672 2.649312) (xy 4.060365 2.692973) )(layer F.SilkS) (width  0.010000)
  )
  (fp_poly (pts (xy 4.863237 2.658468) (xy 4.942077 2.696497) (xy 5.031657 2.777157) (xy 5.049332 2.795528) (xy 5.133714 2.893688) (xy 5.175503 2.976650) (xy 5.188492 3.074902) (xy 5.188857 3.103956)
     (xy 5.188857 3.265714) (xy 4.841697 3.265714) (xy 4.681561 3.266343) (xy 4.581445 3.270349) (xy 4.528798 3.280914) (xy 4.511069 3.301220) (xy 4.515706 3.334446) (xy 4.519567 3.347357)
     (xy 4.587444 3.471703) (xy 4.691053 3.535237) (xy 4.821617 3.534467) (xy 4.908429 3.502092) (xy 4.988765 3.467537) (xy 5.039488 3.471771) (xy 5.094001 3.517588) (xy 5.094030 3.517617)
     (xy 5.134163 3.562034) (xy 5.135030 3.592492) (xy 5.087096 3.624568) (xy 5.005152 3.662792) (xy 4.861677 3.717709) (xy 4.747897 3.731222) (xy 4.635082 3.704975) (xy 4.590143 3.686537)
     (xy 4.457490 3.606399) (xy 4.375239 3.497473) (xy 4.333014 3.343374) (xy 4.325205 3.268199) (xy 4.331415 3.042535) (xy 4.503510 3.042535) (xy 4.557364 3.072011) (xy 4.676629 3.083553)
     (xy 4.735285 3.084285) (xy 4.863209 3.081894) (xy 4.934541 3.071573) (xy 4.965190 3.048602) (xy 4.971143 3.014306) (xy 4.941066 2.918619) (xy 4.864553 2.856203) (xy 4.762179 2.832468)
     (xy 4.654518 2.852825) (xy 4.573413 2.909699) (xy 4.510411 2.990105) (xy 4.503510 3.042535) (xy 4.331415 3.042535) (xy 4.331513 3.038986) (xy 4.356522 2.957285) (xy 4.426857 2.957285)
     (xy 4.445000 2.975428) (xy 4.463143 2.957285) (xy 4.445000 2.939142) (xy 4.426857 2.957285) (xy 4.356522 2.957285) (xy 4.386140 2.860528) (xy 4.487552 2.734974) (xy 4.634213 2.664468)
     (xy 4.768118 2.648992) (xy 4.863237 2.658468) )(layer F.SilkS) (width  0.010000)
  )
  (fp_poly (pts (xy -1.833055 2.667072) (xy -1.814286 2.701134) (xy -1.805656 2.733075) (xy -1.767074 2.726968) (xy -1.714500 2.701357) (xy -1.559694 2.653558) (xy -1.411671 2.666526) (xy -1.287255 2.736011)
     (xy -1.217310 2.826925) (xy -1.187600 2.914673) (xy -1.169513 3.046663) (xy -1.161700 3.234692) (xy -1.161143 3.318341) (xy -1.161143 3.701143) (xy -1.260929 3.701145) (xy -1.360715 3.701148)
     (xy -1.360715 3.342104) (xy -1.362845 3.169312) (xy -1.370948 3.052842) (xy -1.387589 2.976528) (xy -1.415336 2.924200) (xy -1.429838 2.906673) (xy -1.463773 2.884714) (xy -1.378858 2.884714)
     (xy -1.360715 2.902857) (xy -1.342572 2.884714) (xy -1.360715 2.866571) (xy -1.378858 2.884714) (xy -1.463773 2.884714) (xy -1.530866 2.841300) (xy -1.643226 2.842061) (xy -1.741715 2.902857)
     (xy -1.775600 2.945812) (xy -1.797108 3.003440) (xy -1.808911 3.091783) (xy -1.813684 3.226884) (xy -1.814286 3.338285) (xy -1.814286 3.701143) (xy -1.995715 3.701143) (xy -1.995715 2.884714)
     (xy -1.850572 2.884714) (xy -1.832429 2.902857) (xy -1.814286 2.884714) (xy -1.832429 2.866571) (xy -1.850572 2.884714) (xy -1.995715 2.884714) (xy -1.995715 2.648857) (xy -1.905000 2.648857)
     (xy -1.833055 2.667072) )(layer F.SilkS) (width  0.010000)
  )
  (fp_poly (pts (xy 2.848816 2.667783) (xy 2.866571 2.703285) (xy 2.879126 2.752039) (xy 2.920788 2.739989) (xy 2.966448 2.699307) (xy 3.036161 2.660655) (xy 3.146173 2.655273) (xy 3.183362 2.658766)
     (xy 3.303924 2.677361) (xy 3.359670 2.703209) (xy 3.358352 2.744007) (xy 3.319888 2.794281) (xy 3.248545 2.845622) (xy 3.154183 2.848641) (xy 3.136035 2.845532) (xy 3.032352 2.842926)
     (xy 2.952241 2.890070) (xy 2.942543 2.899456) (xy 2.907242 2.942815) (xy 2.884820 2.998379) (xy 2.872461 3.082419) (xy 2.867348 3.211203) (xy 2.866571 3.338285) (xy 2.866571 3.701143)
     (xy 2.685142 3.701143) (xy 2.685142 2.648857) (xy 2.775857 2.648857) (xy 2.848816 2.667783) )(layer F.SilkS) (width  0.010000)
  )
  (fp_poly (pts (xy 0.576997 -5.252358) (xy 0.600602 -5.130978) (xy 0.632057 -4.965744) (xy 0.666139 -4.784183) (xy 0.681958 -4.699000) (xy 0.749062 -4.336143) (xy 0.946031 -4.242339) (xy 1.097212 -4.174766)
     (xy 1.260949 -4.108048) (xy 1.336398 -4.079914) (xy 1.529797 -4.011294) (xy 1.672999 -4.093710) (xy 1.765419 -4.150689) (xy 1.771579 -4.154715) (xy 2.794000 -4.154715) (xy 2.812142 -4.136572)
     (xy 2.830285 -4.154715) (xy 2.812142 -4.172857) (xy 2.794000 -4.154715) (xy 1.771579 -4.154715) (xy 1.895838 -4.235923) (xy 2.043191 -4.335502) (xy 2.044116 -4.336143) (xy 2.648857 -4.336143)
     (xy 2.667000 -4.318000) (xy 2.685142 -4.336143) (xy 2.667000 -4.354286) (xy 2.648857 -4.336143) (xy 2.044116 -4.336143) (xy 2.125051 -4.392207) (xy 2.255620 -4.481876) (xy 2.364300 -4.553372)
     (xy 2.437420 -4.597887) (xy 2.460384 -4.608286) (xy 2.494038 -4.583898) (xy 2.568813 -4.516797) (xy 2.675006 -4.416075) (xy 2.802918 -4.290825) (xy 2.862391 -4.231480) (xy 3.237914 -3.854675)
     (xy 3.095546 -3.659980) (xy 3.003577 -3.531210) (xy 2.894212 -3.373749) (xy 2.789713 -3.219686) (xy 2.780667 -3.206121) (xy 2.608157 -2.946956) (xy 2.957521 -2.159000) (xy 3.492618 -2.054782)
     (xy 4.027714 -1.950565) (xy 4.027714 -0.876871) (xy 3.855357 -0.840179) (xy 3.741137 -0.817163) (xy 3.582647 -0.786898) (xy 3.407120 -0.754543) (xy 3.333848 -0.741389) (xy 2.984697 -0.679292)
     (xy 2.811889 -0.253376) (xy 2.733964 -0.051150) (xy 2.684673 0.099918) (xy 2.665583 0.194602) (xy 2.669377 0.222342) (xy 2.702562 0.272350) (xy 2.766861 0.365844) (xy 2.851414 0.487106)
     (xy 2.904369 0.562428) (xy 3.000016 0.698878) (xy 3.085865 0.822796) (xy 3.149077 0.915587) (xy 3.168422 0.944870) (xy 3.227777 1.037027) (xy 2.449285 1.808939) (xy 2.275948 1.687285)
     (xy 2.394857 1.687285) (xy 2.413000 1.705428) (xy 2.431142 1.687285) (xy 2.413000 1.669142) (xy 2.394857 1.687285) (xy 2.275948 1.687285) (xy 2.120845 1.578428) (xy 2.467428 1.578428)
     (xy 2.485571 1.596571) (xy 2.503714 1.578428) (xy 2.576285 1.578428) (xy 2.594428 1.596571) (xy 2.612571 1.578428) (xy 2.594428 1.560285) (xy 2.576285 1.578428) (xy 2.503714 1.578428)
     (xy 2.485571 1.560285) (xy 2.467428 1.578428) (xy 2.120845 1.578428) (xy 1.862339 1.397000) (xy 2.757714 1.397000) (xy 2.775857 1.415142) (xy 2.794000 1.397000) (xy 2.775857 1.378857)
     (xy 2.757714 1.397000) (xy 1.862339 1.397000) (xy 1.614831 1.223291) (xy 1.405591 1.333023) (xy 1.296597 1.385001) (xy 1.214901 1.414283) (xy 1.179117 1.414870) (xy 1.155243 1.365294)
     (xy 1.109815 1.261455) (xy 1.047389 1.114479) (xy 0.972516 0.935489) (xy 0.953267 0.889000) (xy 3.048000 0.889000) (xy 3.066142 0.907142) (xy 3.084285 0.889000) (xy 3.066142 0.870857)
     (xy 3.048000 0.889000) (xy 0.953267 0.889000) (xy 0.889751 0.735610) (xy 0.803646 0.525965) (xy 0.718755 0.317679) (xy 0.639631 0.121876) (xy 0.570827 -0.050320) (xy 0.516897 -0.187785)
     (xy 0.482394 -0.279394) (xy 0.473273 -0.308429) (xy 0.544285 -0.308429) (xy 0.562428 -0.290286) (xy 0.580571 -0.308429) (xy 0.562428 -0.326572) (xy 0.544285 -0.308429) (xy 0.473273 -0.308429)
     (xy 0.471714 -0.313391) (xy 0.500042 -0.358336) (xy 0.570688 -0.417096) (xy 0.597664 -0.434780) (xy 0.756397 -0.562429) (xy 0.834571 -0.562429) (xy 0.852714 -0.544286) (xy 0.870857 -0.562429)
     (xy 0.852714 -0.580572) (xy 0.834571 -0.562429) (xy 0.756397 -0.562429) (xy 0.809909 -0.605461) (xy 0.969721 -0.815612) (xy 1.075714 -1.053664) (xy 1.126502 -1.308051) (xy 1.120697 -1.567205)
     (xy 1.056914 -1.819559) (xy 0.933765 -2.053545) (xy 0.809528 -2.202186) (xy 0.612995 -2.364633) (xy 0.401973 -2.466400) (xy 0.158908 -2.514556) (xy 0.018143 -2.520745) (xy -0.274759 -2.492338)
     (xy -0.529026 -2.403722) (xy -0.748919 -2.253222) (xy -0.808692 -2.195888) (xy -0.949679 -2.027214) (xy -1.041185 -1.853971) (xy -1.090941 -1.655431) (xy -1.106682 -1.410865) (xy -1.106715 -1.397000)
     (xy -1.104263 -1.232055) (xy -1.093501 -1.114925) (xy -1.069314 -1.020924) (xy -1.026590 -0.925366) (xy -0.997858 -0.871443) (xy -0.853905 -0.671428) (xy -0.665905 -0.495174) (xy -0.442810 -0.317891)
     (xy -0.642343 0.158555) (xy -0.732623 0.374183) (xy -0.830202 0.607340) (xy -0.923228 0.829701) (xy -0.998682 1.010148) (xy -1.063360 1.162428) (xy -1.119024 1.288932) (xy -1.159185 1.375201)
     (xy -1.176382 1.406191) (xy -1.216961 1.401982) (xy -1.302061 1.370300) (xy -1.400936 1.324044) (xy -1.413844 1.318381) (xy -1.257905 1.318381) (xy -1.252924 1.339952) (xy -1.233715 1.342571)
     (xy -1.203847 1.329295) (xy -1.209524 1.318381) (xy -1.252587 1.314038) (xy -1.257905 1.318381) (xy -1.413844 1.318381) (xy -1.541641 1.262318) (xy -1.629615 1.246619) (xy -1.653029 1.254573)
     (xy -1.915042 1.434952) (xy -2.128079 1.579005) (xy -2.289778 1.685184) (xy -2.397779 1.751941) (xy -2.449719 1.777730) (xy -2.451949 1.778000) (xy -2.490518 1.753318) (xy -2.566899 1.686999)
     (xy -2.669573 1.590634) (xy -2.787021 1.475814) (xy -2.907725 1.354129) (xy -3.006047 1.251857) (xy -2.939143 1.251857) (xy -2.921000 1.270000) (xy -2.902857 1.251857) (xy -2.921000 1.233714)
     (xy -2.939143 1.251857) (xy -3.006047 1.251857) (xy -3.020166 1.237171) (xy -3.112825 1.136530) (xy -3.174185 1.063796) (xy -3.193143 1.032161) (xy -3.173563 0.989987) (xy -3.119979 0.900737)
     (xy -3.040130 0.776701) (xy -2.941754 0.630168) (xy -2.921000 0.599916) (xy -2.819784 0.449759) (xy -2.735635 0.318929) (xy -2.676320 0.219953) (xy -2.649606 0.165357) (xy -2.648857 0.161030)
     (xy -2.661838 0.111732) (xy -2.697117 0.010491) (xy -2.749197 -0.127600) (xy -2.808137 -0.276463) (xy -2.967416 -0.670343) (xy -3.307065 -0.735855) (xy -3.482920 -0.769838) (xy -3.656896 -0.803564)
     (xy -3.799548 -0.831322) (xy -3.837215 -0.838685) (xy -4.027715 -0.876003) (xy -4.027715 -1.951610) (xy -3.485912 -2.053269) (xy -3.115788 -2.122715) (xy -2.902857 -2.122715) (xy -2.884715 -2.104572)
     (xy -2.866572 -2.122715) (xy -2.884715 -2.140858) (xy -2.902857 -2.122715) (xy -3.115788 -2.122715) (xy -2.944108 -2.154927) (xy -2.926982 -2.195286) (xy -0.907143 -2.195286) (xy -0.889000 -2.177143)
     (xy -0.870857 -2.195286) (xy -0.889000 -2.213429) (xy -0.907143 -2.195286) (xy -2.926982 -2.195286) (xy -2.778340 -2.545568) (xy -2.713282 -2.700532) (xy -2.660218 -2.830067) (xy -2.624781 -2.920207)
     (xy -2.612572 -2.956661) (xy -2.632044 -2.992333) (xy -2.685525 -3.076308) (xy -2.765611 -3.197294) (xy -2.864898 -3.343999) (xy -2.898279 -3.392715) (xy 2.721428 -3.392715) (xy 2.739571 -3.374572)
     (xy 2.757714 -3.392715) (xy 2.739571 -3.410858) (xy 2.721428 -3.392715) (xy -2.898279 -3.392715) (xy -2.902857 -3.399395) (xy -3.007475 -3.554333) (xy -3.095337 -3.689695) (xy -3.158959 -3.793545)
     (xy -3.190855 -3.853943) (xy -3.193143 -3.862375) (xy -3.168658 -3.899933) (xy -3.102853 -3.975719) (xy -3.071260 -4.009572) (xy 2.975428 -4.009572) (xy 2.993571 -3.991429) (xy 3.011714 -4.009572)
     (xy 2.993571 -4.027715) (xy 2.975428 -4.009572) (xy -3.071260 -4.009572) (xy -3.007208 -4.078205) (xy -2.893203 -4.195858) (xy -2.772314 -4.317150) (xy -2.656022 -4.430550) (xy -2.555806 -4.524528)
     (xy -2.483143 -4.587552) (xy -2.450567 -4.608286) (xy -2.412948 -4.588858) (xy -2.327115 -4.535494) (xy -2.204517 -4.455570) (xy -2.056603 -4.356465) (xy -2.000076 -4.318000) (xy -1.842838 -4.213279)
     (xy -1.703288 -4.125356) (xy -1.593930 -4.061742) (xy -1.527265 -4.029945) (xy -1.516766 -4.027715) (xy -1.457989 -4.040614) (xy -1.354788 -4.074788) (xy -1.223895 -4.123446) (xy -1.082043 -4.179801)
     (xy -0.945964 -4.237062) (xy -0.832390 -4.288442) (xy -0.758053 -4.327152) (xy -0.738150 -4.343623) (xy -0.729479 -4.387726) (xy -0.710115 -4.489958) (xy -0.682546 -4.637084) (xy -0.649255 -4.815868)
     (xy -0.632233 -4.907643) (xy -0.533084 -5.442857) (xy 0.539140 -5.442857) (xy 0.576997 -5.252358) )(layer F.SilkS) (width  0.010000)
  )
)
