PCBNEW-LibModule-V1  2020-06-13 20:08:24
# encoding utf-8
Units mm
$INDEX
DO1608C
$EndINDEX
$MODULE DO1608C
Po 0 0 0 15 5ee52428 00000000 ~~
Li DO1608C
Cd DO1608C
Kw Inductor
Sc 0
At SMD
AR 
Op 0 0 0
T0 -0.335 -0.087 1.27 1.27 0 0.254 N V 21 N "L**"
T1 -0.335 -0.087 1.27 1.27 0 0.254 N I 21 N "DO1608C"
DS -0.89 -2.225 0.89 -2.225 0.2 24
DS -0.89 2.225 0.89 2.225 0.2 24
DS -3.3 -0.635 -3.3 0.635 0.2 24
DS 3.3 -0.635 3.3 0.635 0.2 24
DS -3.3 -0.635 -0.89 -2.225 0.2 24
DS 0.89 -2.225 3.3 -0.635 0.2 24
DS 3.3 0.635 0.89 2.225 0.2 24
DS -0.89 2.225 -3.3 0.635 0.2 24
DS -1.8 -1.62463 -0.89 -2.225 0.2 21
DS -0.89 -2.225 0.89 -2.225 0.2 21
DS 0.89 -2.225 1.8 -1.62463 0.2 21
DS 1.8 1.62463 0.89 2.225 0.2 21
DS 0.89 2.225 -0.89 2.225 0.2 21
DS -0.89 2.225 -1.8 1.62463 0.2 21
DC -3.832 0.003 -3.88 0.003 0.254 21
$PAD
Po -2.73 0
Sh "1" R 1.4 3.56 0 0 0
At SMD N 00888000
Ne 0 ""
$EndPAD
$PAD
Po 2.73 0
Sh "2" R 1.4 3.56 0 0 0
At SMD N 00888000
Ne 0 ""
$EndPAD
$EndMODULE DO1608C
$EndLIBRARY
