PCBNEW-LibModule-V1  2020-02-05 14:08:26
# encoding utf-8
Units mm
$INDEX
CAPC3216X200N
$EndINDEX
$MODULE CAPC3216X200N
Po 0 0 0 15 5e3acc5a 00000000 ~~
Li CAPC3216X200N
Cd GCJ31 L=3.2mm W=1.6mm T=1.6mm
Kw Capacitor
Sc 0
At SMD
AR 
Op 0 0 0
T0 0 0 1.27 1.27 0 0.254 N V 21 N "C**"
T1 0 0 1.27 1.27 0 0.254 N I 21 N "CAPC3216X200N"
DS -2.16 -1.16 2.16 -1.16 0.05 24
DS 2.16 -1.16 2.16 1.16 0.05 24
DS 2.16 1.16 -2.16 1.16 0.05 24
DS -2.16 1.16 -2.16 -1.16 0.05 24
DS -1.6 -0.8 1.6 -0.8 0.1 24
DS 1.6 -0.8 1.6 0.8 0.1 24
DS 1.6 0.8 -1.6 0.8 0.1 24
DS -1.6 0.8 -1.6 -0.8 0.1 24
DS 0 -0.7 0 0.7 0.2 21
$PAD
Po -1.32 0
Sh "1" R 1.38 2.01 0 0 0
At SMD N 00888000
Ne 0 ""
$EndPAD
$PAD
Po 1.32 0
Sh "2" R 1.38 2.01 0 0 0
At SMD N 00888000
Ne 0 ""
$EndPAD
$EndMODULE CAPC3216X200N
$EndLIBRARY
