(Source "DipTrace-ElementLibrary")
  (Library
    (Name "POE13F-12LD")
    (Hint "POE13F-12LD")
    (Subfolders
    )
    (Categories 0
    )
    (Components
      (Component
        (Part "POE13F-12LD" "T"
          (Enabled "Y")
          (PartType 0)
          (PartName "POE13F-12LD")
          (ShowNumbers 1)
          (Type 0)
          (Number1 0)
          (Number2 0)
          (Width 60.96)
          (Height 91.44)
          (Value "")
          (LockProperties "N")
          (OriginX 0)
          (OriginY 0)
          (Datasheet "https://www.mouser.com/datasheet/2/597/poe_trans-463496.pdf")
          (ModelType 0)
          (ModelString "")
          (ModelBody
          )
          (Manufacturer "COILCRAFT")
          (CategoryName "")
          (CategoryIndex -1)
          (CategoryTypes 0
          )
          (SubfolderIndex 0)
          (Verification "N" "N" "N" "N" "N" "N" "N")
          (Pins
            (Pin 0 15.24 -0
              (Enabled "Y")
              (Locked "N")
              (ModelSig "")
              (Type 0)
              (Orientation 0)
              (Number 1)
              (Length 15.24)
              (Name "PRI_1")
              (StringNumber "1")
              (ShowName "Y")
              (PinNumXShift 0)
              (PinNumYShift 0)
              (PinNamexShift 0)
              (PinNameYShift 0)
              (ElectricType 0)
              (NameFontSize 5)
              (NameFontWidth -2)
              (NameFontScale 1)
              (SignalDelay 0)
            )
            (Pin 1 15.24 7.62
              (Enabled "Y")
              (Locked "N")
              (ModelSig "")
              (Type 0)
              (Orientation 0)
              (Number 2)
              (Length 15.24)
              (Name "PRI_2")
              (StringNumber "2")
              (ShowName "Y")
              (PinNumXShift 0)
              (PinNumYShift 0)
              (PinNamexShift 0)
              (PinNameYShift 0)
              (ElectricType 0)
              (NameFontSize 5)
              (NameFontWidth -2)
              (NameFontScale 1)
              (SignalDelay 0)
            )
            (Pin 2 15.24 15.24
              (Enabled "Y")
              (Locked "N")
              (ModelSig "")
              (Type 0)
              (Orientation 0)
              (Number 3)
              (Length 15.24)
              (Name "BIAS_1")
              (StringNumber "3")
              (ShowName "Y")
              (PinNumXShift 0)
              (PinNumYShift 0)
              (PinNamexShift 0)
              (PinNameYShift 0)
              (ElectricType 0)
              (NameFontSize 5)
              (NameFontWidth -2)
              (NameFontScale 1)
              (SignalDelay 0)
            )
            (Pin 3 15.24 22.86
              (Enabled "Y")
              (Locked "N")
              (ModelSig "")
              (Type 0)
              (Orientation 0)
              (Number 4)
              (Length 15.24)
              (Name "SEC_1")
              (StringNumber "5")
              (ShowName "Y")
              (PinNumXShift 0)
              (PinNumYShift 0)
              (PinNamexShift 0)
              (PinNameYShift 0)
              (ElectricType 0)
              (NameFontSize 5)
              (NameFontWidth -2)
              (NameFontScale 1)
              (SignalDelay 0)
            )
            (Pin 4 15.24 30.48
              (Enabled "Y")
              (Locked "N")
              (ModelSig "")
              (Type 0)
              (Orientation 0)
              (Number 5)
              (Length 15.24)
              (Name "SEC_2")
              (StringNumber "6")
              (ShowName "Y")
              (PinNumXShift 0)
              (PinNumYShift 0)
              (PinNamexShift 0)
              (PinNameYShift 0)
              (ElectricType 0)
              (NameFontSize 5)
              (NameFontWidth -2)
              (NameFontScale 1)
              (SignalDelay 0)
            )
            (Pin 5 83.82 30.48
              (Enabled "Y")
              (Locked "N")
              (ModelSig "")
              (Type 0)
              (Orientation 2)
              (Number 6)
              (Length 15.24)
              (Name "SEC_3")
              (StringNumber "7")
              (ShowName "Y")
              (PinNumXShift 0)
              (PinNumYShift 0)
              (PinNamexShift 0)
              (PinNameYShift 0)
              (ElectricType 0)
              (NameFontSize 5)
              (NameFontWidth -2)
              (NameFontScale 1)
              (SignalDelay 0)
            )
            (Pin 6 83.82 22.86
              (Enabled "Y")
              (Locked "N")
              (ModelSig "")
              (Type 0)
              (Orientation 2)
              (Number 7)
              (Length 15.24)
              (Name "SEC_4")
              (StringNumber "8")
              (ShowName "Y")
              (PinNumXShift 0)
              (PinNumYShift 0)
              (PinNamexShift 0)
              (PinNameYShift 0)
              (ElectricType 0)
              (NameFontSize 5)
              (NameFontWidth -2)
              (NameFontScale 1)
              (SignalDelay 0)
            )
            (Pin 7 83.82 15.24
              (Enabled "Y")
              (Locked "N")
              (ModelSig "")
              (Type 0)
              (Orientation 2)
              (Number 8)
              (Length 15.24)
              (Name "BIAS_2")
              (StringNumber "10")
              (ShowName "Y")
              (PinNumXShift 0)
              (PinNumYShift 0)
              (PinNamexShift 0)
              (PinNameYShift 0)
              (ElectricType 0)
              (NameFontSize 5)
              (NameFontWidth -2)
              (NameFontScale 1)
              (SignalDelay 0)
            )
            (Pin 8 83.82 7.62
              (Enabled "Y")
              (Locked "N")
              (ModelSig "")
              (Type 0)
              (Orientation 2)
              (Number 9)
              (Length 15.24)
              (Name "PRI_3")
              (StringNumber "11")
              (ShowName "Y")
              (PinNumXShift 0)
              (PinNumYShift 0)
              (PinNamexShift 0)
              (PinNameYShift 0)
              (ElectricType 0)
              (NameFontSize 5)
              (NameFontWidth -2)
              (NameFontScale 1)
              (SignalDelay 0)
            )
            (Pin 9 83.82 -0
              (Enabled "Y")
              (Locked "N")
              (ModelSig "")
              (Type 0)
              (Orientation 2)
              (Number 10)
              (Length 15.24)
              (Name "PRI_4")
              (StringNumber "12")
              (ShowName "Y")
              (PinNumXShift 0)
              (PinNumYShift 0)
              (PinNamexShift 0)
              (PinNameYShift 0)
              (ElectricType 0)
              (NameFontSize 5)
              (NameFontWidth -2)
              (NameFontScale 1)
              (SignalDelay 0)
            )
          )
          (Shapes
            (Shape 0
              (Enabled "Y")
              (Locked "N")
              (VectorFont "N")
              (FontWidth 0)
              (FontScale 0)
              (Orientation 0)
              (Type 1)
              (FontSize 0)
              (FontColor 0)
              (FontType 0)
              (FontName "")
              (Name "")
              (Width 0.762)
              (Points
                (pt 15.24 -7.62)
                (pt 83.82 -7.62)
              )
            )
            (Shape 1
              (Enabled "Y")
              (Locked "N")
              (VectorFont "N")
              (FontWidth 0)
              (FontScale 0)
              (Orientation 0)
              (Type 1)
              (FontSize 0)
              (FontColor 0)
              (FontType 0)
              (FontName "")
              (Name "")
              (Width 0.762)
              (Points
                (pt 83.82 38.1)
                (pt 83.82 -7.62)
              )
            )
            (Shape 2
              (Enabled "Y")
              (Locked "N")
              (VectorFont "N")
              (FontWidth 0)
              (FontScale 0)
              (Orientation 0)
              (Type 1)
              (FontSize 0)
              (FontColor 0)
              (FontType 0)
              (FontName "")
              (Name "")
              (Width 0.762)
              (Points
                (pt 83.82 38.1)
                (pt 15.24 38.1)
              )
            )
            (Shape 3
              (Enabled "Y")
              (Locked "N")
              (VectorFont "N")
              (FontWidth 0)
              (FontScale 0)
              (Orientation 0)
              (Type 1)
              (FontSize 0)
              (FontColor 0)
              (FontType 0)
              (FontName "")
              (Name "")
              (Width 0.762)
              (Points
                (pt 15.24 -7.62)
                (pt 15.24 38.1)
              )
            )
          )
          (UserFields
            (UserField "Manufacturer_Name" "COILCRAFT" 0)
            (UserField "Manufacturer_Part_Number" "POE13F-12LD" 0)
            (UserField "Mouser Part Number" "994-POE13F-12LD" 0)
            (UserField "Mouser Price/Stock" "https://www.mouser.com/Search/Refine.aspx?Keyword=994-POE13F-12LD" 0)
            (UserField "RS Part Number" "" 0)
            (UserField "RS Price/Stock" "" 0)
            (UserField "Height" "8.51 mm" 0)
            (UserField "Description" "Audio Transformers / Signal Transformers POE13F Flyback PoE 13uH 12 V 1.1 A" 0)
          )
        )
        (Pattern "POE13F12LD"
          (Type 0)
          (VariableParameter1 "N")
          (VariableParameter2 "N")
          (VariableParameter3 "N")
          (VariableParameter4 "N")
          (InternalConnections
          )
          (Number1 0)
          (Number2 0)
          (Spacing1 0)
          (Spacing2 0)
          (VariableParameter5 "N")
          (Spacing3 0)
          (LockProperties "N")
          (PatternOrientation 0)
          (Width 61.47)
          (Height 51.6)
          (PadWidth 10.29)
          (PadHeight 5.37)
          (PadShape 2)
          (PadHole 0)
          (PadHoleH 0)
          (PadHoleType 0)
          (SurfacePad "Y")
          (OriginX 0)
          (OriginY 0)
          (PadPoints
          )
          (Pads
            (Pad 0 "" "" 0 0
              (Number 0)
              (Inverted "N")
              (Locked "N")
              (Sided "N")
              (DisableTopMask "N" 0)
              (DisableBottomMask "N" 0)
              (DisableTopPaste "N" 0)
              (DisableBottomPaste "N" 0)
              (CustomSwell 0)
              (CustomShrink 0)
              (PadWidth 0)
              (PadHeight 0)
              (PadHole 0)
              (PadHoleH 0)
              (PadHoleType 0)
              (SurfacePad "N")
              (PadShape 0)
              (Standard "N")
              (Point
              )
            )
            (Pad 1 "1" "" -30.465 -18.75
              (Number 1)
              (Inverted "N")
              (Locked "N")
              (Sided "N")
              (DisableTopMask "N" 0)
              (DisableBottomMask "N" 0)
              (DisableTopPaste "N" 0)
              (DisableBottomPaste "N" 0)
              (CustomSwell -1000)
              (CustomShrink -1000)
              (PadWidth 10.29)
              (PadHeight 5.37)
              (PadHole 0)
              (PadHoleH 0)
              (PadHoleType 0)
              (SurfacePad "Y")
              (PadShape 2)
              (Standard "N")
              (Point
              )
            )
            (Pad 2 "2" "" -30.465 -11.25
              (Number 2)
              (Inverted "N")
              (Locked "N")
              (Sided "N")
              (DisableTopMask "N" 0)
              (DisableBottomMask "N" 0)
              (DisableTopPaste "N" 0)
              (DisableBottomPaste "N" 0)
              (CustomSwell -1000)
              (CustomShrink -1000)
              (PadWidth 10.29)
              (PadHeight 5.37)
              (PadHole 0)
              (PadHoleH 0)
              (PadHoleType 0)
              (SurfacePad "Y")
              (PadShape 2)
              (Standard "N")
              (Point
              )
            )
            (Pad 3 "3" "" -30.465 -3.75
              (Number 3)
              (Inverted "N")
              (Locked "N")
              (Sided "N")
              (DisableTopMask "N" 0)
              (DisableBottomMask "N" 0)
              (DisableTopPaste "N" 0)
              (DisableBottomPaste "N" 0)
              (CustomSwell -1000)
              (CustomShrink -1000)
              (PadWidth 10.29)
              (PadHeight 5.37)
              (PadHole 0)
              (PadHoleH 0)
              (PadHoleType 0)
              (SurfacePad "Y")
              (PadShape 2)
              (Standard "N")
              (Point
              )
            )
            (Pad 4 "5" "" -30.465 11.25
              (Number 4)
              (Inverted "N")
              (Locked "N")
              (Sided "N")
              (DisableTopMask "N" 0)
              (DisableBottomMask "N" 0)
              (DisableTopPaste "N" 0)
              (DisableBottomPaste "N" 0)
              (CustomSwell -1000)
              (CustomShrink -1000)
              (PadWidth 10.29)
              (PadHeight 5.37)
              (PadHole 0)
              (PadHoleH 0)
              (PadHoleType 0)
              (SurfacePad "Y")
              (PadShape 2)
              (Standard "N")
              (Point
              )
            )
            (Pad 5 "6" "" -30.465 18.75
              (Number 5)
              (Inverted "N")
              (Locked "N")
              (Sided "N")
              (DisableTopMask "N" 0)
              (DisableBottomMask "N" 0)
              (DisableTopPaste "N" 0)
              (DisableBottomPaste "N" 0)
              (CustomSwell -1000)
              (CustomShrink -1000)
              (PadWidth 10.29)
              (PadHeight 5.37)
              (PadHole 0)
              (PadHoleH 0)
              (PadHoleType 0)
              (SurfacePad "Y")
              (PadShape 2)
              (Standard "N")
              (Point
              )
            )
            (Pad 6 "7" "" 30.465 18.75
              (Number 6)
              (Inverted "N")
              (Locked "N")
              (Sided "N")
              (DisableTopMask "N" 0)
              (DisableBottomMask "N" 0)
              (DisableTopPaste "N" 0)
              (DisableBottomPaste "N" 0)
              (CustomSwell -1000)
              (CustomShrink -1000)
              (PadWidth 10.29)
              (PadHeight 5.37)
              (PadHole 0)
              (PadHoleH 0)
              (PadHoleType 0)
              (SurfacePad "Y")
              (PadShape 2)
              (Standard "N")
              (Point
              )
            )
            (Pad 7 "8" "" 30.465 11.25
              (Number 7)
              (Inverted "N")
              (Locked "N")
              (Sided "N")
              (DisableTopMask "N" 0)
              (DisableBottomMask "N" 0)
              (DisableTopPaste "N" 0)
              (DisableBottomPaste "N" 0)
              (CustomSwell -1000)
              (CustomShrink -1000)
              (PadWidth 10.29)
              (PadHeight 5.37)
              (PadHole 0)
              (PadHoleH 0)
              (PadHoleType 0)
              (SurfacePad "Y")
              (PadShape 2)
              (Standard "N")
              (Point
              )
            )
            (Pad 8 "10" "" 30.465 -3.75
              (Number 8)
              (Inverted "N")
              (Locked "N")
              (Sided "N")
              (DisableTopMask "N" 0)
              (DisableBottomMask "N" 0)
              (DisableTopPaste "N" 0)
              (DisableBottomPaste "N" 0)
              (CustomSwell -1000)
              (CustomShrink -1000)
              (PadWidth 10.29)
              (PadHeight 5.37)
              (PadHole 0)
              (PadHoleH 0)
              (PadHoleType 0)
              (SurfacePad "Y")
              (PadShape 2)
              (Standard "N")
              (Point
              )
            )
            (Pad 9 "11" "" 30.465 -11.25
              (Number 9)
              (Inverted "N")
              (Locked "N")
              (Sided "N")
              (DisableTopMask "N" 0)
              (DisableBottomMask "N" 0)
              (DisableTopPaste "N" 0)
              (DisableBottomPaste "N" 0)
              (CustomSwell -1000)
              (CustomShrink -1000)
              (PadWidth 10.29)
              (PadHeight 5.37)
              (PadHole 0)
              (PadHoleH 0)
              (PadHoleType 0)
              (SurfacePad "Y")
              (PadShape 2)
              (Standard "N")
              (Point
              )
            )
            (Pad 10 "12" "" 30.465 -18.75
              (Number 10)
              (Inverted "N")
              (Locked "N")
              (Sided "N")
              (DisableTopMask "N" 0)
              (DisableBottomMask "N" 0)
              (DisableTopPaste "N" 0)
              (DisableBottomPaste "N" 0)
              (CustomSwell -1000)
              (CustomShrink -1000)
              (PadWidth 10.29)
              (PadHeight 5.37)
              (PadHole 0)
              (PadHoleH 0)
              (PadHoleType 0)
              (SurfacePad "Y")
              (PadShape 2)
              (Standard "N")
              (Point
              )
            )
            (Pad 11 "" "" 0 0
              (Number 0)
              (Inverted "N")
              (Locked "N")
              (Sided "N")
              (DisableTopMask "N" 0)
              (DisableBottomMask "N" 0)
              (DisableTopPaste "N" 0)
              (DisableBottomPaste "N" 0)
              (CustomSwell 0)
              (CustomShrink 0)
              (PadWidth 0)
              (PadHeight 0)
              (PadHole 0)
              (PadHoleH 0)
              (PadHoleType 0)
              (SurfacePad "N")
              (PadShape 0)
              (Standard "N")
              (Point
              )
            )
          )
          (Shapes
            (Shape 0 "N" 0 0 0 0 0 0 0 "" "" "N" 0 0 0 0 0 0)
            (Shape 8 "N" 1 0 0 0 0 0 0 "" "Tahoma" "Y" 4 1 -2 0 0.6 0)
              (Point
                (pt -0.366 0.5)
                (pt 0.366 0.5)
              )
            (Shape 8 "N" 1 0 0 0 0 0 0 "" "Tahoma" "Y" 4 1 -2 0 0.6 0)
              (Point
                (pt 0.366 0.5)
                (pt 0.366 -0.5)
              )
            (Shape 8 "N" 1 0 0 0 0 0 0 "" "Tahoma" "Y" 4 1 -2 0 0.6 0)
              (Point
                (pt 0.366 -0.5)
                (pt -0.366 -0.5)
              )
            (Shape 8 "N" 1 0 0 0 0 0 0 "" "Tahoma" "Y" 4 1 -2 0 0.6 0)
              (Point
                (pt -0.366 -0.5)
                (pt -0.366 0.5)
              )
            (Shape 8 "N" 0 0 0 0 0 0 0 "" "Tahoma" "Y" 4 1 -2 0 0.3 0)
              (Point
                (pt -0.366 -0.5)
                (pt 0.366 -0.5)
              )
            (Shape 8 "N" 0 0 0 0 0 0 0 "" "Tahoma" "Y" 4 1 -2 0 0.3 0)
              (Point
                (pt 0.366 -0.5)
                (pt 0.366 0.5)
              )
            (Shape 8 "N" 0 0 0 0 0 0 0 "" "Tahoma" "Y" 4 1 -2 0 0.3 0)
              (Point
                (pt 0.366 0.5)
                (pt -0.366 0.5)
              )
            (Shape 8 "N" 0 0 0 0 0 0 0 "" "Tahoma" "Y" 4 1 -2 0 0.3 0)
              (Point
                (pt -0.366 0.5)
                (pt -0.366 -0.5)
              )
            (Shape 8 "N" 0 0 0 0 0 0 0 "" "Tahoma" "Y" 4 1 -2 0 0.6 0)
              (Point
                (pt -0.634 -0.366)
                (pt -0.634 -0.366)
              )
            (Shape 6 "N" 0 -0.634 -0.366 -0.632 -0.363 -0.63 -0.366 "" "Tahoma" "Y" 4 1 -2 0 0.6 0)
            (Shape 8 "N" 0 0 0 0 0 0 0 "" "Tahoma" "Y" 4 1 -2 0 0.6 0)
              (Point
                (pt -0.63 -0.366)
                (pt -0.63 -0.366)
              )
            (Shape 6 "N" 0 -0.63 -0.366 -0.632 -0.369 -0.634 -0.366 "" "Tahoma" "Y" 4 1 -2 0 0.6 0)
            (Shape 8 "N" 0 0 0 0 0 0 0 "" "Tahoma" "Y" 4 1 -2 0 0.6 0)
              (Point
                (pt -0.634 -0.366)
                (pt -0.634 -0.366)
              )
            (Shape 6 "N" 0 -0.634 -0.366 -0.632 -0.363 -0.63 -0.366 "" "Tahoma" "Y" 4 1 -2 0 0.6 0)
            (Shape 0 "N" 0 0 0 0 0 0 0 "" "" "N" 0 0 0 0 0 0)
          )
        )
      )
    )
  )
()

