<?xml version="1.0" encoding="utf-8"?>
<!--/1156521/180600/2.45/25/3/Integrated Circuit/-->
<!DOCTYPE curve SYSTEM "eagle.dtd">
<eagle version="7.7.0">
<drawing>
<settings>
<setting alwaysvectorfont="no"/>
<setting verticaltext="up"/>
</settings>
<grid distance="0.1" unitdist="inch" unit="inch" style="lines" multiple="1" display="no" altdistance="0.01" altunitdist="inch" altunit="inch"/>
<layers>
<layer number="1" name="Top" color="4" fill="1" visible="yes" active="yes"/>
<layer number="16" name="Bottom" color="1" fill="1" visible="yes" active="yes"/>
<layer number="17" name="Pads" color="2" fill="1" visible="yes" active="yes"/>
<layer number="18" name="Vias" color="2" fill="1" visible="yes" active="yes"/>
<layer number="19" name="Unrouted" color="6" fill="1" visible="yes" active="yes"/>
<layer number="20" name="Dimension" color="15" fill="1" visible="yes" active="yes"/>
<layer number="21" name="tPlace" color="7" fill="1" visible="yes" active="yes"/>
<layer number="22" name="bPlace" color="7" fill="1" visible="yes" active="yes"/>
<layer number="23" name="tOrigins" color="15" fill="1" visible="yes" active="yes"/>
<layer number="24" name="bOrigins" color="15" fill="1" visible="yes" active="yes"/>
<layer number="25" name="tNames" color="7" fill="1" visible="yes" active="yes"/>
<layer number="26" name="bNames" color="7" fill="1" visible="yes" active="yes"/>
<layer number="27" name="tValues" color="7" fill="1" visible="yes" active="yes"/>
<layer number="28" name="bValues" color="7" fill="1" visible="yes" active="yes"/>
<layer number="29" name="tStop" color="7" fill="3" visible="no" active="yes"/>
<layer number="30" name="bStop" color="7" fill="6" visible="no" active="yes"/>
<layer number="31" name="tCream" color="7" fill="4" visible="no" active="yes"/>
<layer number="32" name="bCream" color="7" fill="5" visible="no" active="yes"/>
<layer number="33" name="tFinish" color="6" fill="3" visible="no" active="yes"/>
<layer number="34" name="bFinish" color="6" fill="6" visible="no" active="yes"/>
<layer number="35" name="tGlue" color="7" fill="4" visible="no" active="yes"/>
<layer number="36" name="bGlue" color="7" fill="5" visible="no" active="yes"/>
<layer number="37" name="tTest" color="7" fill="1" visible="no" active="yes"/>
<layer number="38" name="bTest" color="7" fill="1" visible="no" active="yes"/>
<layer number="39" name="tKeepout" color="4" fill="11" visible="yes" active="yes"/>
<layer number="40" name="bKeepout" color="1" fill="11" visible="yes" active="yes"/>
<layer number="41" name="tRestrict" color="4" fill="10" visible="yes" active="yes"/>
<layer number="42" name="bRestrict" color="1" fill="10" visible="yes" active="yes"/>
<layer number="43" name="vRestrict" color="2" fill="10" visible="yes" active="yes"/>
<layer number="44" name="Drills" color="7" fill="1" visible="no" active="yes"/>
<layer number="45" name="Holes" color="7" fill="1" visible="no" active="yes"/>
<layer number="46" name="Milling" color="3" fill="1" visible="no" active="yes"/>
<layer number="47" name="Measures" color="7" fill="1" visible="no" active="yes"/>
<layer number="48" name="Document" color="7" fill="1" visible="yes" active="yes"/>
<layer number="49" name="Reference" color="7" fill="1" visible="yes" active="yes"/>
<layer number="51" name="tDocu" color="7" fill="1" visible="yes" active="yes"/>
<layer number="52" name="bDocu" color="7" fill="1" visible="yes" active="yes"/>
<layer number="90" name="Modules" color="5" fill="1" visible="yes" active="yes"/>
<layer number="91" name="Nets" color="2" fill="1" visible="yes" active="yes"/>
<layer number="92" name="Busses" color="1" fill="1" visible="yes" active="yes"/>
<layer number="93" name="Pins" color="2" fill="1" visible="no" active="yes"/>
<layer number="94" name="Symbols" color="4" fill="1" visible="yes" active="yes"/>
<layer number="95" name="Names" color="7" fill="1" visible="yes" active="yes"/>
<layer number="96" name="Values" color="7" fill="1" visible="yes" active="yes"/>
<layer number="97" name="Info" color="7" fill="1" visible="yes" active="yes"/>
<layer number="98" name="Guide" color="6" fill="1" visible="yes" active="yes"/>
</layers>
<library>
<description>&lt;RF Transceiver LoRa, Low Power sub- GHz RF Transceiver&lt;/b&gt;&lt;p&gt;
&lt;author&gt;Created by SamacSys&lt;/author&gt;</description>
<packages>
<package name="QFN50P400X400X100-25N">
<description>&lt;b&gt;QFN 4x4&lt;/b&gt;&lt;br&gt;
</description>
<smd name="1" x="-1.95" y="1.25" dx="0.85" dy="0.3" layer="1" rot="R0"/>
<smd name="2" x="-1.95" y="0.75" dx="0.85" dy="0.3" layer="1" rot="R0"/>
<smd name="3" x="-1.95" y="0.25" dx="0.85" dy="0.3" layer="1" rot="R0"/>
<smd name="4" x="-1.95" y="-0.25" dx="0.85" dy="0.3" layer="1" rot="R0"/>
<smd name="5" x="-1.95" y="-0.75" dx="0.85" dy="0.3" layer="1" rot="R0"/>
<smd name="6" x="-1.95" y="-1.25" dx="0.85" dy="0.3" layer="1" rot="R0"/>
<smd name="7" x="-1.25" y="-1.95" dx="0.85" dy="0.3" layer="1" rot="R90"/>
<smd name="8" x="-0.75" y="-1.95" dx="0.85" dy="0.3" layer="1" rot="R90"/>
<smd name="9" x="-0.25" y="-1.95" dx="0.85" dy="0.3" layer="1" rot="R90"/>
<smd name="10" x="0.25" y="-1.95" dx="0.85" dy="0.3" layer="1" rot="R90"/>
<smd name="11" x="0.75" y="-1.95" dx="0.85" dy="0.3" layer="1" rot="R90"/>
<smd name="12" x="1.25" y="-1.95" dx="0.85" dy="0.3" layer="1" rot="R90"/>
<smd name="13" x="1.95" y="-1.25" dx="0.85" dy="0.3" layer="1" rot="R0"/>
<smd name="14" x="1.95" y="-0.75" dx="0.85" dy="0.3" layer="1" rot="R0"/>
<smd name="15" x="1.95" y="-0.25" dx="0.85" dy="0.3" layer="1" rot="R0"/>
<smd name="16" x="1.95" y="0.25" dx="0.85" dy="0.3" layer="1" rot="R0"/>
<smd name="17" x="1.95" y="0.75" dx="0.85" dy="0.3" layer="1" rot="R0"/>
<smd name="18" x="1.95" y="1.25" dx="0.85" dy="0.3" layer="1" rot="R0"/>
<smd name="19" x="1.25" y="1.95" dx="0.85" dy="0.3" layer="1" rot="R90"/>
<smd name="20" x="0.75" y="1.95" dx="0.85" dy="0.3" layer="1" rot="R90"/>
<smd name="21" x="0.25" y="1.95" dx="0.85" dy="0.3" layer="1" rot="R90"/>
<smd name="22" x="-0.25" y="1.95" dx="0.85" dy="0.3" layer="1" rot="R90"/>
<smd name="23" x="-0.75" y="1.95" dx="0.85" dy="0.3" layer="1" rot="R90"/>
<smd name="24" x="-1.25" y="1.95" dx="0.85" dy="0.3" layer="1" rot="R90"/>
<smd name="25" x="0" y="0" dx="2.65" dy="2.65" layer="1" rot="R90"/>
<text x="0" y="0" align="center" size="1.27" layer="25" rot="R0" >&gt;NAME</text>
<text x="0" y="0" align="center" size="1.27" layer="27" rot="R0" >&gt;VALUE</text>
<wire x1="-2.625" y1="2.625" x2="2.625" y2="2.625" width="0.05" layer="51"/>
<wire x1="2.625" y1="2.625" x2="2.625" y2="-2.625" width="0.05" layer="51"/>
<wire x1="2.625" y1="-2.625" x2="-2.625" y2="-2.625" width="0.05" layer="51"/>
<wire x1="-2.625" y1="-2.625" x2="-2.625" y2="2.625" width="0.05" layer="51"/>
<wire x1="-2" y1="2" x2="2" y2="2" width="0.1" layer="51"/>
<wire x1="2" y1="2" x2="2" y2="-2" width="0.1" layer="51"/>
<wire x1="2" y1="-2" x2="-2" y2="-2" width="0.1" layer="51"/>
<wire x1="-2" y1="-2" x2="-2" y2="2" width="0.1" layer="51"/>
<wire x1="-2" y1="1.5" x2="-1.5" y2="2" width="0.1" layer="51"/>
<circle x="-2.375" y="2" radius="0.125" width="0.25" layer="25"/>
</package>
</packages>
<symbols>
<symbol name="SX1261IMLTRT">
<wire x1="5.08" y1="12.7" x2="30.48" y2="12.7" width="0.254" layer="94"/>
<wire x1="30.48" y1="-27.94" x2="30.48" y2="12.7" width="0.254" layer="94"/>
<wire x1="30.48" y1="-27.94" x2="5.08" y2="-27.94" width="0.254" layer="94"/>
<wire x1="5.08" y1="12.7" x2="5.08" y2="-27.94" width="0.254" layer="94"/>
<text x="31.75" y="17.78" align="center-left" size="1.778" layer="95">&gt;NAME</text>
<text x="31.75" y="15.24" align="center-left" size="1.778" layer="96">&gt;VALUE</text>
<pin name="VDD_IN" x="0" y="0" length="middle" direction="io" rot="R0"/>
<pin name="GND_1" x="0" y="-2.54" length="middle" direction="io" rot="R0"/>
<pin name="XTA" x="0" y="-5.08" length="middle" direction="io" rot="R0"/>
<pin name="XTB" x="0" y="-7.62" length="middle" direction="io" rot="R0"/>
<pin name="GND_2" x="0" y="-10.16" length="middle" direction="io" rot="R0"/>
<pin name="DIO3" x="0" y="-12.7" length="middle" direction="io" rot="R0"/>
<pin name="VREG" x="10.16" y="-33.02" length="middle" direction="io" rot="R90"/>
<pin name="GND_3" x="12.7" y="-33.02" length="middle" direction="io" rot="R90"/>
<pin name="DCC_SW" x="15.24" y="-33.02" length="middle" direction="io" rot="R90"/>
<pin name="VBAT" x="17.78" y="-33.02" length="middle" direction="io" rot="R90"/>
<pin name="VBAT_IO" x="20.32" y="-33.02" length="middle" direction="io" rot="R90"/>
<pin name="DIO2" x="22.86" y="-33.02" length="middle" direction="io" rot="R90"/>
<pin name="SCK" x="35.56" y="0" length="middle" direction="io" rot="R180"/>
<pin name="MOSI" x="35.56" y="-2.54" length="middle" direction="io" rot="R180"/>
<pin name="MISO" x="35.56" y="-5.08" length="middle" direction="io" rot="R180"/>
<pin name="NRESET" x="35.56" y="-7.62" length="middle" direction="io" rot="R180"/>
<pin name="BUSY" x="35.56" y="-10.16" length="middle" direction="io" rot="R180"/>
<pin name="DIO1" x="35.56" y="-12.7" length="middle" direction="io" rot="R180"/>
<pin name="EP" x="10.16" y="17.78" length="middle" direction="io" rot="R270"/>
<pin name="VR_PA" x="12.7" y="17.78" length="middle" direction="io" rot="R270"/>
<pin name="RFO" x="15.24" y="17.78" length="middle" direction="io" rot="R270"/>
<pin name="RFI_N" x="17.78" y="17.78" length="middle" direction="io" rot="R270"/>
<pin name="RFI_P" x="20.32" y="17.78" length="middle" direction="io" rot="R270"/>
<pin name="GND_4" x="22.86" y="17.78" length="middle" direction="io" rot="R270"/>
<pin name="NSS" x="25.4" y="17.78" length="middle" direction="io" rot="R270"/>
</symbol>
</symbols>
<devicesets>
<deviceset name="SX1261IMLTRT" prefix="IC">
<description>&lt;b&gt;RF Transceiver LoRa, Low Power sub- GHz RF Transceiver&lt;/b&gt;&lt;p&gt;
Source: &lt;a href="https://componentsearchengine.com/Datasheets/1/SX1261IMLTRT.pdf"&gt; Datasheet &lt;/a&gt;</description>
<gates>
<gate name="G$1" symbol="SX1261IMLTRT" x="0" y="0"/>
</gates>
<devices>
<device name="" package="QFN50P400X400X100-25N">
<connects>
<connect gate="G$1" pin="VDD_IN" pad="1"/>
<connect gate="G$1" pin="GND_1" pad="2"/>
<connect gate="G$1" pin="XTA" pad="3"/>
<connect gate="G$1" pin="XTB" pad="4"/>
<connect gate="G$1" pin="GND_2" pad="5"/>
<connect gate="G$1" pin="DIO3" pad="6"/>
<connect gate="G$1" pin="VREG" pad="7"/>
<connect gate="G$1" pin="GND_3" pad="8"/>
<connect gate="G$1" pin="DCC_SW" pad="9"/>
<connect gate="G$1" pin="VBAT" pad="10"/>
<connect gate="G$1" pin="VBAT_IO" pad="11"/>
<connect gate="G$1" pin="DIO2" pad="12"/>
<connect gate="G$1" pin="DIO1" pad="13"/>
<connect gate="G$1" pin="BUSY" pad="14"/>
<connect gate="G$1" pin="NRESET" pad="15"/>
<connect gate="G$1" pin="MISO" pad="16"/>
<connect gate="G$1" pin="MOSI" pad="17"/>
<connect gate="G$1" pin="SCK" pad="18"/>
<connect gate="G$1" pin="NSS" pad="19"/>
<connect gate="G$1" pin="GND_4" pad="20"/>
<connect gate="G$1" pin="RFI_P" pad="21"/>
<connect gate="G$1" pin="RFI_N" pad="22"/>
<connect gate="G$1" pin="RFO" pad="23"/>
<connect gate="G$1" pin="VR_PA" pad="24"/>
<connect gate="G$1" pin="EP" pad="25"/>
</connects>
<technologies>
<technology name="">
<attribute name="Manufacturer_Name" value="SEMTECH" constant="no"/>
<attribute name="Manufacturer_Part_Number" value="SX1261IMLTRT" constant="no"/>
<attribute name="Mouser_Part_Number" value="947-SX1261IMLTRT" constant="no"/>
<attribute name="Mouser_Price-Stock" value="https://www.mouser.com/Search/Refine.aspx?Keyword=947-SX1261IMLTRT" constant="no"/>
<attribute name="RS_Part_Number" value="" constant="no"/>
<attribute name="RS_Price-Stock" value="" constant="no"/>
<attribute name="Description" value="RF Transceiver LoRa, Low Power sub- GHz RF Transceiver" constant="no"/>
<attribute name="Height" value="1mm" constant="no"/>
</technology>
</technologies>
</device>
</devices>
</deviceset>
</devicesets>
</library>
</drawing>
</eagle>
