(module AFS14A26-915.00-T3:AFS14A2691500T3 (layer F.Cu) (tedit 5E41A649)
  (descr AFS14A26-915.00-T3-3)
  (tags Filter)
  (attr smd)
  (fp_text reference FL3 (at 0 -2.794 -180) (layer F.SilkS)
    (effects (font (size 1.27 1.27) (thickness 0.254)))
  )
  (fp_text value AFS14A26-915.00-T3 (at 0.172 0 -180) (layer F.SilkS) hide
    (effects (font (size 1.27 1.27) (thickness 0.254)))
  )
  (fp_arc (start 1.1865 -0.2435) (end 1.1 -0.2) (angle -180) (layer F.SilkS) (width 0.2))
  (fp_arc (start 1.1865 -0.2435) (end 1.1 -0.287) (angle -180) (layer F.SilkS) (width 0.2))
  (fp_arc (start 1.1865 -0.2435) (end 1.1 -0.2) (angle -180) (layer F.SilkS) (width 0.2))
  (fp_line (start 1.1 -0.2) (end 1.1 -0.2) (layer F.SilkS) (width 0.2))
  (fp_line (start 1.1 -0.287) (end 1.1 -0.287) (layer F.SilkS) (width 0.2))
  (fp_line (start 1.1 -0.2) (end 1.1 -0.2) (layer F.SilkS) (width 0.2))
  (fp_line (start -1.8 1.65) (end -1.8 -1.65) (layer Dwgs.User) (width 0.1))
  (fp_line (start 2.144 1.65) (end -1.8 1.65) (layer Dwgs.User) (width 0.1))
  (fp_line (start 2.144 -1.65) (end 2.144 1.65) (layer Dwgs.User) (width 0.1))
  (fp_line (start -1.8 -1.65) (end 2.144 -1.65) (layer Dwgs.User) (width 0.1))
  (fp_line (start -0.7 -0.55) (end -0.7 0.55) (layer Dwgs.User) (width 0.2))
  (fp_line (start 0.7 -0.55) (end -0.7 -0.55) (layer Dwgs.User) (width 0.2))
  (fp_line (start 0.7 0.55) (end 0.7 -0.55) (layer Dwgs.User) (width 0.2))
  (fp_line (start -0.7 0.55) (end 0.7 0.55) (layer Dwgs.User) (width 0.2))
  (pad E1 smd rect (at 0.587 0.287 90) (size 0.325 0.425) (layers F.Cu F.Paste F.Mask))
  (pad D1 smd rect (at 0 0.388) (size 0.25 0.525) (layers F.Cu F.Paste F.Mask))
  (pad C1 smd rect (at -0.588 0 90) (size 0.325 0.425) (layers F.Cu F.Paste F.Mask))
  (pad B1 smd rect (at 0 -0.388) (size 0.25 0.525) (layers F.Cu F.Paste F.Mask))
  (pad A1 smd rect (at 0.587 -0.287 90) (size 0.325 0.425) (layers F.Cu F.Paste F.Mask))
)
