(module B39921B4344P810:B39921B4344P810 (layer F.Cu) (tedit 5E44344C)
  (descr B39921B4344P810-4)
  (tags Filter)
  (attr smd)
  (fp_text reference FL2 (at 0.13 -2.01 -180) (layer F.SilkS)
    (effects (font (size 1.27 1.27) (thickness 0.254)))
  )
  (fp_text value B39921B4344P810 (at -0.325 0 -180) (layer F.SilkS) hide
    (effects (font (size 1.27 1.27) (thickness 0.254)))
  )
  (fp_arc (start -1.25 0) (end -1.25 -0.1) (angle -180) (layer F.SilkS) (width 0.2))
  (fp_arc (start -1.25 0) (end -1.25 0.1) (angle -180) (layer F.SilkS) (width 0.2))
  (fp_line (start -0.7 -0.55) (end 0.7 -0.55) (layer Dwgs.User) (width 0.2))
  (fp_line (start 0.7 -0.55) (end 0.7 0.55) (layer Dwgs.User) (width 0.2))
  (fp_line (start 0.7 0.55) (end -0.7 0.55) (layer Dwgs.User) (width 0.2))
  (fp_line (start -0.7 0.55) (end -0.7 -0.55) (layer Dwgs.User) (width 0.2))
  (fp_line (start -1.85 -1.05) (end 1.2 -1.05) (layer Dwgs.User) (width 0.1))
  (fp_line (start 1.2 -1.05) (end 1.2 1.05) (layer Dwgs.User) (width 0.1))
  (fp_line (start 1.2 1.05) (end -1.85 1.05) (layer Dwgs.User) (width 0.1))
  (fp_line (start -1.85 1.05) (end -1.85 -1.05) (layer Dwgs.User) (width 0.1))
  (fp_line (start -1.25 -0.1) (end -1.25 -0.1) (layer F.SilkS) (width 0.2))
  (fp_line (start -1.25 0.1) (end -1.25 0.1) (layer F.SilkS) (width 0.2))
  (fp_line (start -0.7 -0.4) (end -0.7 -0.55) (layer F.SilkS) (width 0.1))
  (fp_line (start -0.7 -0.55) (end -0.4 -0.55) (layer F.SilkS) (width 0.1))
  (fp_line (start -0.7 0.4) (end -0.7 0.55) (layer F.SilkS) (width 0.1))
  (fp_line (start -0.7 0.55) (end -0.4 0.55) (layer F.SilkS) (width 0.1))
  (pad 1 smd rect (at -0.5 0) (size 0.3 0.375) (layers F.Cu F.Paste F.Mask))
  (pad 2 smd rect (at 0 0.287) (size 0.3 0.375) (layers F.Cu F.Paste F.Mask))
  (pad 3 smd rect (at 0.5 0.287) (size 0.3 0.375) (layers F.Cu F.Paste F.Mask))
  (pad 4 smd rect (at 0.5 -0.287) (size 0.3 0.375) (layers F.Cu F.Paste F.Mask))
  (pad 5 smd rect (at 0 -0.287) (size 0.3 0.375) (layers F.Cu F.Paste F.Mask))
)
