(module 08051C104KAT2A:CAPC2012X140N (layer F.Cu) (tedit 5E3AEF7C)
  (descr "0805 (n thickness)")
  (tags Capacitor)
  (attr smd)
  (fp_text reference C31 (at 2.04 -0.05 270) (layer F.SilkS)
    (effects (font (size 0.7 0.7) (thickness 0.175)))
  )
  (fp_text value 1000pF (at 0 0) (layer F.SilkS) hide
    (effects (font (size 1.27 1.27) (thickness 0.254)))
  )
  (fp_line (start -1.47 -0.89) (end 1.47 -0.89) (layer Dwgs.User) (width 0.05))
  (fp_line (start 1.47 -0.89) (end 1.47 0.89) (layer Dwgs.User) (width 0.05))
  (fp_line (start 1.47 0.89) (end -1.47 0.89) (layer Dwgs.User) (width 0.05))
  (fp_line (start -1.47 0.89) (end -1.47 -0.89) (layer Dwgs.User) (width 0.05))
  (fp_line (start -1.005 -0.625) (end 1.005 -0.625) (layer Dwgs.User) (width 0.1))
  (fp_line (start 1.005 -0.625) (end 1.005 0.625) (layer Dwgs.User) (width 0.1))
  (fp_line (start 1.005 0.625) (end -1.005 0.625) (layer Dwgs.User) (width 0.1))
  (fp_line (start -1.005 0.625) (end -1.005 -0.625) (layer Dwgs.User) (width 0.1))
  (pad 1 smd rect (at -0.81 0) (size 1.02 1.47) (layers F.Cu F.Paste F.Mask))
  (pad 2 smd rect (at 0.81 0) (size 1.02 1.47) (layers F.Cu F.Paste F.Mask))
)
