(module HMTSW-102-07-G-S-230:HDRV2W64P0X254_1X2_508X248X864P (layer F.Cu) (tedit 0)
  (descr HMTSW-102-07-G-S-230-)
  (tags Connector)
  (fp_text reference J4 (at 5.1 -0.05) (layer F.SilkS)
    (effects (font (size 1.27 1.27) (thickness 0.254)))
  )
  (fp_text value HMTSW-102-07-G-S-230 (at 0 0) (layer F.SilkS) hide
    (effects (font (size 1.27 1.27) (thickness 0.254)))
  )
  (fp_text user %R (at 0 0) (layer F.Fab)
    (effects (font (size 1.27 1.27) (thickness 0.254)))
  )
  (fp_line (start 1.27 -1.24) (end 1.27 0) (layer F.SilkS) (width 0.2))
  (fp_line (start -3.81 -1.24) (end 1.27 -1.24) (layer F.SilkS) (width 0.2))
  (fp_line (start -3.81 1.24) (end -3.81 -1.24) (layer F.SilkS) (width 0.2))
  (fp_line (start 0 1.24) (end -3.81 1.24) (layer F.SilkS) (width 0.2))
  (fp_line (start 1.27 -1.24) (end 1.27 1.24) (layer F.Fab) (width 0.1))
  (fp_line (start -3.81 -1.24) (end 1.27 -1.24) (layer F.Fab) (width 0.1))
  (fp_line (start -3.81 1.24) (end -3.81 -1.24) (layer F.Fab) (width 0.1))
  (fp_line (start 1.27 1.24) (end -3.81 1.24) (layer F.Fab) (width 0.1))
  (fp_line (start 1.52 -1.49) (end 1.52 1.49) (layer F.CrtYd) (width 0.05))
  (fp_line (start -4.06 -1.49) (end 1.52 -1.49) (layer F.CrtYd) (width 0.05))
  (fp_line (start -4.06 1.49) (end -4.06 -1.49) (layer F.CrtYd) (width 0.05))
  (fp_line (start 1.52 1.49) (end -4.06 1.49) (layer F.CrtYd) (width 0.05))
  (pad 1 thru_hole rect (at 0 0) (size 1.65 1.65) (drill 1.1) (layers *.Cu *.Mask))
  (pad 2 thru_hole circle (at -2.54 0) (size 1.65 1.65) (drill 1.1) (layers *.Cu *.Mask))
  (model HMTSW-102-07-G-S-230.stp
    (at (xyz 0 0 0))
    (scale (xyz 1 1 1))
    (rotate (xyz 0 0 0))
  )
)
