(module XB3-24Z8UT-J:XB324Z8UTJ (layer F.Cu) (tedit 5E43DCC5)
  (descr "XBEE3 UFL ANT PTH")
  (tags "Integrated Circuit")
  (fp_text reference IC9 (at 10.795 6.097 -180) (layer F.SilkS)
    (effects (font (size 1.27 1.27) (thickness 0.254)))
  )
  (fp_text value XB3-24Z8UT-J (at 10.795 6.097 -180) (layer F.SilkS) hide
    (effects (font (size 1.27 1.27) (thickness 0.254)))
  )
  (fp_arc (start -1.55 0) (end -1.6 0) (angle -180) (layer F.SilkS) (width 0.1))
  (fp_arc (start -1.55 0) (end -1.5 0) (angle -180) (layer F.SilkS) (width 0.1))
  (fp_line (start -1.6 0) (end -1.6 0) (layer F.SilkS) (width 0.1))
  (fp_line (start -1.5 0) (end -1.5 0) (layer F.SilkS) (width 0.1))
  (fp_line (start 6.5 -7.72) (end -1.19 -1.19) (layer F.SilkS) (width 0.1))
  (fp_line (start 15.5 -7.72) (end 6.5 -7.72) (layer F.SilkS) (width 0.1))
  (fp_line (start 23.19 -1.19) (end 15.5 -7.72) (layer F.SilkS) (width 0.1))
  (fp_line (start 23.19 19.914) (end 23.19 -1.19) (layer F.SilkS) (width 0.1))
  (fp_line (start -1.19 19.914) (end 23.19 19.914) (layer F.SilkS) (width 0.1))
  (fp_line (start -1.19 -1.19) (end -1.19 19.914) (layer F.SilkS) (width 0.1))
  (fp_line (start 6.5 -7.72) (end -1.19 -1.19) (layer Dwgs.User) (width 0.2))
  (fp_line (start 15.5 -7.72) (end 6.5 -7.72) (layer Dwgs.User) (width 0.2))
  (fp_line (start 23.19 -1.19) (end 15.5 -7.72) (layer Dwgs.User) (width 0.2))
  (fp_line (start 23.19 19.914) (end 23.19 -1.19) (layer Dwgs.User) (width 0.2))
  (fp_line (start -1.19 19.914) (end 23.19 19.914) (layer Dwgs.User) (width 0.2))
  (fp_line (start -1.19 -1.19) (end -1.19 19.914) (layer Dwgs.User) (width 0.2))
  (fp_line (start -2.6 20.914) (end -2.6 -8.72) (layer Dwgs.User) (width 0.1))
  (fp_line (start 24.19 20.914) (end -2.6 20.914) (layer Dwgs.User) (width 0.1))
  (fp_line (start 24.19 -8.72) (end 24.19 20.914) (layer Dwgs.User) (width 0.1))
  (fp_line (start -2.6 -8.72) (end 24.19 -8.72) (layer Dwgs.User) (width 0.1))
  (pad 20 thru_hole circle (at 22 0 90) (size 1.431 1.431) (drill 0.92) (layers *.Cu *.Mask F.SilkS))
  (pad 19 thru_hole circle (at 22 2 90) (size 1.431 1.431) (drill 0.92) (layers *.Cu *.Mask F.SilkS))
  (pad 18 thru_hole circle (at 22 4 90) (size 1.431 1.431) (drill 0.92) (layers *.Cu *.Mask F.SilkS))
  (pad 17 thru_hole circle (at 22 6 90) (size 1.431 1.431) (drill 0.92) (layers *.Cu *.Mask F.SilkS))
  (pad 16 thru_hole circle (at 22 8 90) (size 1.431 1.431) (drill 0.92) (layers *.Cu *.Mask F.SilkS))
  (pad 15 thru_hole circle (at 22 10 90) (size 1.431 1.431) (drill 0.92) (layers *.Cu *.Mask F.SilkS))
  (pad 14 thru_hole circle (at 22 12 90) (size 1.431 1.431) (drill 0.92) (layers *.Cu *.Mask F.SilkS))
  (pad 13 thru_hole circle (at 22 14 90) (size 1.431 1.431) (drill 0.92) (layers *.Cu *.Mask F.SilkS))
  (pad 12 thru_hole circle (at 22 16 90) (size 1.431 1.431) (drill 0.92) (layers *.Cu *.Mask F.SilkS))
  (pad 11 thru_hole circle (at 22 18 90) (size 1.431 1.431) (drill 0.92) (layers *.Cu *.Mask F.SilkS))
  (pad 10 thru_hole circle (at 0 18 90) (size 1.431 1.431) (drill 0.92) (layers *.Cu *.Mask F.SilkS))
  (pad 9 thru_hole circle (at 0 16 90) (size 1.431 1.431) (drill 0.92) (layers *.Cu *.Mask F.SilkS))
  (pad 8 thru_hole circle (at 0 14 90) (size 1.431 1.431) (drill 0.92) (layers *.Cu *.Mask F.SilkS))
  (pad 7 thru_hole circle (at 0 12 90) (size 1.431 1.431) (drill 0.92) (layers *.Cu *.Mask F.SilkS))
  (pad 6 thru_hole circle (at 0 10 90) (size 1.431 1.431) (drill 0.92) (layers *.Cu *.Mask F.SilkS))
  (pad 5 thru_hole circle (at 0 8 90) (size 1.431 1.431) (drill 0.92) (layers *.Cu *.Mask F.SilkS))
  (pad 4 thru_hole circle (at 0 6 90) (size 1.431 1.431) (drill 0.92) (layers *.Cu *.Mask F.SilkS))
  (pad 3 thru_hole circle (at 0 4 90) (size 1.431 1.431) (drill 0.92) (layers *.Cu *.Mask F.SilkS))
  (pad 2 thru_hole circle (at 0 2 90) (size 1.431 1.431) (drill 0.92) (layers *.Cu *.Mask F.SilkS))
  (pad 1 thru_hole circle (at 0 0 90) (size 1.431 1.431) (drill 0.92) (layers *.Cu *.Mask F.SilkS))
)
