PCBNEW-LibModule-V1  2020-06-05 22:00:13
# encoding utf-8
Units mm
$INDEX
XB324Z8UTJ
$EndINDEX
$MODULE XB324Z8UTJ
Po 0 0 0 15 5edab25d 00000000 ~~
Li XB324Z8UTJ
Cd XBEE3 UFL ANT PTH
Kw Integrated Circuit
Sc 0
At STD
AR 
Op 0 0 0
T0 10.795 6.097 1.27 1.27 0 0.254 N V 21 N "IC**"
T1 10.795 6.097 1.27 1.27 0 0.254 N I 21 N "XB324Z8UTJ"
DS -2.6 -8.72 24.19 -8.72 0.1 24
DS 24.19 -8.72 24.19 20.914 0.1 24
DS 24.19 20.914 -2.6 20.914 0.1 24
DS -2.6 20.914 -2.6 -8.72 0.1 24
DS -1.19 -1.19 -1.19 19.914 0.2 24
DS -1.19 19.914 23.19 19.914 0.2 24
DS 23.19 19.914 23.19 -1.19 0.2 24
DS 23.19 -1.19 15.5 -7.72 0.2 24
DS 15.5 -7.72 6.5 -7.72 0.2 24
DS 6.5 -7.72 -1.19 -1.19 0.2 24
DS -1.19 -1.19 -1.19 19.914 0.1 21
DS -1.19 19.914 23.19 19.914 0.1 21
DS 23.19 19.914 23.19 -1.19 0.1 21
DS 23.19 -1.19 15.5 -7.72 0.1 21
DS 15.5 -7.72 6.5 -7.72 0.1 21
DS 6.5 -7.72 -1.19 -1.19 0.1 21
DS -1.5 -0 -1.5 -0 0.1 21
DS -1.6 -0 -1.6 -0 0.1 21
DA -1.55 -0 -1.500 -0 -1800 0.1 21
DA -1.55 -0 -1.600 -0 -1800 0.1 21
$PAD
Po 0.000 -0
Sh "1" C 1.431 1.431 0 0 900
Dr 0.92 0 0
At STD N 00E0FFFF
Ne 0 ""
$EndPAD
$PAD
Po 0.000 2
Sh "2" C 1.431 1.431 0 0 900
Dr 0.92 0 0
At STD N 00E0FFFF
Ne 0 ""
$EndPAD
$PAD
Po 0.000 4
Sh "3" C 1.431 1.431 0 0 900
Dr 0.92 0 0
At STD N 00E0FFFF
Ne 0 ""
$EndPAD
$PAD
Po 0.000 6
Sh "4" C 1.431 1.431 0 0 900
Dr 0.92 0 0
At STD N 00E0FFFF
Ne 0 ""
$EndPAD
$PAD
Po 0.000 8
Sh "5" C 1.431 1.431 0 0 900
Dr 0.92 0 0
At STD N 00E0FFFF
Ne 0 ""
$EndPAD
$PAD
Po 0.000 10
Sh "6" C 1.431 1.431 0 0 900
Dr 0.92 0 0
At STD N 00E0FFFF
Ne 0 ""
$EndPAD
$PAD
Po 0.000 12
Sh "7" C 1.431 1.431 0 0 900
Dr 0.92 0 0
At STD N 00E0FFFF
Ne 0 ""
$EndPAD
$PAD
Po 0.000 14
Sh "8" C 1.431 1.431 0 0 900
Dr 0.92 0 0
At STD N 00E0FFFF
Ne 0 ""
$EndPAD
$PAD
Po 0.000 16
Sh "9" C 1.431 1.431 0 0 900
Dr 0.92 0 0
At STD N 00E0FFFF
Ne 0 ""
$EndPAD
$PAD
Po 0.000 18
Sh "10" C 1.431 1.431 0 0 900
Dr 0.92 0 0
At STD N 00E0FFFF
Ne 0 ""
$EndPAD
$PAD
Po 22.000 18
Sh "11" C 1.431 1.431 0 0 900
Dr 0.92 0 0
At STD N 00E0FFFF
Ne 0 ""
$EndPAD
$PAD
Po 22.000 16
Sh "12" C 1.431 1.431 0 0 900
Dr 0.92 0 0
At STD N 00E0FFFF
Ne 0 ""
$EndPAD
$PAD
Po 22.000 14
Sh "13" C 1.431 1.431 0 0 900
Dr 0.92 0 0
At STD N 00E0FFFF
Ne 0 ""
$EndPAD
$PAD
Po 22.000 12
Sh "14" C 1.431 1.431 0 0 900
Dr 0.92 0 0
At STD N 00E0FFFF
Ne 0 ""
$EndPAD
$PAD
Po 22.000 10
Sh "15" C 1.431 1.431 0 0 900
Dr 0.92 0 0
At STD N 00E0FFFF
Ne 0 ""
$EndPAD
$PAD
Po 22.000 8
Sh "16" C 1.431 1.431 0 0 900
Dr 0.92 0 0
At STD N 00E0FFFF
Ne 0 ""
$EndPAD
$PAD
Po 22.000 6
Sh "17" C 1.431 1.431 0 0 900
Dr 0.92 0 0
At STD N 00E0FFFF
Ne 0 ""
$EndPAD
$PAD
Po 22.000 4
Sh "18" C 1.431 1.431 0 0 900
Dr 0.92 0 0
At STD N 00E0FFFF
Ne 0 ""
$EndPAD
$PAD
Po 22.000 2
Sh "19" C 1.431 1.431 0 0 900
Dr 0.92 0 0
At STD N 00E0FFFF
Ne 0 ""
$EndPAD
$PAD
Po 22.000 -0
Sh "20" C 1.431 1.431 0 0 900
Dr 0.92 0 0
At STD N 00E0FFFF
Ne 0 ""
$EndPAD
$EndMODULE XB324Z8UTJ
$EndLIBRARY
