PCBNEW-LibModule-V1  2020-02-05 16:38:20
# encoding utf-8
Units mm
$INDEX
CAPC2012X140N
$EndINDEX
$MODULE CAPC2012X140N
Po 0 0 0 15 5e3aef7c 00000000 ~~
Li CAPC2012X140N
Cd 0805 (n thickness)
Kw Capacitor
Sc 0
At SMD
AR 
Op 0 0 0
T0 0 0 1.27 1.27 0 0.254 N V 21 N "C**"
T1 0 0 1.27 1.27 0 0.254 N I 21 N "CAPC2012X140N"
DS -1.47 -0.89 1.47 -0.89 0.05 24
DS 1.47 -0.89 1.47 0.89 0.05 24
DS 1.47 0.89 -1.47 0.89 0.05 24
DS -1.47 0.89 -1.47 -0.89 0.05 24
DS -1.005 -0.625 1.005 -0.625 0.1 24
DS 1.005 -0.625 1.005 0.625 0.1 24
DS 1.005 0.625 -1.005 0.625 0.1 24
DS -1.005 0.625 -1.005 -0.625 0.1 24
$PAD
Po -0.81 0
Sh "1" R 1.02 1.47 0 0 0
At SMD N 00888000
Ne 0 ""
$EndPAD
$PAD
Po 0.81 0
Sh "2" R 1.02 1.47 0 0 0
At SMD N 00888000
Ne 0 ""
$EndPAD
$EndMODULE CAPC2012X140N
$EndLIBRARY
