M48
;Layer_Color=9474304
;FILE_FORMAT=2:5
INCH,LZ
;TYPE=PLATED
T1F00S00C0.00787
T2F00S00C0.00984
T3F00S00C0.01181
T5F00S00C0.10236
%
T01
X0065079Y00075
Y001
X0069454
X0071954Y0011909
X00789Y00124
X008125Y0015625
Y0018125
X0072279Y00193
X0069979Y0019237
X00675Y002
X0066688Y0014641
X0064454Y0014498
X0073322Y002125
X007375Y0025972
X007375Y0029028
X0071875Y0033799
X007375Y003625
X0068125Y0039375
X0065Y0039493
X0066954Y0033125
X0083125
X0084936Y0040428
X0085173Y0044685
X008191Y005187
X0078524Y005187
X0074996Y0048819
X0073485Y0050295
X0070768Y0047638
X0066757Y0052067
X0073125Y005875
X0073248Y0062697
X0075866Y0063325
X00786Y006597
X0069496Y0067126
X0070105Y0072544
X0072264
X0072366Y0074626
X0071875Y0078642
X0077323Y0076507
X0084958Y0075984
X0090177Y0075984
X00925Y007625
X0096083Y0077461
X0098051Y007687
X010002Y008002
X0101024Y0074016
X0102795Y0072448
X0102624Y006939
X0102362Y0066732
X0104144Y0064961
X0105436Y0063159
X010603Y0060236
X0103445Y0060925
X0104073Y0058377
X0101472Y0058362
X0100693Y0060421
X0107894Y0062072
X0109055Y0064468
X0109093Y0067421
X0109783Y0070079
X0107087Y0069363
Y0065945
X0105118Y0067618
X0105138Y0070866
X0105315Y0073721
X0105413Y0076968
X0107087Y0078367
X0106801Y0080841
X0109093Y00798
X0109055Y0082229
X0108937Y0084646
X0107618Y0087008
X0112757Y0087402
X0112179Y0089099
X0112998Y0090895
X0110728Y0090551
X0115823Y0090895
X0118647Y0090906
X0119155Y0088902
X01212Y00896
X0121Y0087
X0123177Y0087623
X0122411Y008435
Y0082382
X01203Y008189
X0119745Y0079854
X01175Y00798
X011752Y0082579
X0116831Y0085236
X01167Y00874
X0114567Y0086713
X0114764Y0088976
X0113545Y0085
X0113681Y0082579
X0115157Y008376
Y0081201
Y0078543
X0113681Y00798
X0113878Y0076968
X0116634Y0076398
X0118072Y0074902
X0115157
X0109962Y0074447
X0111221Y0072392
X0108052Y0072427
X0107185Y0075364
X0109093Y0076968
X0102953Y0075945
X0099016Y0072008
X009628Y0071457
X0093914Y0070472
X0089587Y0070439
X00875Y0070472
X0084936Y0070611
X0090177Y0067815
X008565Y0058362
X0070295Y0061713
X0074232Y0085
X0081875Y0086875
X008565Y0093209
X0073553Y0099646
X0065531Y0090984
X01018Y01014
X0111191Y0100828
X0112585Y0099
X01144Y0100625
X0115768Y0098576
X0115823Y0096063
X0113701Y0096555
X0118433Y0096124
X0118858Y0098576
X012125Y0097244
X01238Y0097638
Y00951
X012633Y0095526
X0125817Y00931
X012847Y00935
X0127776Y009124
X0130665Y0091658
X01313Y009375
X013125Y008875
X01305Y0084791
X0129347Y0082678
X0129401Y0079854
X01313Y00813
X0133529Y0082151
Y0085202
X01284Y0086555
X0124675Y00804
X0124925Y00783
X0124192Y0076181
X0121897Y0075165
X0123289Y0073773
X0125886Y0074447
X0127461Y0072899
X0128997Y007126
X0128248Y0069488
X013061Y0069685
X012633Y0070276
X0124925Y00719
X012185Y0067716
X0121812Y0065551
X0123574Y006597
X0123524Y0063386
X0125689Y0064049
X01275Y0063159
X0130277Y0063189
X0128839Y0064935
X0131791
X0134509Y00656
X0135219Y0062416
X013748Y006225
X0136872Y0059377
X0139551Y0058709
X0137765Y0056653
X0137008Y0053543
X0134623Y0054009
X0134016Y0057441
X0130391Y0058652
X0128127
X0124584Y0057077
X012167Y0057502
X0122934Y0054975
X0123417Y005298
X0126552Y0052747
X0125625Y0050625
X0123689Y0049055
X0118996Y0049401
Y0051772
X0118369Y0053904
X0116522Y0052756
X0116535Y0050394
X0116309Y0047638
Y0044734
X0118858
X0118805Y0047155
X0113287Y004712
X0113328Y0049589
X0110487Y00498
X0110433Y004712
X0107776
X01077Y00498
X0107618Y0054724
X0110354Y00544
X0110925Y0052264
X0112928Y0052805
X0114665Y0051549
X0114246Y0054708
X0111811Y0055683
X0113173Y0057051
X0115015Y0058447
X0113512Y0060213
X011365Y0062283
X0113716Y0064602
X0113681Y0066935
X0118481Y0065001
X0118535Y0062176
X01212Y0061516
X0120374Y0063779
X0119902Y0059705
X0123163Y0060162
X0125295Y0061588
X0119685Y0068091
X0119343Y0069827
X011902Y0077352
X01214Y0077756
X01225Y00798
X0119Y00851
X0116929Y0101772
X012126
X0123386Y0100134
X0142805Y0090256
X01421Y00878
X0148438Y00869
Y00842
X0151147Y0082151
X01522Y00801
X0155084
X0155905Y0082284
X015374Y0084449
X0155905Y0086614
X015374Y0088779
X0149409
X0147244Y0090945
X0151575Y0086614
X0160236
X0162402Y0084449
X0158071
X0160236Y0082284
X01611Y00795
X0161678Y0077229
Y0074178
X01605Y0072
X01604Y0069199
X01607Y00671
X01576Y0067107
X01545Y0067078
X0150766Y0066995
X0147702Y0071983
X0148588Y007375
X0152067Y0074075
X0154085
X0157905Y00798
X0164567Y0077953
X0166732Y0080118
X0164567Y0082284
X0166732Y0084449
X0164567Y0086614
X0168898
X0171063Y0084449
X0175Y00846
X017685Y00821
X0175Y00796
X017685Y00771
X0180118Y0077756
Y0074803
X0183071
X0186024
Y0077756
X0183071
X0184055Y0080709
X0184055Y0086614
X0184055Y009252
X017685Y00921
X0175Y00896
X017685Y00871
X0171063Y0088779
X0166732
X0168898Y0082284
X0171063Y0080118
X0168898Y0077953
Y0073622
X0171063Y0075787
X0166732
X0164567Y0073622
X016553Y0069887
X0164492Y0067107
X0167317Y0067078
X0170141Y0067043
X0172966Y0067078
X017685Y00671
X0175Y00696
X017685Y00721
X0175Y00746
X0170139Y0069927
X01707Y006196
X0173527Y0061859
X017685Y006187
X01793Y006154
X018193Y006084
X01843Y00606
X0185625Y0058381
X0183071Y0058071
X017969Y005804
X017685Y00571
X0176838Y0059096
X0172096Y0059092
X01728Y00566
X0175Y00546
X0173228Y00523
X017685Y00521
X01799Y00512
X018Y004875
X01792Y00467
X017685Y00471
X01778Y00445
X0175Y00446
X0173228Y0043307
X01731Y00475
X0175Y00496
X0171063Y0049803
X0168898Y0047638
Y0051968
X0171063Y0054134
X0166732
X01666Y00566
X01689Y00584
X0167717Y0060236
X016505Y006157
X016194Y00616
X0158929Y0060286
X015714Y005923
X0154657Y0059357
X0153952Y0057308
X0151261Y0057806
X015133Y0054982
X0152112Y0052267
X015096Y0050197
X0154109Y005027
X015625Y004853
X0157123Y0051285
X0160236Y0051968
X0159986Y0048435
X0158252Y0046462
X01604Y0044375
X0162983Y0045467
X0166732Y0045472
X0165995Y0042474
X0168898Y0043307
X0169694Y00398
X0173032Y0038959
X0176181Y0038878
X01771Y00361
X0174019Y0036138
X0171194Y0036155
X0168436Y0036764
X0169375Y0033799
X0169814Y0031019
X0172637Y0030919
Y00338
X0175625Y0033396
X0175Y00296
X0173886Y0026878
X017685Y00271
X017815Y0025591
X0181102
X0184055
X019125Y00246
Y0029459
Y0033071
Y0036875
Y0040237
X01875Y0040354
Y004375
Y0045965
X019
Y004375
X01925
Y0045965
X0195
Y004375
X01975
Y0045965
Y0051476
Y005375
X0195
Y0051476
X01925
Y005375
X019
Y0051476
X01875
Y005375
X0185
Y0051476
X01825
Y005375
X01791Y00544
X0185039Y0056102
X0184055Y0048649
X0185Y0045965
Y004375
X01825
Y0045965
X0183071Y0040354
X0179Y00403
X01792Y00426
X017685Y00421
X0171063Y0045472
X0166732Y0049803
X0164567Y0051968
Y0047638
X0162402Y0049803
Y0054134
X0158071
X015765Y005647
X016037Y0057839
X0164138Y0058466
X0155147Y0053851
X0153504Y004685
X01501Y00469
X0148351Y0048649
X014597Y0048002
X0144257Y0048765
X0141339Y0048031
X0140748Y0045472
X0138583Y004685
X0138189Y0049606
X0138583Y0043307
Y0038976
X0136084Y0038219
X0135198Y0035955
X0134214Y0034085
X0137265Y0033494
X0140748Y0036811
Y0041142
X0142913Y0038976
X0147244
X0150108Y0039764
X0150374Y0042626
X0153607Y0043049
X0153396Y0039682
X0152096Y0037776
X0149409Y0036811
X0151575Y0034646
X0154085Y0035787
X0156417Y0036738
X0156073Y0033799
X0159492Y0033685
X0158061Y0031811
X0155905Y0030315
X015374Y002815
Y003248
X0149409
Y002815
X0151575Y0030315
X0147244
X0145079Y003248
X0142913Y0034646
X0145079Y0036811
X0147244Y0034646
X0145079Y0041142
X0142913Y0043307
X0145079Y0045472
X01481Y0045345
X0147244Y0043307
X0156954Y0043524
X0156173Y0040453
X0160625Y0039862
X0160473Y0036842
X016235Y0034731
X016191Y0031461
X0160049Y0029823
X0158071Y002815
X0162402
X0164832Y002966
X0164543Y003295
X016505Y0035955
X0166103Y0038357
X0164016Y0040261
X01621Y0042336
X0167068Y0031685
X0168055Y0028544
X0171175Y0028121
X0169685Y0025591
Y0021654
X01721Y0023819
X0175Y00246
X017625Y00221
X0175Y00196
X017625Y00171
X0165625Y001875
X0163125
X0164567Y0021654
Y0025984
X0162402Y0023819
X0158071
X0156934Y002125
X0154375
X015374Y0023819
X0155905Y0025984
X0151575
X0160236
Y0021654
X0160625Y0015
X0163125Y00075
X0165625
X01675Y0003458
X0165Y000187
X01625Y0003458
X016Y000187
X01575Y0003458
X0155Y000187
X01525Y0003458
X015Y000187
X01475Y0003458
X0145Y000187
X01425Y0003458
X014Y000187
X01375Y0003458
X0135Y000187
X01325Y0003458
X013Y000187
X01275Y0003458
X0125Y000187
X01225Y0003458
X012Y000187
X01175Y0003458
X0115Y000187
X01125Y0003458
X011Y000187
X01075Y0003458
X0105Y000187
X01025Y0003458
X01Y000187
X00975Y0003458
X0095Y000187
X00925Y0003458
X009Y000187
X00875Y0003458
X0085Y000187
X00825Y0003458
X008Y000187
X00775Y0003458
X0075Y000187
X0089095Y0014798
X0093Y00184
X00959Y00166
X00975Y0015
X0104375Y0014375
X01057Y00187
X0108056Y0025625
X0108052Y0027657
X0105436Y003323
X00975Y0035
Y003125
Y00275
X00973Y0024
X0095Y0025625
Y0029375
Y0033125
X0096083Y0041732
X0098051Y0041142
X01002Y0043
X0108356Y0044734
X0108268Y0041142
X0112333Y0044734
X0116522Y0041304
X0119Y0041045
X0127665Y0041496
X0126476Y0046609
X0133048Y0046875
X0132655Y005086
X01305Y00502
X0134509Y0041762
X0132934Y0025522
X0136875Y002625
X0140625
Y0029375
X0145625Y0020625
X0148125
X0145625Y001625
Y0011875
X0148125
X0167008Y0023858
X01777Y0030956
X01723Y0003458
X017Y000187
X0146422Y0055807
X0144513Y0055512
X0142805Y0055625
X0144797Y0057677
X0147174Y0062192
X01497Y006
X0149286Y0080123
X01354Y0079429
X01355Y0077357
X0135219Y007525
X013586Y00732
X01333Y00741
X0132741Y0076575
X0132631Y0078848
X0130201Y0077145
X0116763Y0056228
X0111535Y0058728
X0109547Y0056765
X0092082Y0040625
X01805Y0070079
X0183071Y007185
X0183028Y00682
X01854
X0185625Y0070438
X0188976Y0074803
X0191929
Y0077756
X0188976
X019686Y0077756
X0197835Y0074803
Y007185
Y0068898
Y0065945
Y0062992
X0194882
Y0065945
X0191929
Y0062992
X0188976
Y0065945
X0197835Y0060039
Y0057087
X0194882Y0074803
X019686Y0083661
X019686Y0089567
X0175Y00946
X017625Y00971
X0165625Y010125
X015625Y0100635
X0063012Y0089862
X0061875Y0087508
Y0085
X0059665Y0084351
X0059567Y0087303
X005125Y0087599
X0050413Y0084351
X0046083Y00845
X0042244Y0083662
X0040472Y00815
X00341Y00795
X00325Y00825
X0030625Y00775
X0028125
Y008
X0025138Y00793
Y0077559
X0025Y0082677
Y00845
X0028125Y0075
X0027776Y0072539
X0032402Y0071063
X0036142Y0070965
X003437Y006624
X0029449Y0066339
X0026696Y0065748
X0025Y00625
Y006
X0029375
X0029449Y00625
X0032106Y0059941
X0035453Y0058858
X003625Y005375
X0036875Y005125
X0039375Y0051875
X004164Y004875
X004375Y0046354
X0046875Y0045611
X0049232Y0045571
X0053524Y0045965
Y0049114
X0055807Y0049589
X00578Y0043524
X006095
X0061954Y0039375
X0057874Y0038976
X0053204Y0039375
Y0036875
X0048829Y0040625
X0045704
X00425Y00425
X00397Y0042859
X00397Y0041
X0040404Y0037766
X0037254Y0037766
X0036053Y0040237
X0034375Y0041875
X0032141Y0039376
X00325Y00454
X0031875Y0053125
X0028465Y005689
X0023125Y005375
X001375Y0056575
Y0059842
X0011767Y0058268
Y0061417
X00118Y00669
X00143Y00668
X0013125Y006875
X002Y007125
X0021486Y0073125
X0011767Y0083465
Y0092913
X0043118Y0094478
X0046243
X0049368
X0048125Y009125
X0045Y0091275
X0054375Y009131
X0062717Y004813
X0045704Y0033002
X0037308Y00325
X004001Y0025025
X0042454Y0024734
X0041329Y002
X0043204Y0015554
X0040052Y00143
X0038829Y001
X003875Y000625
X0043204Y00075
Y001
X0047579
X0047475Y000625
X00525
X0056157
Y001
X0060532
Y00075
X0051606Y00107
X003525Y0015945
X0034454Y0019375
X002875Y0016875
X00275Y000875
X0030625
X003038Y002875
X002625
Y0024935
X001375Y0025
X0012106Y0027116
X0015625
X001375Y0020625
X00125Y0014375
X0011767Y0039063
X00117Y00424
X0011766Y0045669
X0011767Y0048819
X0011766Y00525
X0011909Y0054921
X00142Y0041
X003625Y0111875
X0035Y01146
X00375Y0116056
X004Y01146
X00425Y0116056
X0045Y01146
X00475Y0116056
X005Y01146
X00525Y0116056
X0055Y01146
X00575Y0116056
X006Y01146
X00625Y0116056
X00325
X0065Y01146
X00675Y0116056
X007Y01146
X00725Y0116056
X0075Y01146
X00775Y0116056
X008Y01146
X00825Y0116056
X0085Y01146
X00875Y0116056
X009Y01146
X00925Y0116056
X0095Y01146
X00975Y0116056
X01Y01146
X01025Y0116056
X0105Y01146
X01075Y0116056
X011Y01146
X01125Y0116056
X0115Y01146
X01175Y0116056
X012Y01146
X01225Y0116056
X0125Y01146
X01275Y0116056
X013Y01146
X01325Y0116056
X0135Y01146
X01375Y0116056
X014Y01146
X01425Y0116056
X0145Y01146
X01475Y0116056
X015Y01146
X01525Y0116056
X0155Y01146
X01575Y0116056
X016Y01146
X01625Y0116056
X0165Y01146
X01675Y0116056
X017Y01146
X01725Y0116056
X0175Y01146
X017625Y01121
X0175Y01096
X017625Y01071
X0175Y01046
X0165714Y011
X0166875Y01125
X0155625Y011125
X015125
Y010875
X0146875Y011125
X014125Y0106875
X0138681Y0103888
X0136319
X0123425Y0103937
X0124375Y0106875
X0119095Y0103937
X0114764
X0110433
X0105Y0105
X0093524Y0106496
X0090177
Y010374
X008125Y01075
T02
X0110395Y0020404
X012132Y0018829
X0126242Y0017254
X0129096Y0017254
X0126537Y00269
X0124174
X0121812
Y0029262
X0124174
Y0031624
X0121812
Y0033986
X0124174
X0126537
Y0031624
Y0029262
X011945
Y0031624
Y0033986
Y00269
X0111281Y0036939
X0108131
X0112757Y0040187
X0096673Y0047933
Y0050295
Y0052658
X0094311
X0091949
Y0050295
X0094311
Y0047933
X0091949
X0089587
Y0050295
Y0052658
Y005502
X0091949
X0094311
X0096673
X0101004Y0063091
X0099429Y0067914
X009628
X008752Y0067815
X0084469Y0067815
X0089587Y0083662
Y0086024
Y0088386
X0091949
Y0086024
X0094311
Y0088386
X0096673
Y0086024
Y0083662
X0094311
X0091949
Y0090748
X0094311
X0096673
X0089587
X007735Y0086863
X0082795Y0101969
X0099429Y0097244
X010935Y0099311
X0139926Y0069847
Y0067485
Y0065123
X0142288
X0144651
Y0067485
Y0069847
X0142288
X0142288Y0067485
X01409Y00192
X0194469Y0026274
X0197658
Y0031275
X0194469
Y0036274
X0197658
X004875Y0097835
Y0102165
X008752Y0103543
X009628Y010374
X00994Y01037
X0107894Y0103543
X0161875Y010346
Y010779
T03
X0075639Y001625
X0078125Y0015
Y00175
X0086875Y001
X0085625Y00077
X0088476
X00926Y00075
X009535
X009Y003
X0086875
X008375
X0073125Y009375
X007
X0066875
X0127008Y0098524
X012625Y0101875
X01398Y00986
X01425Y009625
X01688Y01
X01712Y01009
X0055Y01
X0041875Y0099375
X0039375Y0089375
X0035625
X00375Y00875
X00271Y0086555
Y00892
X002375Y009375
X002125
Y009625
X002375
X0026875Y0101875
X0011767Y0100787
X0043524Y0076575
X0046673
X0049823
X0052973
X0056122
X0059272
X0062421
Y0073425
X0059272
X0056122
X0052973
X0049823
X0046673
X0043524
X0043524Y0070276
X0046673
X0049823
X0052973
X0056122
X0059272
X0062421
Y0067126
Y0063976
Y0060827
X0059272
X0056122
Y0063976
X0059272
Y0067126
X0056122
X0052973
Y0063976
Y0060827
X0049823
X0046673
Y0063976
X0049823
Y0067126
X0046673
X0043524
Y0063976
Y0060827
X0043524Y0057677
X0046673
X0049823
X0052973
X0056122
X0059272
X0062421
X0060394Y0029065
Y0025522
Y0021978
Y0018435
X005685
X0053307
X0049764
Y0021978
Y0025522
Y0029065
X0053307
X005685
Y0025522
Y0021978
X0053307
Y0025522
X00225Y002625
Y0029375
Y00325
X002232Y004588
Y004836
X00225Y00175
Y0014375
Y001125
X0026875Y0104375
Y0106875
X0031875Y0108125
X0035Y010875
X0040625Y0110625
X00445Y0110975
X0047
X00505
X0053
X0041875Y01025
X0018307Y0105472
Y0107972
X0015807
Y0105472
X001875Y011125
X00228Y01125
X0073263Y0108612
X0076388
X012875Y011
X0131875
X0135
X0143125Y0105
X01689Y01025
T05
X0189173Y0011417
Y0106693
M30
