PCBNEW-LibModule-V1  2020-06-13 19:56:23
# encoding utf-8
Units mm
$INDEX
EEE1CA100AR
$EndINDEX
$MODULE EEE1CA100AR
Po 0 0 0 15 5ee52157 00000000 ~~
Li EEE1CA100AR
Cd SV (B) 2016
Kw Capacitor Polarised
Sc 0
At SMD
AR 
Op 0 0 0
T0 0.000 -0 1.27 1.27 0 0.254 N V 21 N "C**"
T1 0.000 -0 1.27 1.27 0 0.254 N I 21 N "EEE1CA100AR"
DS -2.15 -2.15 2.15 -2.15 0.2 24
DS 2.15 -2.15 2.15 2.15 0.2 24
DS 2.15 2.15 -2.15 2.15 0.2 24
DS -2.15 2.15 -2.15 -2.15 0.2 24
DS -3.15 -4 3.15 -4 0.1 24
DS 3.15 -4 3.15 4 0.1 24
DS 3.15 4 -3.15 4 0.1 24
DS -3.15 4 -3.15 -4 0.1 24
DS -1.5 -2.15 -2.15 -2.15 0.1 21
DS -2.15 -2.15 -2.15 2.15 0.1 21
DS -2.15 2.15 -1.5 2.15 0.1 21
DS 1.5 2.15 2.15 2.15 0.1 21
DS 2.15 2.15 2.15 -2.15 0.1 21
DS 2.15 -2.15 1.5 -2.15 0.1 21
DS -0.1 -3.4 -0.1 -3.4 0.2 21
DS 0.1 -3.4 0.1 -3.4 0.2 21
DA 8.3266726846887E-17 -3.4 -0.100 -3.4 1800 0.2 21
DA 8.3266726846887E-17 -3.4 0.100 -3.4 1800 0.2 21
$PAD
Po 0.000 -1.75
Sh "1" R 1.600 2.500 0 0 0
At SMD N 00888000
Ne 0 ""
$EndPAD
$PAD
Po 0.000 1.75
Sh "2" R 1.600 2.500 0 0 0
At SMD N 00888000
Ne 0 ""
$EndPAD
$EndMODULE EEE1CA100AR
$EndLIBRARY
