PCBNEW-LibModule-V1  2020-02-10 23:30:56
# encoding utf-8
Units mm
$INDEX
XB24CAPIT-001
$EndINDEX
$MODULE XB24CAPIT-001
Po 0 0 0 15 5e41e7b0 00000000 ~~
Li XB24CAPIT-001
Cd Digi XBee 802.15.4
Kw Integrated Circuit
Sc 0
At STD
AR 
Op 0 0 0
T0 -0.243 15.928 1.27 1.27 0 0.254 N V 21 N "IC**"
T1 -0.243 15.928 1.27 1.27 0 0.254 N I 21 N "XB24CAPIT-001"
DS -12.19 6.53 -12.19 27.61 0.2 24
DS -12.19 27.61 12.19 27.61 0.2 24
DS 12.19 27.61 12.19 6.53 0.2 24
DS -3.5 0 3.5 0 0.2 24
DS -12.19 6.53 -3.5 0 0.2 24
DS 3.5 0 12.19 6.53 0.2 24
DS -12.19 27.61 -12.19 6.53 0.2 21
DS -12.19 6.53 -3.5 0 0.2 21
DS -3.5 0 3.5 0 0.2 21
DS 3.5 0 12.19 6.53 0.2 21
DS 12.19 6.53 12.19 27.61 0.2 21
DS 12.19 27.61 -12.19 27.61 0.2 21
DC -13.023 6.914 -13.15591 6.914 0.254 21
$PAD
Po -11 7
Sh "1" C 1.1 1.1 0 0 900
Dr 0.71 0 0
At STD N 00E0FFFF
Ne 0 ""
$EndPAD
$PAD
Po -11 9
Sh "2" C 1.1 1.1 0 0 900
Dr 0.71 0 0
At STD N 00E0FFFF
Ne 0 ""
$EndPAD
$PAD
Po -11 11
Sh "3" C 1.1 1.1 0 0 900
Dr 0.71 0 0
At STD N 00E0FFFF
Ne 0 ""
$EndPAD
$PAD
Po -11 13
Sh "4" C 1.1 1.1 0 0 900
Dr 0.71 0 0
At STD N 00E0FFFF
Ne 0 ""
$EndPAD
$PAD
Po -11 15
Sh "5" C 1.1 1.1 0 0 900
Dr 0.71 0 0
At STD N 00E0FFFF
Ne 0 ""
$EndPAD
$PAD
Po -11 17
Sh "6" C 1.1 1.1 0 0 900
Dr 0.71 0 0
At STD N 00E0FFFF
Ne 0 ""
$EndPAD
$PAD
Po -11 19
Sh "7" C 1.1 1.1 0 0 900
Dr 0.71 0 0
At STD N 00E0FFFF
Ne 0 ""
$EndPAD
$PAD
Po -11 21
Sh "8" C 1.1 1.1 0 0 900
Dr 0.71 0 0
At STD N 00E0FFFF
Ne 0 ""
$EndPAD
$PAD
Po -11 23
Sh "9" C 1.1 1.1 0 0 900
Dr 0.71 0 0
At STD N 00E0FFFF
Ne 0 ""
$EndPAD
$PAD
Po -11 25
Sh "10" C 1.1 1.1 0 0 900
Dr 0.71 0 0
At STD N 00E0FFFF
Ne 0 ""
$EndPAD
$PAD
Po 11 25
Sh "11" C 1.1 1.1 0 0 900
Dr 0.71 0 0
At STD N 00E0FFFF
Ne 0 ""
$EndPAD
$PAD
Po 11 23
Sh "12" C 1.1 1.1 0 0 900
Dr 0.71 0 0
At STD N 00E0FFFF
Ne 0 ""
$EndPAD
$PAD
Po 11 21
Sh "13" C 1.1 1.1 0 0 900
Dr 0.71 0 0
At STD N 00E0FFFF
Ne 0 ""
$EndPAD
$PAD
Po 11 19
Sh "14" C 1.1 1.1 0 0 900
Dr 0.71 0 0
At STD N 00E0FFFF
Ne 0 ""
$EndPAD
$PAD
Po 11 17
Sh "15" C 1.1 1.1 0 0 900
Dr 0.71 0 0
At STD N 00E0FFFF
Ne 0 ""
$EndPAD
$PAD
Po 11 15
Sh "16" C 1.1 1.1 0 0 900
Dr 0.71 0 0
At STD N 00E0FFFF
Ne 0 ""
$EndPAD
$PAD
Po 11 13
Sh "17" C 1.1 1.1 0 0 900
Dr 0.71 0 0
At STD N 00E0FFFF
Ne 0 ""
$EndPAD
$PAD
Po 11 11
Sh "18" C 1.1 1.1 0 0 900
Dr 0.71 0 0
At STD N 00E0FFFF
Ne 0 ""
$EndPAD
$PAD
Po 11 9
Sh "19" C 1.1 1.1 0 0 900
Dr 0.71 0 0
At STD N 00E0FFFF
Ne 0 ""
$EndPAD
$PAD
Po 11 7
Sh "20" C 1.1 1.1 0 0 900
Dr 0.71 0 0
At STD N 00E0FFFF
Ne 0 ""
$EndPAD
$EndMODULE XB24CAPIT-001
$EndLIBRARY
