<?xml version="1.0" encoding="utf-8"?>
<!--/3099981/180600/2.45/3/4/Schottky Diode/-->
<!DOCTYPE curve SYSTEM "eagle.dtd">
<eagle version="7.7.0">
<drawing>
<settings>
<setting alwaysvectorfont="no"/>
<setting verticaltext="up"/>
</settings>
<grid distance="0.1" unitdist="inch" unit="inch" style="lines" multiple="1" display="no" altdistance="0.01" altunitdist="inch" altunit="inch"/>
<layers>
<layer number="1" name="Top" color="4" fill="1" visible="yes" active="yes"/>
<layer number="16" name="Bottom" color="1" fill="1" visible="yes" active="yes"/>
<layer number="17" name="Pads" color="2" fill="1" visible="yes" active="yes"/>
<layer number="18" name="Vias" color="2" fill="1" visible="yes" active="yes"/>
<layer number="19" name="Unrouted" color="6" fill="1" visible="yes" active="yes"/>
<layer number="20" name="Dimension" color="15" fill="1" visible="yes" active="yes"/>
<layer number="21" name="tPlace" color="7" fill="1" visible="yes" active="yes"/>
<layer number="22" name="bPlace" color="7" fill="1" visible="yes" active="yes"/>
<layer number="23" name="tOrigins" color="15" fill="1" visible="yes" active="yes"/>
<layer number="24" name="bOrigins" color="15" fill="1" visible="yes" active="yes"/>
<layer number="25" name="tNames" color="7" fill="1" visible="yes" active="yes"/>
<layer number="26" name="bNames" color="7" fill="1" visible="yes" active="yes"/>
<layer number="27" name="tValues" color="7" fill="1" visible="yes" active="yes"/>
<layer number="28" name="bValues" color="7" fill="1" visible="yes" active="yes"/>
<layer number="29" name="tStop" color="7" fill="3" visible="no" active="yes"/>
<layer number="30" name="bStop" color="7" fill="6" visible="no" active="yes"/>
<layer number="31" name="tCream" color="7" fill="4" visible="no" active="yes"/>
<layer number="32" name="bCream" color="7" fill="5" visible="no" active="yes"/>
<layer number="33" name="tFinish" color="6" fill="3" visible="no" active="yes"/>
<layer number="34" name="bFinish" color="6" fill="6" visible="no" active="yes"/>
<layer number="35" name="tGlue" color="7" fill="4" visible="no" active="yes"/>
<layer number="36" name="bGlue" color="7" fill="5" visible="no" active="yes"/>
<layer number="37" name="tTest" color="7" fill="1" visible="no" active="yes"/>
<layer number="38" name="bTest" color="7" fill="1" visible="no" active="yes"/>
<layer number="39" name="tKeepout" color="4" fill="11" visible="yes" active="yes"/>
<layer number="40" name="bKeepout" color="1" fill="11" visible="yes" active="yes"/>
<layer number="41" name="tRestrict" color="4" fill="10" visible="yes" active="yes"/>
<layer number="42" name="bRestrict" color="1" fill="10" visible="yes" active="yes"/>
<layer number="43" name="vRestrict" color="2" fill="10" visible="yes" active="yes"/>
<layer number="44" name="Drills" color="7" fill="1" visible="no" active="yes"/>
<layer number="45" name="Holes" color="7" fill="1" visible="no" active="yes"/>
<layer number="46" name="Milling" color="3" fill="1" visible="no" active="yes"/>
<layer number="47" name="Measures" color="7" fill="1" visible="no" active="yes"/>
<layer number="48" name="Document" color="7" fill="1" visible="yes" active="yes"/>
<layer number="49" name="Reference" color="7" fill="1" visible="yes" active="yes"/>
<layer number="51" name="tDocu" color="7" fill="1" visible="yes" active="yes"/>
<layer number="52" name="bDocu" color="7" fill="1" visible="yes" active="yes"/>
<layer number="90" name="Modules" color="5" fill="1" visible="yes" active="yes"/>
<layer number="91" name="Nets" color="2" fill="1" visible="yes" active="yes"/>
<layer number="92" name="Busses" color="1" fill="1" visible="yes" active="yes"/>
<layer number="93" name="Pins" color="2" fill="1" visible="no" active="yes"/>
<layer number="94" name="Symbols" color="4" fill="1" visible="yes" active="yes"/>
<layer number="95" name="Names" color="7" fill="1" visible="yes" active="yes"/>
<layer number="96" name="Values" color="7" fill="1" visible="yes" active="yes"/>
<layer number="97" name="Info" color="7" fill="1" visible="yes" active="yes"/>
<layer number="98" name="Guide" color="6" fill="1" visible="yes" active="yes"/>
</layers>
<library>
<description>&lt;Schottky Diodes &amp; Rectifiers Super Barrier Rectifier&lt;/b&gt;&lt;p&gt;
&lt;author&gt;Created by SamacSys&lt;/author&gt;</description>
<packages>
<package name="POWERDI5">
<description>&lt;b&gt;PowerDI5&lt;/b&gt;&lt;br&gt;
</description>
<smd name="1" x="-0.92" y="-3.982" dx="1.4" dy="1.39" layer="1" rot="R90"/>
<smd name="2" x="0.92" y="-3.982" dx="1.4" dy="1.39" layer="1" rot="R90"/>
<smd name="3" x="0" y="0" dx="4.86" dy="3.36" layer="1" rot="R90"/>
<text x="-0.297" y="-2.813" align="center" size="1.27" layer="25" rot="R0" >&gt;NAME</text>
<text x="-0.297" y="-2.813" align="center" size="1.27" layer="27" rot="R0" >&gt;VALUE</text>
<wire x1="-2.025" y1="1.984" x2="2.025" y2="1.984" width="0.2" layer="51"/>
<wire x1="2.025" y1="1.984" x2="2.025" y2="-3.978" width="0.2" layer="51"/>
<wire x1="2.025" y1="-3.978" x2="-2.025" y2="-3.978" width="0.2" layer="51"/>
<wire x1="-2.025" y1="-3.978" x2="-2.025" y2="1.984" width="0.2" layer="51"/>
<wire x1="-2.025" y1="1.984" x2="-2.025" y2="-3.978" width="0.2" layer="21"/>
<wire x1="2.025" y1="-3.978" x2="2.025" y2="1.984" width="0.2" layer="21"/>
<circle x="-2.251" y="-4.917" radius="0.16362" width="0.4" layer="25"/>
</package>
</packages>
<symbols>
<symbol name="SBR8U60P5-13D">
<wire x1="5.08" y1="2.54" x2="48.26" y2="2.54" width="0.254" layer="94"/>
<wire x1="48.26" y1="-5.08" x2="48.26" y2="2.54" width="0.254" layer="94"/>
<wire x1="48.26" y1="-5.08" x2="5.08" y2="-5.08" width="0.254" layer="94"/>
<wire x1="5.08" y1="2.54" x2="5.08" y2="-5.08" width="0.254" layer="94"/>
<text x="49.53" y="7.62" align="center-left" size="1.778" layer="95">&gt;NAME</text>
<text x="49.53" y="5.08" align="center-left" size="1.778" layer="96">&gt;VALUE</text>
<pin name="A_LEFT" x="0" y="0" length="middle" direction="in" rot="R0"/>
<pin name="A_RIGHT" x="0" y="-2.54" length="middle" direction="in" rot="R0"/>
<pin name="BOTTOMSIDE_HEAT_SINK" x="53.34" y="0" length="middle" direction="in" rot="R180"/>
</symbol>
</symbols>
<devicesets>
<deviceset name="SBR8U60P5-13D" prefix="D">
<description>&lt;b&gt;Schottky Diodes &amp; Rectifiers Super Barrier Rectifier&lt;/b&gt;&lt;p&gt;
Source: &lt;a href="https://www.diodes.com/assets/Datasheets/SBR8U60P5.pdf"&gt; Datasheet &lt;/a&gt;</description>
<gates>
<gate name="G$1" symbol="SBR8U60P5-13D" x="0" y="0"/>
</gates>
<devices>
<device name="" package="POWERDI5">
<connects>
<connect gate="G$1" pin="A_LEFT" pad="1"/>
<connect gate="G$1" pin="A_RIGHT" pad="2"/>
<connect gate="G$1" pin="BOTTOMSIDE_HEAT_SINK" pad="3"/>
</connects>
<technologies>
<technology name="">
<attribute name="Manufacturer_Name" value="Diodes Inc." constant="no"/>
<attribute name="Manufacturer_Part_Number" value="SBR8U60P5-13D" constant="no"/>
<attribute name="Mouser_Part_Number" value="621-SBR8U60P5-13D" constant="no"/>
<attribute name="Mouser_Price-Stock" value="https://www.mouser.com/Search/Refine.aspx?Keyword=621-SBR8U60P5-13D" constant="no"/>
<attribute name="RS_Part_Number" value="" constant="no"/>
<attribute name="RS_Price-Stock" value="" constant="no"/>
<attribute name="Description" value="Schottky Diodes &amp; Rectifiers Super Barrier Rectifier" constant="no"/>
<attribute name="Height" value="mm" constant="no"/>
</technology>
</technologies>
</device>
</devices>
</deviceset>
</devicesets>
</library>
</drawing>
</eagle>
