PCBNEW-LibModule-V1  2020-06-13 00:18:41
# encoding utf-8
Units mm
$INDEX
HDRV2W64P0X254_1X2_508X248X864P
$EndINDEX
$MODULE HDRV2W64P0X254_1X2_508X248X864P
Po 0 0 0 15 5ee40d51 00000000 ~~
Li HDRV2W64P0X254_1X2_508X248X864P
Cd HMTSW-102-07-G-S-230-
Kw Connector
Sc 0
At STD
AR 
Op 0 0 0
T0 0 0 1.27 1.27 0 0.254 N V 21 N "J**"
T1 0 0 1.27 1.27 0 0.254 N I 21 N "HDRV2W64P0X254_1X2_508X248X864P"
DS 1.52 1.49 -4.06 1.49 0.05 24
DS -4.06 1.49 -4.06 -1.49 0.05 24
DS -4.06 -1.49 1.52 -1.49 0.05 24
DS 1.52 -1.49 1.52 1.49 0.05 24
DS 1.27 1.24 -3.81 1.24 0.1 24
DS -3.81 1.24 -3.81 -1.24 0.1 24
DS -3.81 -1.24 1.27 -1.24 0.1 24
DS 1.27 -1.24 1.27 1.24 0.1 24
DS 0 1.24 -3.81 1.24 0.2 21
DS -3.81 1.24 -3.81 -1.24 0.2 21
DS -3.81 -1.24 1.27 -1.24 0.2 21
DS 1.27 -1.24 1.27 0 0.2 21
$PAD
Po 0 0
Sh "1" R 1.65 1.65 0 0 900
Dr 1.1 0 0
At STD N 00E0FFFF
Ne 0 ""
$EndPAD
$PAD
Po -2.54 0
Sh "2" C 1.65 1.65 0 0 900
Dr 1.1 0 0
At STD N 00E0FFFF
Ne 0 ""
$EndPAD
$EndMODULE HDRV2W64P0X254_1X2_508X248X864P
$EndLIBRARY
