PCBNEW-LibModule-V1  2020-06-16 07:39:29
# encoding utf-8
Units mm
$INDEX
SOT230P700X180-4N
$EndINDEX
$MODULE SOT230P700X180-4N
Po 0 0 0 15 5ee86921 00000000 ~~
Li SOT230P700X180-4N
Cd SOT-223 4L-15
Kw Integrated Circuit
Sc 0
At SMD
AR 
Op 0 0 0
T0 0 0 1.27 1.27 0 0.254 N V 21 N "IC**"
T1 0 0 1.27 1.27 0 0.254 N I 21 N "SOT230P700X180-4N"
DS -4.25 -3.6 4.25 -3.6 0.05 24
DS 4.25 -3.6 4.25 3.6 0.05 24
DS 4.25 3.6 -4.25 3.6 0.05 24
DS -4.25 3.6 -4.25 -3.6 0.05 24
DS -1.75 -3.225 1.75 -3.225 0.1 24
DS 1.75 -3.225 1.75 3.225 0.1 24
DS 1.75 3.225 -1.75 3.225 0.1 24
DS -1.75 3.225 -1.75 -3.225 0.1 24
DS -1.75 -0.925 0.55 -3.225 0.1 24
DS -1.75 -3.225 1.75 -3.225 0.2 21
DS 1.75 -3.225 1.75 3.225 0.2 21
DS 1.75 3.225 -1.75 3.225 0.2 21
DS -1.75 3.225 -1.75 -3.225 0.2 21
DS -4 -3.125 -2.4 -3.125 0.2 21
$PAD
Po -3.2 -2.3
Sh "1" R 0.95 1.6 0 0 900
At SMD N 00888000
Ne 0 ""
$EndPAD
$PAD
Po -3.2 0
Sh "2" R 0.95 1.6 0 0 900
At SMD N 00888000
Ne 0 ""
$EndPAD
$PAD
Po -3.2 2.3
Sh "3" R 0.95 1.6 0 0 900
At SMD N 00888000
Ne 0 ""
$EndPAD
$PAD
Po 3.2 0
Sh "4" R 1.6 3.2 0 0 0
At SMD N 00888000
Ne 0 ""
$EndPAD
$EndMODULE SOT230P700X180-4N
$EndLIBRARY
